﻿<?xml version="1.0"?>
<!-- Generator: Adobe Illustrator 10.0, SVG Export Plug-In . SVG Version: 3.0.0 Build 77)  -->
<!DOCTYPE svg PUBLIC "-//W3C//DTD SVG 1.0//EN" "http://www.w3.org/TR/2001/REC-SVG-20010904/DTD/svg10.dtd"[
	<!ENTITY ns_flows "http://ns.adobe.com/Flows/1.0/">
	<!ENTITY ns_svg "http://www.w3.org/2000/svg">
	<!ENTITY ns_xlink "http://www.w3.org/1999/xlink">
	<!ENTITY st0 "font-size:6.6462px;">
	<!ENTITY st1 "fill:none;">
	<!ENTITY st2 "stroke:#000000;">
	<!ENTITY st3 "stroke-width:1.1331;">
	<!ENTITY st4 "stroke-linecap:round;">
	<!ENTITY st5 "stroke-linejoin:round;">
	<!ENTITY st6 "stroke-width:0.8499;">
	<!ENTITY st7 "font-family:'Arial';">
	<!ENTITY st8 "font-size:6.6349px;">
	<!ENTITY st9 "stroke-width:1.4;">
	<!ATTLIST svg
		xmlns:ewd CDATA #FIXED "http://shcl.co.jp/ewd"
		xmlns:a CDATA #FIXED "http://ns.adobe.com/AdobeSVGViewerExtensions/3.0/"
		ewd:ver CDATA #IMPLIED>
	<!ATTLIST g
		ewd:pinNo CDATA #IMPLIED>
]>
<svg width="180.185" height="81.878" viewBox="0 0 180.185 81.878" style="overflow:visible;enable-background:new 0 0 74.225 52.125" xml:space="preserve" onload="call_execInitLoadProc_svg('connector')" ewd:ver="2.1.2.7" xmlns="&ns_svg;" xmlns:ewd="http://shcl.co.jp/ewd" xmlns:a="http://ns.adobe.com/AdobeSVGViewerExtensions/3.0/" xmlns:xlink="&ns_xlink;">
<script type="text/javascript" xlink:href="../../../../../system/js/ewd/fig/svgfig.js"/>
<g id="レイヤー_1" transform="translate(0,17.008)">
	<g>
		<path style="&st1;&st2;&st3;&st4;&st5;" d="M4.818,44.476c0,0.782,0.634,1.417,1.416,1.417"/>
		<path style="&st1;&st2;&st3;&st4;&st5;" d="M67.991,45.893c0.782,0,1.417-0.634,1.417-1.417"/>
		<path style="&st1;&st2;&st3;&st4;&st5;" d="M6.234,2.266c-0.782,0-1.416,0.634-1.416,1.416"/>
		<path style="&st1;&st2;&st3;&st4;&st5;" d="M69.407,3.683c0-0.782-0.634-1.416-1.417-1.416"/>
		<path style="&st1;&st2;&st3;&st4;&st5;" d="M28.189,21.813c0.782,0,1.417-0.634,1.417-1.417"/>
		<path style="&st1;&st2;&st3;&st4;&st5;" d="M44.62,20.396c0,0.782,0.634,1.417,1.417,1.417"/>
		<path style="&st1;&st2;&st3;&st4;&st5;" d="M22.948,20.963c0,0.469,0.381,0.85,0.85,0.85"/>
		<path style="&st1;&st2;&st3;&st4;&st5;" d="M50.427,21.813c0.469,0,0.85-0.38,0.85-0.85"/>
		<path style="&st1;&st2;&st3;&st4;&st5;" d="M24.365,6.864c0,0.857,0.436,1.587,1.19,1.994"/>
		<path style="&st1;&st2;&st3;&st4;&st5;" d="M48.671,8.858c0.754-0.407,1.189-1.137,1.189-1.994"/>
		<path style="&st1;&st2;&st3;&st4;&st5;" d="M25.781,0.567c-0.782,0-1.417,0.634-1.417,1.416"/>
		<path style="&st1;&st2;&st3;&st4;&st5;" d="M49.86,1.983c0-0.782-0.634-1.416-1.417-1.416"/>
		<path style="&st1;&st2;&st3;&st4;&st5;" d="M13.033,3.683c0-0.782-0.634-1.416-1.416-1.416"/>
		<path style="&st1;&st2;&st3;&st4;&st5;" d="M62.608,2.266c-0.782,0-1.417,0.634-1.417,1.416"/>
		<path style="&st1;&st2;&st6;&st4;&st5;" d="M6.223,11.363C5.327,11.886,4.82,12.77,4.82,13.807"/>
		<path style="&st1;&st2;&st6;&st4;&st5;" d="M69.407,13.807c0-1.038-0.508-1.923-1.404-2.446"/>
		<path style="&st1;&st2;&st6;&st4;&st5;" d="M12.229,8.215c-0.421,0-0.778,0.097-1.142,0.309"/>
		<path style="&st1;&st2;&st6;&st4;&st5;" d="M63.138,8.524c-0.363-0.212-0.721-0.309-1.142-0.309"/>
		<path style="&st1;&st2;&st6;&st4;&st5;" d="M12.535,9.632c-0.568,0-1.052,0.18-1.482,0.552"/>
		<path style="&st1;&st2;&st6;&st4;&st5;" d="M22.948,8.782c0-0.313-0.253-0.567-0.566-0.567"/>
		<path style="&st1;&st2;&st6;&st4;&st5;" d="M51.844,8.215c-0.313,0-0.567,0.254-0.567,0.567"/>
		<path style="&st1;&st2;&st3;&st4;&st5;" d="M59.798,4.176c-0.402-1.167-1.445-1.911-2.68-1.911"/>
		<path style="&st1;&st2;&st3;&st4;&st5;" d="M21.79,3.354c-0.154-0.647-0.711-1.087-1.376-1.087"/>
		<path style="&st1;&st2;&st3;&st4;&st5;" d="M53.813,2.266c-0.666,0-1.223,0.44-1.378,1.088"/>
		<path style="&st1;&st2;&st3;&st4;&st5;" d="M22.948,8.547c0-0.232-0.023-0.428-0.077-0.655"/>
		<path style="&st1;&st2;&st3;&st4;&st5;" d="M51.354,7.892c-0.054,0.226-0.077,0.422-0.077,0.655"/>
		<path style="&st1;&st2;&st6;&st4;&st5;" d="M8.784,20.261c0-0.612-0.365-1.129-0.941-1.334"/>
		<path style="&st1;&st2;&st6;&st4;&st5;" d="M7.844,33.765c0.576-0.205,0.941-0.722,0.941-1.334"/>
		<path style="&st1;&st2;&st6;&st4;&st5;" d="M65.441,32.431c0,0.611,0.364,1.128,0.94,1.334"/>
		<path style="&st1;&st2;&st6;&st4;&st5;" d="M66.382,18.929c-0.575,0.206-0.938,0.721-0.938,1.332"/>
		<path style="&st1;&st2;&st3;&st4;&st5;" d="M1.753,21.19c-0.692,0.115-1.186,0.698-1.186,1.399"/>
		<path style="&st1;&st2;&st3;&st4;&st5;" d="M0.569,24.436c0,0.7,0.493,1.283,1.184,1.397"/>
		<path style="&st1;&st2;&st3;&st4;&st5;" d="M72.473,25.836c0.692-0.115,1.186-0.698,1.186-1.399"/>
		<path style="&st1;&st2;&st3;&st4;&st5;" d="M73.657,22.589c0-0.7-0.494-1.283-1.185-1.397"/>
		<path style="&st1;&st2;&st6;&st4;&st5;" d="M10.484,40.227c-0.782,0-1.417,0.634-1.417,1.417"/>
		<path style="&st1;&st2;&st6;&st4;&st5;" d="M9.067,41.643c0,0.782,0.634,1.417,1.417,1.417"/>
		<path style="&st1;&st2;&st6;&st4;&st5;" d="M63.742,43.06c0.782,0,1.417-0.634,1.417-1.417"/>
		<path style="&st1;&st2;&st6;&st4;&st5;" d="M65.158,41.643c0-0.782-0.634-1.417-1.417-1.417"/>
		<path style="&st1;&st2;&st6;&st4;&st5;" d="M23.231,43.06c0.782,0,1.417-0.634,1.417-1.417"/>
		<path style="&st1;&st2;&st6;&st4;&st5;" d="M24.648,41.643c0-0.782-0.634-1.417-1.417-1.417"/>
		<path style="&st1;&st2;&st6;&st4;&st5;" d="M50.994,40.227c-0.782,0-1.417,0.634-1.417,1.417"/>
		<path style="&st1;&st2;&st6;&st4;&st5;" d="M49.577,41.643c0,0.782,0.634,1.417,1.417,1.417"/>
		<path style="&st1;&st2;&st6;&st4;&st5;" d="M28.189,40.227c-0.782,0-1.416,0.634-1.416,1.417"/>
		<path style="&st1;&st2;&st6;&st4;&st5;" d="M26.773,41.643c0,0.782,0.634,1.417,1.416,1.417"/>
		<path style="&st1;&st2;&st6;&st4;&st5;" d="M46.036,43.06c0.782,0,1.417-0.634,1.417-1.417"/>
		<path style="&st1;&st2;&st6;&st4;&st5;" d="M47.453,41.643c0-0.782-0.634-1.417-1.417-1.417"/>
		<path style="&st1;&st2;&st3;&st4;&st5;" d="M17.099,2.266c-1.281,0-2.359,0.808-2.719,2.037"/>
		<path style="&st1;&st2;&st6;&st4;&st5;" d="M7.64,12.176c-0.897,0.523-1.406,1.409-1.406,2.448"/>
		<path style="&st1;&st2;&st6;&st4;&st5;" d="M21.532,10.198c0-0.313-0.253-0.566-0.566-0.566"/>
		<path style="&st1;&st2;&st6;&st4;&st5;" d="M6.234,43.909c0,0.313,0.254,0.567,0.567,0.567"/>
		<path style="&st1;&st2;&st6;&st4;&st5;" d="M67.424,44.476c0.313,0,0.566-0.254,0.566-0.567"/>
		<path style="&st1;&st2;&st6;&st4;&st5;" d="M53.26,9.632c-0.313,0-0.566,0.254-0.566,0.566"/>
		<path style="&st1;&st2;&st6;&st4;&st5;" d="M62.756,9.94c-0.363-0.212-0.721-0.309-1.142-0.309"/>
		<path style="&st1;&st2;&st6;&st4;&st5;" d="M67.991,14.623c0-1.039-0.508-1.924-1.405-2.447"/>
		<path style="&st1;&st2;&st3;&st4;&st5;" d="M25.781,0.567h22.663"/>
		<path style="&st1;&st2;&st3;&st4;&st5;" d="M4.818,26.346v18.13"/>
		<path style="&st1;&st2;&st3;&st4;&st5;" d="M69.407,26.346v18.13"/>
		<path style="&st1;&st2;&st6;&st4;&st5;" d="M10.484,45.893v2.833"/>
		<path style="&st1;&st2;&st6;&st4;&st5;" d="M12.467,45.893v2.833"/>
		<path style="&st1;&st2;&st6;&st4;&st5;" d="M63.742,45.893v2.833"/>
		<path style="&st1;&st2;&st6;&st4;&st5;" d="M61.759,45.893v2.833"/>
		<path style="&st1;&st2;&st6;&st4;&st5;" d="M19.549,45.893v2.833"/>
		<path style="&st1;&st2;&st6;&st4;&st5;" d="M54.676,45.893v2.833"/>
		<path style="&st1;&st2;&st6;&st4;&st5;" d="M8.784,20.261v12.17"/>
		<path style="&st1;&st2;&st6;&st4;&st5;" d="M65.441,20.261v12.17"/>
		<path style="&st1;&st2;&st3;&st4;&st5;" d="M62.608,2.266h5.382"/>
		<path style="&st1;&st2;&st3;&st4;&st5;" d="M22.948,8.547v12.416"/>
		<path style="&st1;&st2;&st3;&st4;&st5;" d="M51.277,8.547v12.416"/>
		<path style="&st1;&st2;&st6;&st4;&st5;" d="M50.427,21.813h2.266"/>
		<path style="&st1;&st2;&st3;&st4;&st5;" d="M29.605,11.048v9.348"/>
		<path style="&st1;&st2;&st3;&st4;&st5;" d="M44.62,11.048v9.348"/>
		<path style="&st1;&st2;&st3;&st4;&st5;" d="M23.798,21.813h4.391"/>
		<path style="&st1;&st2;&st3;&st4;&st5;" d="M24.365,1.983v4.881"/>
		<path style="&st1;&st2;&st3;&st4;&st5;" d="M49.86,1.983v4.881"/>
		<path style="&st1;&st2;&st3;&st4;&st5;" d="M25.555,8.858l4.051,2.19"/>
		<path style="&st1;&st2;&st3;&st4;&st5;" d="M44.62,11.048l4.051-2.19"/>
		<path style="&st1;&st2;&st3;&st4;&st5;" d="M13.033,3.683v4.533"/>
		<path style="&st1;&st2;&st3;&st4;&st5;" d="M61.192,3.683v4.533"/>
		<path style="&st1;&st2;&st3;&st4;&st5;" d="M6.234,2.266h5.383"/>
		<path style="&st1;&st2;&st3;&st4;&st5;" d="M53.813,2.266h3.306"/>
		<path style="&st1;&st2;&st6;&st4;&st5;" d="M11.087,8.524l-4.864,2.838"/>
		<path style="&st1;&st2;&st6;&st4;&st5;" d="M63.138,8.524l4.864,2.838"/>
		<path style="&st1;&st2;&st6;&st4;&st5;" d="M12.229,8.215h10.153"/>
		<path style="&st1;&st2;&st6;&st4;&st5;" d="M51.844,8.215h10.153"/>
		<path style="&st1;&st2;&st6;&st4;&st5;" d="M12.535,9.632h8.431"/>
		<path style="&st1;&st2;&st3;&st4;&st5;" d="M17.099,2.266h3.314"/>
		<path style="&st1;&st2;&st3;&st4;&st5;" d="M21.79,3.354l1.083,4.538"/>
		<path style="&st1;&st2;&st3;&st4;&st5;" d="M52.436,3.354l-1.082,4.538"/>
		<path style="&st1;&st2;&st3;&st4;&st5;" d="M59.798,4.176l1.394,4.04"/>
		<path style="&st1;&st2;&st6;&st4;&st5;" d="M4.818,17.847l3.025,1.079"/>
		<path style="&st1;&st2;&st6;&st4;&st5;" d="M4.818,34.844l3.025-1.08"/>
		<path style="&st1;&st2;&st6;&st4;&st5;" d="M69.407,34.844l-3.025-1.08"/>
		<path style="&st1;&st2;&st6;&st4;&st5;" d="M66.382,18.926l3.025-1.079"/>
		<path style="&st1;&st2;&st6;&st4;&st5;" d="M41.22,6.516h3.399"/>
		<path style="&st1;&st2;&st6;&st4;&st5;" d="M29.605,6.516h3.399"/>
		<path style="&st1;&st2;&st3;&st4;&st5;" d="M4.818,20.68l-3.065,0.51"/>
		<path style="&st1;&st2;&st3;&st4;&st5;" d="M0.569,22.589v1.847"/>
		<path style="&st1;&st2;&st3;&st4;&st5;" d="M1.753,25.836l3.065,0.51"/>
		<path style="&st1;&st2;&st3;&st4;&st5;" d="M69.407,26.346l3.065-0.51"/>
		<path style="&st1;&st2;&st3;&st4;&st5;" d="M73.657,24.436v-1.847"/>
		<path style="&st1;&st2;&st3;&st4;&st5;" d="M69.407,20.68l3.065,0.51"/>
		<path style="&st1;&st2;&st6;&st4;&st5;" d="M33.572,45.893v1.416h7.082v-1.416"/>
		<path style="&st1;&st2;&st6;&st4;&st5;" d="M50.994,43.06h12.748"/>
		<path style="&st1;&st2;&st6;&st4;&st5;" d="M50.994,40.227h12.748"/>
		<path style="&st1;&st2;&st6;&st4;&st5;" d="M10.484,40.227h12.748"/>
		<path style="&st1;&st2;&st6;&st4;&st5;" d="M28.189,40.227h17.847"/>
		<path style="&st1;&st2;&st6;&st4;&st5;" d="M10.484,43.06h12.748"/>
		<path style="&st1;&st2;&st6;&st4;&st5;" d="M28.189,43.06h17.847"/>
		<path style="&st1;&st2;&st6;&st4;&st5;" d="M9.917,26.912h54.391"/>
		<path style="&st1;&st2;&st6;&st4;&st5;" d="M31.447,26.912v11.615"/>
		<path style="&st1;&st2;&st6;&st4;&st5;" d="M42.212,26.923v11.604"/>
		<path style="&st1;&st2;&st6;&st4;&st5;" d="M18.132,48.725h37.96"/>
		<path style="&st1;&st2;&st6;&st4;&st5;" d="M7.651,45.893h58.923"/>
		<path style="&st1;&st2;&st6;&st4;&st5;" d="M4.818,20.68v5.666"/>
		<path style="&st1;&st2;&st3;&st4;&st5;" d="M4.818,3.683V20.68"/>
		<path style="&st1;&st2;&st3;&st4;&st5;" d="M69.407,3.683V20.68"/>
		<path style="&st1;&st2;&st6;&st4;&st5;" d="M69.407,20.68v5.666"/>
		<path style="&st1;&st2;&st3;&st4;&st5;" d="M46.036,21.813h4.391"/>
		<path style="&st1;&st2;&st6;&st4;&st5;" d="M21.532,21.813h2.267"/>
		<path style="&st1;&st2;&st6;&st4;&st5;" d="M29.605,6.516v4.533"/>
		<path style="&st1;&st2;&st6;&st4;&st5;" d="M44.62,6.516v4.533"/>
		<path style="&st1;&st2;&st3;&st4;&st5;" d="M13.033,8.215l1.388-4.051"/>
		<path style="&st1;&st2;&st6;&st4;&st5;" d="M33.005,6.516h-1.133"/>
		<path style="&st1;&st2;&st6;&st4;&st5;" d="M20.399,38.527l-0.006-23.229H9.917v23.229h54.391V15.298H53.827v23.229"/>
		<path style="&st1;&st2;&st3;&st4;&st5;" d="M6.234,45.893h1.417v2.833h10.481l7.649,2.833h22.663l7.649-2.833h10.481v-2.833h1.417"/>
		<path style="&st1;&st2;&st6;&st4;&st5;" d="M29.605,9.349H44.62"/>
		<path style="&st1;&st2;&st6;&st4;&st5;" d="M31.588,6.516V2.833h11.048v3.683"/>
		<path style="&st1;&st2;&st6;&st4;&st5;" d="M41.22,7.649h-8.215V3.966h8.215V7.649"/>
		<path style="&st1;&st2;&st6;&st4;&st5;" d="M6.234,14.623v3.629"/>
		<path style="&st1;&st2;&st6;&st4;&st5;" d="M6.234,34.439v9.47"/>
		<path style="&st1;&st2;&st6;&st4;&st5;" d="M67.991,34.439v9.47"/>
		<path style="&st1;&st2;&st6;&st4;&st5;" d="M21.532,10.198v11.615"/>
		<path style="&st1;&st2;&st6;&st4;&st5;" d="M52.693,10.198v11.615"/>
		<path style="&st1;&st2;&st6;&st4;&st5;" d="M11.538,9.901L7.64,12.176"/>
		<path style="&st1;&st2;&st6;&st4;&st5;" d="M6.801,44.476h60.623"/>
		<path style="&st1;&st2;&st6;&st4;&st5;" d="M53.26,9.632h8.354"/>
		<path style="&st1;&st2;&st6;&st4;&st5;" d="M62.756,9.94l3.83,2.235"/>
		<path style="&st1;&st2;&st6;&st4;&st5;" d="M67.991,14.623v3.629"/>
		<path style="&st1;&st2;&st6;&st4;&st5;" d="M42.354,6.516H41.22"/>
		<g ewd:pinNo="2">
			<text transform="matrix(0.88 0 0 1 57.2568 23.0781)"><tspan x="0" y="0" style="&st7; &st0;">2</tspan></text>
		</g>
		<g ewd:pinNo="1">
			<text transform="matrix(0.88 0 0 1 13.6304 23.0781)"><tspan x="0" y="0" style="&st7; &st0;">1</tspan></text>
		</g>
		<g ewd:pinNo="3">
			<text transform="matrix(0.88 0 0 1 13.6304 34.6929)"><tspan x="0" y="0" style="&st7; &st0;">3</tspan></text>
		</g>
		<g ewd:pinNo="4">
			<text transform="matrix(0.88 0 0 1 24.3955 34.6929)"><tspan x="0" y="0" style="&st7; &st0;">4</tspan></text>
		</g>
		<g ewd:pinNo="5">
			<text transform="matrix(0.88 0 0 1 35.1602 34.6929)"><tspan x="0" y="0" style="&st7; &st0;">5</tspan></text>
		</g>
		<g ewd:pinNo="6">
			<text transform="matrix(0.88 0 0 1 46.2085 34.6929)"><tspan x="0" y="0" style="&st7; &st0;">6</tspan></text>
		</g>
		<g ewd:pinNo="7">
			<text transform="matrix(0.88 0 0 1 57.2568 34.6929)"><tspan x="0" y="0" style="&st7; &st0;">7</tspan></text>
		</g>
	</g>
</g>
<g id="レイヤー_1" transform="translate(94.066,17.008)">
	<g>
		<path style="&st1;&st2;&st3;&st4;&st5;" d="M13.315,64.306h59.49"/>
		<path style="&st1;&st2;&st3;&st4;&st5;" d="M85.552,41.36v-9.915"/>
		<path style="&st1;&st2;&st3;&st4;&st5;" d="M81.303,55.808V45.609"/>
		<path style="&st1;&st2;&st6;&st4;&st5;" d="M14.731,9.632h56.657"/>
		<path style="&st1;&st2;&st6;&st4;&st5;" d="M11.048,14.731h7.649"/>
		<path style="&st1;&st2;&st6;&st4;&st5;" d="M11.048,59.207h16.147"/>
		<path style="&st1;&st2;&st6;&st4;&st5;" d="M9.915,60.34h66.289"/>
		<path style="&st1;&st2;&st6;&st4;&st5;" d="M9.915,13.598h9.915"/>
		<path style="&st1;&st2;&st6;&st4;&st5;" d="M75.637,15.298V58.64"/>
		<path style="&st1;&st2;&st6;&st4;&st5;" d="M10.482,15.298V58.64"/>
		<path style="&st1;&st2;&st6;&st4;&st5;" d="M9.348,14.164V31.87"/>
		<path style="&st1;&st2;&st6;&st4;&st5;" d="M76.77,14.164V31.87"/>
		<path style="&st1;&st2;&st6;&st4;&st5;" d="M5.949,34.136v4.532"/>
		<path style="&st1;&st2;&st6;&st4;&st5;" d="M80.17,38.668v-4.532"/>
		<path style="&st1;&st2;&st6;&st4;&st5;" d="M9.348,40.935v18.838"/>
		<path style="&st1;&st2;&st6;&st4;&st5;" d="M4.816,33.003v6.799"/>
		<path style="&st1;&st2;&st6;&st4;&st5;" d="M76.77,40.935v18.838"/>
		<path style="&st1;&st2;&st3;&st4;&st5;" d="M81.303,27.195v-7.648"/>
		<path style="&st1;&st2;&st6;&st4;&st5;" d="M81.303,39.802v-6.799"/>
		<path style="&st1;&st2;&st6;&st4;&st5;" d="M20.397,14.164v5.099"/>
		<path style="&st1;&st2;&st6;&st4;&st5;" d="M65.722,14.164v5.099"/>
		<path style="&st1;&st2;&st6;&st4;&st5;" d="M19.263,15.298v5.099"/>
		<path style="&st1;&st2;&st6;&st4;&st5;" d="M66.856,15.298v5.099"/>
		<path style="&st1;&st2;&st6;&st4;&st5;" d="M67.422,14.731h7.648"/>
		<path style="&st1;&st2;&st6;&st4;&st5;" d="M23.796,13.598h38.527"/>
		<path style="&st1;&st2;&st6;&st4;&st5;" d="M66.289,13.598h9.915"/>
		<path style="&st1;&st2;&st6;&st4;&st5;" d="M58.782,20.396v11.756"/>
		<path style="&st1;&st2;&st6;&st4;&st5;" d="M27.337,20.396v11.756"/>
		<path style="&st1;&st2;&st6;&st4;&st5;" d="M24.504,1.983v4.816"/>
		<path style="&st1;&st2;&st6;&st4;&st5;" d="M61.615,1.983v4.816"/>
		<path style="&st1;&st2;&st3;&st4;&st5;" d="M14.674,4.816v4.816"/>
		<path style="&st1;&st2;&st3;&st4;&st5;" d="M71.445,4.816v4.909"/>
		<path style="&st1;&st2;&st6;&st4;&st5;" d="M23.796,13.881v6.515"/>
		<path style="&st1;&st2;&st6;&st4;&st5;" d="M62.323,13.881v6.515"/>
		<path style="&st1;&st2;&st6;&st4;&st5;" d="M52.833,20.396v11.756"/>
		<path style="&st1;&st2;&st6;&st4;&st5;" d="M33.286,20.396v11.756"/>
		<path style="&st1;&st2;&st6;&st4;&st5;" d="M36.119,33.428H50"/>
		<path style="&st1;&st2;&st6;&st4;&st5;" d="M36.119,36.827H50"/>
		<path style="&st1;&st2;&st6;&st4;&st5;" d="M15.298,51.558h11.048"/>
		<path style="&st1;&st2;&st6;&st4;&st5;" d="M14.448,53.824v-1.417"/>
		<path style="&st1;&st2;&st6;&st4;&st5;" d="M31.558,53.824v-1.417"/>
		<path style="&st1;&st2;&st6;&st4;&st5;" d="M27.196,52.408v1.417"/>
		<path style="&st1;&st2;&st6;&st4;&st5;" d="M58.924,53.824v-1.417"/>
		<path style="&st1;&st2;&st6;&st4;&st5;" d="M71.671,52.408v1.417"/>
		<path style="&st1;&st2;&st6;&st4;&st5;" d="M15.864,50.425h54.391"/>
		<path style="&st1;&st2;&st6;&st4;&st5;" d="M26.204,25.496v24.929"/>
		<path style="&st1;&st2;&st6;&st4;&st5;" d="M59.915,25.496v24.929"/>
		<path style="&st1;&st2;&st6;&st4;&st5;" d="M31.558,59.207h23.06"/>
		<path style="&st1;&st2;&st6;&st4;&st5;" d="M58.924,59.207h16.147"/>
		<path style="&st1;&st2;&st3;&st4;&st5;" d="M72.804,64.306c4.694,0,8.499-3.805,8.499-8.498"/>
		<path style="&st1;&st2;&st3;&st4;&st5;" d="M4.816,55.808c0,4.693,3.805,8.498,8.499,8.498"/>
		<path style="&st1;&st2;&st3;&st4;&st5;" d="M2.501,29.32c1.173,0.104,2.21-0.762,2.314-1.935"/>
		<path style="&st1;&st2;&st3;&st4;&st5;" d="M4.816,27.385c0.006-0.066,0.009-0.123,0.009-0.19"/>
		<path style="&st1;&st2;&st3;&st4;&st5;" d="M2.824,29.326c-1.17-0.073-2.179,0.816-2.252,1.986"/>
		<path style="&st1;&st2;&st3;&st4;&st5;" d="M0.572,31.312c-0.003,0.047-0.004,0.086-0.004,0.133"/>
		<path style="&st1;&st2;&st3;&st4;&st5;" d="M0.567,41.36c0,1.173,0.951,2.125,2.125,2.125"/>
		<path style="&st1;&st2;&st3;&st4;&st5;" d="M4.816,45.609c0-1.174-0.951-2.125-2.125-2.125"/>
		<path style="&st1;&st2;&st6;&st4;&st5;" d="M8.782,32.437c0.313,0,0.566-0.254,0.566-0.567"/>
		<path style="&st1;&st2;&st6;&st4;&st5;" d="M6.516,33.569c-0.313,0-0.567,0.254-0.567,0.567"/>
		<path style="&st1;&st2;&st6;&st4;&st5;" d="M5.949,38.668c0,0.313,0.254,0.567,0.567,0.567"/>
		<path style="&st1;&st2;&st6;&st4;&st5;" d="M10.482,39.802c0-0.313-0.254-0.566-0.567-0.566"/>
		<path style="&st1;&st2;&st6;&st4;&st5;" d="M9.348,40.935c0-0.313-0.253-0.567-0.566-0.567"/>
		<path style="&st1;&st2;&st6;&st4;&st5;" d="M4.816,39.802c0,0.313,0.254,0.566,0.567,0.566"/>
		<path style="&st1;&st2;&st6;&st4;&st5;" d="M5.383,32.437c-0.313,0-0.567,0.253-0.567,0.566"/>
		<path style="&st1;&st2;&st6;&st4;&st5;" d="M9.915,33.569c0.313,0,0.567-0.253,0.567-0.566"/>
		<path style="&st1;&st2;&st6;&st4;&st5;" d="M10.482,58.64c0,0.313,0.253,0.567,0.566,0.567"/>
		<path style="&st1;&st2;&st6;&st4;&st5;" d="M9.348,59.773c0,0.313,0.254,0.566,0.566,0.566"/>
		<path style="&st1;&st2;&st6;&st4;&st5;" d="M75.071,59.207c0.313,0,0.567-0.254,0.567-0.567"/>
		<path style="&st1;&st2;&st6;&st4;&st5;" d="M76.204,60.34c0.313,0,0.566-0.253,0.566-0.566"/>
		<path style="&st1;&st2;&st6;&st4;&st5;" d="M80.17,34.136c0-0.313-0.254-0.567-0.567-0.567"/>
		<path style="&st1;&st2;&st6;&st4;&st5;" d="M79.603,39.235c0.313,0,0.567-0.254,0.567-0.567"/>
		<path style="&st1;&st2;&st6;&st4;&st5;" d="M81.303,33.003c0-0.313-0.253-0.566-0.566-0.566"/>
		<path style="&st1;&st2;&st6;&st4;&st5;" d="M80.737,40.368c0.313,0,0.566-0.253,0.566-0.566"/>
		<path style="&st1;&st2;&st6;&st4;&st5;" d="M77.337,40.368c-0.313,0-0.567,0.254-0.567,0.567"/>
		<path style="&st1;&st2;&st6;&st4;&st5;" d="M76.77,31.87c0,0.313,0.254,0.567,0.567,0.567"/>
		<path style="&st1;&st2;&st6;&st4;&st5;" d="M75.637,33.003c0,0.313,0.253,0.566,0.566,0.566"/>
		<path style="&st1;&st2;&st6;&st4;&st5;" d="M76.204,39.235c-0.313,0-0.566,0.253-0.566,0.566"/>
		<path style="&st1;&st2;&st3;&st4;&st5;" d="M83.428,43.484c-1.174,0-2.125,0.951-2.125,2.125"/>
		<path style="&st1;&st2;&st3;&st4;&st5;" d="M83.428,43.484c1.173,0,2.125-0.951,2.125-2.125"/>
		<path style="&st1;&st2;&st3;&st4;&st5;" d="M85.552,31.445c0-1.173-0.951-2.125-2.125-2.125"/>
		<path style="&st1;&st2;&st3;&st4;&st5;" d="M81.303,27.195c0,1.174,0.951,2.125,2.125,2.125"/>
		<path style="&st1;&st2;&st6;&st4;&st5;" d="M9.915,13.598c-0.313,0-0.566,0.254-0.566,0.566"/>
		<path style="&st1;&st2;&st6;&st4;&st5;" d="M11.048,14.731c-0.313,0-0.566,0.254-0.566,0.567"/>
		<path style="&st1;&st2;&st6;&st4;&st5;" d="M75.637,15.298c0-0.313-0.254-0.567-0.567-0.567"/>
		<path style="&st1;&st2;&st6;&st4;&st5;" d="M76.77,14.164c0-0.313-0.253-0.566-0.566-0.566"/>
		<path style="&st1;&st2;&st6;&st4;&st5;" d="M19.263,15.298c0-0.313-0.253-0.567-0.566-0.567"/>
		<path style="&st1;&st2;&st6;&st4;&st5;" d="M20.397,14.164c0-0.313-0.254-0.566-0.567-0.566"/>
		<path style="&st1;&st2;&st6;&st4;&st5;" d="M66.289,13.598c-0.313,0-0.566,0.254-0.566,0.566"/>
		<path style="&st1;&st2;&st6;&st4;&st5;" d="M67.422,14.731c-0.313,0-0.566,0.254-0.566,0.567"/>
		<path style="&st1;&st2;&st3;&st4;&st5;" d="M14.731,9.632c-5.476,0-9.915,4.439-9.915,9.915"/>
		<path style="&st1;&st2;&st3;&st4;&st5;" d="M81.303,19.547c0-5.476-4.439-9.915-9.915-9.915"/>
		<path style="&st1;&st2;&st6;&st4;&st5;" d="M58.782,9.632c1.564,0,2.833-1.269,2.833-2.833"/>
		<path style="&st1;&st2;&st6;&st4;&st5;" d="M24.504,6.799c0,1.564,1.269,2.833,2.833,2.833"/>
		<path style="&st1;&st2;&st6;&st4;&st5;" d="M24.504,1.983c0-0.782-0.634-1.416-1.417-1.416"/>
		<path style="&st1;&st2;&st6;&st4;&st5;" d="M63.031,0.567c-0.782,0-1.417,0.634-1.417,1.416"/>
		<path style="&st1;&st2;&st3;&st4;&st5;" d="M18.924,0.567c-2.347,0-4.25,1.903-4.25,4.249"/>
		<path style="&st1;&st2;&st3;&st4;&st5;" d="M71.445,4.816c0-2.347-1.902-4.249-4.249-4.249"/>
		<path style="&st1;&st2;&st6;&st4;&st5;" d="M23.796,13.881c0-2.347-1.903-4.249-4.25-4.249"/>
		<path style="&st1;&st2;&st6;&st4;&st5;" d="M66.572,9.632c-2.347,0-4.249,1.902-4.249,4.249"/>
		<path style="&st1;&st2;&st6;&st4;&st5;" d="M27.337,32.153c0,1.643,1.332,2.975,2.975,2.975"/>
		<path style="&st1;&st2;&st6;&st4;&st5;" d="M30.312,35.127c1.643,0,2.974-1.332,2.974-2.975"/>
		<path style="&st1;&st2;&st6;&st4;&st5;" d="M52.833,32.153c0,1.643,1.332,2.975,2.975,2.975"/>
		<path style="&st1;&st2;&st6;&st4;&st5;" d="M55.807,35.127c1.643,0,2.975-1.332,2.975-2.975"/>
		<path style="&st1;&st2;&st6;&st4;&st5;" d="M13.315,23.654c0-0.782-0.634-1.416-1.417-1.416"/>
		<path style="&st1;&st2;&st6;&st4;&st5;" d="M11.898,22.238c-0.782,0-1.417,0.634-1.417,1.416"/>
		<path style="&st1;&st2;&st6;&st4;&st5;" d="M10.482,34.703c0,0.782,0.634,1.417,1.417,1.417"/>
		<path style="&st1;&st2;&st6;&st4;&st5;" d="M11.898,36.119c0.782,0,1.417-0.634,1.417-1.417"/>
		<path style="&st1;&st2;&st6;&st4;&st5;" d="M13.315,39.235c0-0.782-0.634-1.417-1.417-1.417"/>
		<path style="&st1;&st2;&st6;&st4;&st5;" d="M11.898,37.819c-0.782,0-1.417,0.634-1.417,1.417"/>
		<path style="&st1;&st2;&st6;&st4;&st5;" d="M10.482,49.15c0,0.782,0.634,1.416,1.417,1.416"/>
		<path style="&st1;&st2;&st6;&st4;&st5;" d="M11.898,50.566c0.782,0,1.417-0.634,1.417-1.416"/>
		<path style="&st1;&st2;&st6;&st4;&st5;" d="M36.119,33.428c-0.938,0-1.7,0.761-1.7,1.7"/>
		<path style="&st1;&st2;&st6;&st4;&st5;" d="M34.419,35.127c0,0.939,0.761,1.7,1.7,1.7"/>
		<path style="&st1;&st2;&st6;&st4;&st5;" d="M50,36.827c0.939,0,1.7-0.761,1.7-1.7"/>
		<path style="&st1;&st2;&st6;&st4;&st5;" d="M51.699,35.127c0-0.938-0.761-1.7-1.7-1.7"/>
		<path style="&st1;&st2;&st6;&st4;&st5;" d="M75.637,39.235c0-0.782-0.634-1.417-1.417-1.417"/>
		<path style="&st1;&st2;&st6;&st4;&st5;" d="M74.221,37.819c-0.782,0-1.417,0.634-1.417,1.417"/>
		<path style="&st1;&st2;&st6;&st4;&st5;" d="M72.804,34.703c0,0.782,0.634,1.417,1.417,1.417"/>
		<path style="&st1;&st2;&st6;&st4;&st5;" d="M74.221,36.119c0.782,0,1.417-0.634,1.417-1.417"/>
		<path style="&st1;&st2;&st6;&st4;&st5;" d="M72.804,49.15c0,0.782,0.634,1.416,1.417,1.416"/>
		<path style="&st1;&st2;&st6;&st4;&st5;" d="M74.221,50.566c0.782,0,1.417-0.634,1.417-1.416"/>
		<path style="&st1;&st2;&st6;&st4;&st5;" d="M75.637,23.654c0-0.782-0.634-1.416-1.417-1.416"/>
		<path style="&st1;&st2;&st6;&st4;&st5;" d="M74.221,22.238c-0.782,0-1.417,0.634-1.417,1.416"/>
		<path style="&st1;&st2;&st6;&st4;&st5;" d="M19.263,20.396c-0.782,0-1.417,0.634-1.417,1.417"/>
		<path style="&st1;&st2;&st6;&st4;&st5;" d="M17.847,21.813c0,0.782,0.634,1.417,1.417,1.417"/>
		<path style="&st1;&st2;&st6;&st4;&st5;" d="M23.796,23.229c0.782,0,1.417-0.634,1.417-1.417"/>
		<path style="&st1;&st2;&st6;&st4;&st5;" d="M25.213,21.813c0-0.782-0.634-1.417-1.417-1.417"/>
		<path style="&st1;&st2;&st6;&st4;&st5;" d="M62.323,20.396c-0.782,0-1.417,0.634-1.417,1.417"/>
		<path style="&st1;&st2;&st6;&st4;&st5;" d="M60.906,21.813c0,0.782,0.634,1.417,1.417,1.417"/>
		<path style="&st1;&st2;&st6;&st4;&st5;" d="M66.856,23.229c0.782,0,1.417-0.634,1.417-1.417"/>
		<path style="&st1;&st2;&st6;&st4;&st5;" d="M68.272,21.813c0-0.782-0.634-1.417-1.417-1.417"/>
		<path style="&st1;&st2;&st6;&st4;&st5;" d="M15.298,51.558c-0.47,0-0.85,0.38-0.85,0.85"/>
		<path style="&st1;&st2;&st6;&st4;&st5;" d="M27.196,52.408c0-0.469-0.38-0.85-0.85-0.85"/>
		<path style="&st1;&st2;&st6;&st4;&st5;" d="M32.408,51.558c-0.469,0-0.85,0.38-0.85,0.85"/>
		<path style="&st1;&st2;&st6;&st4;&st5;" d="M54.617,52.408c0-0.469-0.38-0.85-0.85-0.85"/>
		<path style="&st1;&st2;&st6;&st4;&st5;" d="M59.773,51.558c-0.469,0-0.85,0.38-0.85,0.85"/>
		<path style="&st1;&st2;&st6;&st4;&st5;" d="M71.671,52.408c0-0.469-0.38-0.85-0.85-0.85"/>
		<path style="&st1;&st2;&st3;&st4;&st5;" d="M67.196,0.567H18.924"/>
		<path style="&st1;&st2;&st3;&st4;&st5;" d="M0.567,31.445v9.915"/>
		<path style="&st1;&st2;&st3;&st4;&st5;" d="M4.816,45.609v10.198"/>
		<path style="&st1;&st2;&st6;&st4;&st5;" d="M76.204,39.235h3.399"/>
		<path style="&st1;&st2;&st6;&st4;&st5;" d="M76.204,33.569h3.399"/>
		<path style="&st1;&st2;&st6;&st4;&st5;" d="M6.516,33.569h3.399"/>
		<path style="&st1;&st2;&st6;&st4;&st5;" d="M6.516,39.235h3.399"/>
		<path style="&st1;&st2;&st6;&st4;&st5;" d="M5.383,32.437h3.399"/>
		<path style="&st1;&st2;&st6;&st4;&st5;" d="M5.383,40.368h3.399"/>
		<path style="&st1;&st2;&st3;&st4;&st5;" d="M4.816,19.547v7.838"/>
		<path style="&st1;&st2;&st6;&st4;&st5;" d="M77.337,32.437h3.399"/>
		<path style="&st1;&st2;&st6;&st4;&st5;" d="M77.337,40.368h3.399"/>
		<path style="&st1;&st2;&st6;&st4;&st5;" d="M62.323,19.264h3.399"/>
		<path style="&st1;&st2;&st6;&st4;&st5;" d="M57.365,20.396h9.49"/>
		<path style="&st1;&st2;&st6;&st4;&st5;" d="M24.504,5.099h37.11"/>
		<path style="&st1;&st2;&st6;&st4;&st5;" d="M19.263,20.396h9.49"/>
		<path style="&st1;&st2;&st6;&st4;&st5;" d="M33.286,20.396h19.547"/>
		<path style="&st1;&st2;&st6;&st4;&st5;" d="M20.397,19.264h3.399"/>
		<path style="&st1;&st2;&st6;&st4;&st5;" d="M33.286,32.153l-1.7-2.688V19.264h22.946v10.201l-1.7,2.688"/>
		<path style="&st1;&st2;&st6;&st4;&st5;" d="M33.286,20.396l-1.7-1.133"/>
		<path style="&st1;&st2;&st6;&st4;&st5;" d="M52.833,20.396l1.7-1.133"/>
		<path style="&st1;&st2;&st6;&st4;&st5;" d="M38.81,5.099V2.266h8.499v2.833"/>
		<path style="&st1;&st2;&st6;&st4;&st5;" d="M38.81,3.683h8.499"/>
		<path style="&st1;&st2;&st6;&st4;&st5;" d="M34.561,5.099v3.399h16.997V5.099"/>
		<path style="&st1;&st2;&st6;&st4;&st5;" d="M13.315,34.703V23.654"/>
		<path style="&st1;&st2;&st6;&st4;&st5;" d="M13.315,39.235v9.915"/>
		<path style="&st1;&st2;&st6;&st4;&st5;" d="M35.977,20.396v2.266h14.165v-2.266"/>
		<path style="&st1;&st2;&st6;&st4;&st5;" d="M72.804,39.235v9.915"/>
		<path style="&st1;&st2;&st6;&st4;&st5;" d="M72.804,34.703V23.654"/>
		<path style="&st1;&st2;&st6;&st4;&st5;" d="M19.263,23.229h4.533"/>
		<path style="&st1;&st2;&st6;&st4;&st5;" d="M62.323,23.229h4.533"/>
		<path style="&st1;&st2;&st6;&st4;&st5;" d="M14.448,59.207v-5.383h12.748v5.383"/>
		<path style="&st1;&st2;&st6;&st4;&st5;" d="M31.558,59.207v-5.383h23.06v5.383"/>
		<path style="&st1;&st2;&st6;&st4;&st5;" d="M58.924,59.207v-5.383h12.748v5.383"/>
		<path style="&st1;&st2;&st6;&st4;&st5;" d="M53.768,51.558h-21.36"/>
		<path style="&st1;&st2;&st6;&st4;&st5;" d="M54.617,53.824v-1.417"/>
		<path style="&st1;&st2;&st6;&st4;&st5;" d="M70.822,51.558H59.773"/>
		<path style="&st1;&st2;&st6;&st4;&st5;" d="M15.864,25.496v24.929"/>
		<path style="&st1;&st2;&st6;&st4;&st5;" d="M70.255,50.425V25.496"/>
		<path style="&st1;&st2;&st6;&st4;&st5;" d="M15.864,38.527h54.391"/>
		<path style="&st1;&st2;&st6;&st4;&st5;" d="M15.864,25.496h10.34"/>
		<path style="&st1;&st2;&st6;&st4;&st5;" d="M59.915,25.496h10.34"/>
		<path style="&st1;&st2;&st6;&st4;&st5;" d="M37.337,38.527v11.898"/>
		<path style="&st1;&st2;&st6;&st4;&st5;" d="M48.782,38.527v11.898"/>
		<path style="&st1;&st2;&st6;&st4;&st5;" d="M21.53,59.207l2.833,1.133"/>
		<path style="&st1;&st2;&st6;&st4;&st5;" d="M64.589,59.207l-2.833,1.133"/>
		<g ewd:pinNo="2">
			<text transform="matrix(0.88 0 0 1 19.3684 33.9805)"><tspan x="0" y="0" style="&st7; &st8;">2</tspan></text>
		</g>
		<g ewd:pinNo="7">
			<text transform="matrix(0.88 0 0 1 19.3684 46.4453)"><tspan x="0" y="0" style="&st7; &st8;">7</tspan></text>
		</g>
		<g ewd:pinNo="6">
			<text transform="matrix(0.88 0 0 1 30.1047 46.4453)"><tspan x="0" y="0" style="&st7; &st8;">6</tspan></text>
		</g>
		<g ewd:pinNo="5">
			<text transform="matrix(0.88 0 0 1 41.3938 46.4453)"><tspan x="0" y="0" style="&st7; &st8;">5</tspan></text>
		</g>
		<g ewd:pinNo="4">
			<text transform="matrix(0.88 0 0 1 52.6829 46.4453)"><tspan x="0" y="0" style="&st7; &st8;">4</tspan></text>
		</g>
		<g ewd:pinNo="3">
			<text transform="matrix(0.88 0 0 1 63.4192 46.4453)"><tspan x="0" y="0" style="&st7; &st8;">3</tspan></text>
		</g>
		<g ewd:pinNo="1">
			<text transform="matrix(0.88 0 0 1 63.4192 33.9805)"><tspan x="0" y="0" style="&st7; &st8;">1</tspan></text>
		</g>
	</g>
</g>
<path d="M37.1125,9.069v-8.504h100.013v8.504" style="&st1;&st2;&st9;&st4;&st5;"/>
</svg>