﻿<?xml version="1.0"?>
<!-- Generator: Adobe Illustrator 10.0, SVG Export Plug-In . SVG Version: 3.0.0 Build 77)  -->
<!DOCTYPE svg PUBLIC "-//W3C//DTD SVG 1.0//EN" "http://www.w3.org/TR/2001/REC-SVG-20010904/DTD/svg10.dtd"[
	<!ENTITY ns_flows "http://ns.adobe.com/Flows/1.0/">
	<!ENTITY ns_svg "http://www.w3.org/2000/svg">
	<!ENTITY ns_xlink "http://www.w3.org/1999/xlink">
	<!ENTITY st0 "font-size:6.6349px;">
	<!ENTITY st1 "fill:none;stroke:#000000;stroke-width:1.1331;stroke-linecap:round;stroke-linejoin:round;">
	<!ENTITY st2 "fill:none;stroke:#000000;stroke-width:0.8499;stroke-linecap:round;stroke-linejoin:round;">
	<!ENTITY st3 "font-family:'Arial';">
	<!ATTLIST svg
		xmlns:ewd CDATA #FIXED "http://shcl.co.jp/ewd"
		xmlns:a CDATA #FIXED "http://ns.adobe.com/AdobeSVGViewerExtensions/3.0/"
		ewd:ver CDATA #IMPLIED>
	<!ATTLIST g
		ewd:pinNo CDATA #IMPLIED>
]>
<svg width="63.456" height="62.04" viewBox="0 0 63.456 62.04" style="overflow:visible;enable-background:new 0 0 63.456 62.04" xml:space="preserve" onload="call_execInitLoadProc_svg('connector')" ewd:ver="2.1.2.7" xmlns="&ns_svg;" xmlns:ewd="http://shcl.co.jp/ewd" xmlns:a="http://ns.adobe.com/AdobeSVGViewerExtensions/3.0/" xmlns:xlink="&ns_xlink;">
<script type="text/javascript" xlink:href="../../../../../system/js/ewd/fig/svgfig.js"/>
<g id="レイヤー_1">
	<g>
		<path style="&st1;" d="M7.365,2.55c0-1.095-0.888-1.983-1.983-1.983"/>
		<path style="&st1;" d="M2.55,0.567c-1.095,0-1.983,0.888-1.983,1.983"/>
		<path style="&st1;" d="M58.073,0.567c-1.095,0-1.983,0.888-1.983,1.983"/>
		<path style="&st1;" d="M62.889,2.55c0-1.095-0.888-1.983-1.983-1.983"/>
		<path style="&st1;" d="M0.567,54.096c0,2.693,1.807,4.946,4.436,5.531"/>
		<path style="&st1;" d="M58.453,59.626c2.628-0.584,4.435-2.837,4.435-5.53"/>
		<path style="&st2;" d="M6.232,27.479v22.663h50.992V27.479H6.232"/>
		<path style="&st2;" d="M6.232,38.81h50.992"/>
		<path style="&st2;" d="M23.229,50.142V27.479"/>
		<path style="&st2;" d="M31.728,50.142V27.479"/>
		<path style="&st2;" d="M40.227,50.142V27.479"/>
		<path style="&st2;" d="M2.833,24.646V0.567"/>
		<path style="&st1;" d="M0.567,54.096V2.55"/>
		<path style="&st1;" d="M2.55,0.567h2.833"/>
		<path style="&st2;" d="M7.365,24.646h3.116"/>
		<path style="&st2;" d="M2.833,3.399h2.266v21.247"/>
		<path style="&st2;" d="M10.482,7.649h21.247"/>
		<path style="&st2;" d="M10.482,13.881h21.247"/>
		<path style="&st2;" d="M26.062,13.881V9.632h5.666"/>
		<path style="&st2;" d="M21.813,11.898h4.249"/>
		<path style="&st2;" d="M60.623,24.646V0.567"/>
		<path style="&st1;" d="M62.889,54.096V2.55"/>
		<path style="&st1;" d="M60.906,0.567h-2.833"/>
		<path style="&st2;" d="M56.091,24.646h-3.116"/>
		<path style="&st2;" d="M60.623,3.399h-2.267v21.247"/>
		<path style="&st2;" d="M52.974,7.649H31.728"/>
		<path style="&st2;" d="M52.974,13.881H31.728"/>
		<path style="&st2;" d="M37.394,13.881V9.632h-5.666"/>
		<path style="&st2;" d="M41.643,11.898h-4.25"/>
		<path style="&st1;" d="M5.003,59.626l8.312,1.847"/>
		<path style="&st2;" d="M4.816,52.975v4.249H58.64v-4.249"/>
		<path style="&st1;" d="M50.142,61.473l8.312-1.847"/>
		<path style="&st1;" d="M13.315,61.473h36.827"/>
		<path style="&st2;" d="M60.057,52.975h2.833"/>
		<path style="&st2;" d="M0.567,52.975h2.833"/>
		<path style="&st2;" d="M6.232,51.558h50.992"/>
		<path style="&st2;" d="M3.399,52.975h56.657"/>
		<path style="&st2;" d="M6.232,51.558l-4.249-4.25"/>
		<path style="&st2;" d="M0.567,47.309h1.416"/>
		<path style="&st2;" d="M1.983,47.309V24.646"/>
		<path style="&st2;" d="M6.232,52.975v-1.417"/>
		<path style="&st2;" d="M62.889,47.309h-1.417"/>
		<path style="&st2;" d="M57.224,51.558l4.249-4.25"/>
		<path style="&st2;" d="M61.473,47.309V24.646"/>
		<path style="&st2;" d="M57.224,52.975v-1.417"/>
		<path style="&st2;" d="M48.725,50.142V27.479"/>
		<path style="&st2;" d="M14.731,50.142V27.479"/>
		<path style="&st2;" d="M0.567,24.646h6.799"/>
		<path style="&st2;" d="M56.091,24.646h6.799"/>
		<path style="&st1;" d="M7.365,13.881h3.116"/>
		<path style="&st1;" d="M7.365,2.55v11.332"/>
		<path style="&st2;" d="M7.365,13.881v10.765"/>
		<path style="&st2;" d="M10.482,24.646V13.881"/>
		<path style="&st1;" d="M10.482,13.881V5.666l7.082-1.983h14.165"/>
		<path style="&st1;" d="M52.974,13.881h3.116"/>
		<path style="&st2;" d="M52.974,24.646V13.881"/>
		<path style="&st1;" d="M52.974,13.881V5.666l-7.082-1.983H31.728"/>
		<path style="&st1;" d="M56.091,2.55v11.332"/>
		<path style="&st2;" d="M56.091,13.881v10.765"/>
		<path style="&st2;" d="M13.315,13.881v-2.833h8.499v2.833"/>
		<path style="&st2;" d="M50.142,13.881v-2.833h-8.499v2.833"/>
		<g ewd:pinNo="12">
			<text transform="matrix(0.88 0 0 1 49.6433 46.4453)"><tspan x="0" y="0" style="&st3; &st0;">1</tspan></text>
			<text transform="matrix(0.88 0 0 1 53.0012 46.4453)"><tspan x="0" y="0" style="&st3; &st0;">2</tspan></text>
		</g>
		<g ewd:pinNo="10">
			<text transform="matrix(0.88 0 0 1 32.6458 46.4453)"><tspan x="0" y="0" style="&st3; &st0;">1</tspan></text>
			<text transform="matrix(0.88 0 0 1 36.0042 46.4453)"><tspan x="0" y="0" style="&st3; &st0;">0</tspan></text>
		</g>
		<g ewd:pinNo="9">
			<text transform="matrix(0.88 0 0 1 25.8127 46.4453)"><tspan x="0" y="0" style="&st3; &st0;">9</tspan></text>
		</g>
		<g ewd:pinNo="7">
			<text transform="matrix(0.88 0 0 1 8.8157 46.4453)"><tspan x="0" y="0" style="&st3; &st0;">7</tspan></text>
		</g>
		<g ewd:pinNo="6">
			<text transform="matrix(0.88 0 0 1 51.3088 35.1138)"><tspan x="0" y="0" style="&st3; &st0;">6</tspan></text>
		</g>
		<g ewd:pinNo="4">
			<text transform="matrix(0.88 0 0 1 34.3118 35.1138)"><tspan x="0" y="0" style="&st3; &st0;">4</tspan></text>
		</g>
		<g ewd:pinNo="1">
			<text transform="matrix(0.88 0 0 1 8.8157 35.1138)"><tspan x="0" y="0" style="&st3; &st0;">1</tspan></text>
		</g>
		<g ewd:pinNo="3">
			<text transform="matrix(0.88 0 0 1 25.8127 35.1138)"><tspan x="0" y="0" style="&st3; &st0;">3</tspan></text>
		</g>
		<g ewd:pinNo="5">
			<text transform="matrix(0.88 0 0 1 42.8103 35.1138)"><tspan x="0" y="0" style="&st3; &st0;">5</tspan></text>
		</g>
		<g ewd:pinNo="11">
			<text transform="matrix(0.88 0 0 1 41.1443 46.4453)"><tspan x="0" y="0" style="&st3; &st0;">1</tspan></text>
			<text transform="matrix(0.88 0 0 1 44.5027 46.4453)"><tspan x="0" y="0" style="&st3; &st0;">1</tspan></text>
		</g>
		<g ewd:pinNo="2">
			<text transform="matrix(0.88 0 0 1 17.3147 35.1138)"><tspan x="0" y="0" style="&st3; &st0;">2</tspan></text>
		</g>
		<g ewd:pinNo="8">
			<text transform="matrix(0.88 0 0 1 17.3147 46.4453)"><tspan x="0" y="0" style="&st3; &st0;">8</tspan></text>
		</g>
	</g>
</g>
</svg>