﻿<?xml version="1.0"?>
<!-- Generator: Adobe Illustrator 10.0, SVG Export Plug-In . SVG Version: 3.0.0 Build 77)  -->
<!DOCTYPE svg PUBLIC "-//W3C//DTD SVG 1.0//EN" "http://www.w3.org/TR/2001/REC-SVG-20010904/DTD/svg10.dtd"[
	<!ENTITY ns_flows "http://ns.adobe.com/Flows/1.0/">
	<!ENTITY ns_svg "http://www.w3.org/2000/svg">
	<!ENTITY ns_xlink "http://www.w3.org/1999/xlink">
	<!ENTITY st0 "font-size:6.6349px;">
	<!ENTITY st1 "fill:none;stroke:#000000;stroke-width:1.1331;stroke-linecap:round;stroke-linejoin:round;">
	<!ENTITY st2 "fill:none;stroke:#000000;stroke-width:0.8499;stroke-linecap:round;stroke-linejoin:round;">
	<!ENTITY st3 "font-family:'Arial';">
	<!ATTLIST svg
		xmlns:ewd CDATA #FIXED "http://shcl.co.jp/ewd"
		xmlns:a CDATA #FIXED "http://ns.adobe.com/AdobeSVGViewerExtensions/3.0/"
		ewd:ver CDATA #IMPLIED>
	<!ATTLIST g
		ewd:pinNo CDATA #IMPLIED>
]>
<svg width="86.119" height="49.292" viewBox="0 0 86.119 49.292" style="overflow:visible;enable-background:new 0 0 86.119 49.292" xml:space="preserve" onload="call_execInitLoadProc_svg('connector')" ewd:ver="2.1.2.7" xmlns="&ns_svg;" xmlns:ewd="http://shcl.co.jp/ewd" xmlns:a="http://ns.adobe.com/AdobeSVGViewerExtensions/3.0/" xmlns:xlink="&ns_xlink;">
<script type="text/javascript" xlink:href="../../../../../system/js/ewd/fig/svgfig.js"/>
<g id="レイヤー_1">
	<g>
		<path style="&st2;" d="M33.994,4.816c-1.564,0-2.833,1.268-2.833,2.833"/>
		<path style="&st2;" d="M31.161,8.499c0,1.095,0.888,1.983,1.983,1.983"/>
		<path style="&st1;" d="M58.64,6.232c0-3.129-2.537-5.666-5.666-5.666"/>
		<path style="&st2;" d="M54.957,7.649c0-1.564-1.268-2.833-2.833-2.833"/>
		<path style="&st1;" d="M33.144,0.567c-3.129,0-5.666,2.537-5.666,5.666"/>
		<path style="&st1;" d="M55.099,48.725c1.564,0,2.833-1.268,2.833-2.833"/>
		<path style="&st1;" d="M0.567,34.561c0,1.564,1.268,2.833,2.833,2.833"/>
		<path style="&st1;" d="M80.889,18.98c-1.276-4.28-5.036-7.082-9.501-7.082"/>
		<path style="&st2;" d="M71.388,38.81c2.347,0,4.25-1.902,4.25-4.249"/>
		<path style="&st2;" d="M14.731,17.564c-2.347,0-4.249,1.902-4.249,4.249"/>
		<path style="&st2;" d="M10.482,34.561c0,2.347,1.902,4.249,4.249,4.249"/>
		<path style="&st1;" d="M71.388,44.476c4.466,0,8.226-2.803,9.502-7.082"/>
		<path style="&st2;" d="M71.388,41.643c3.912,0,7.082-3.171,7.082-7.082"/>
		<path style="&st2;" d="M75.637,21.813c0-2.347-1.902-4.249-4.25-4.249"/>
		<path style="&st2;" d="M78.47,21.813c0-3.911-3.171-7.082-7.083-7.082"/>
		<path style="&st1;" d="M14.731,11.898c-4.465,0-8.226,2.803-9.501,7.082"/>
		<path style="&st2;" d="M14.731,14.731c-3.911,0-7.082,3.171-7.082,7.082"/>
		<path style="&st2;" d="M4.816,21.813c-0.782,0-1.417,0.634-1.417,1.417"/>
		<path style="&st1;" d="M5.229,37.394c1.276,4.28,5.036,7.082,9.501,7.082"/>
		<path style="&st2;" d="M7.649,34.561c0,3.911,3.171,7.082,7.082,7.082"/>
		<path style="&st1;" d="M3.399,18.98c-1.564,0-2.833,1.268-2.833,2.833"/>
		<path style="&st2;" d="M3.399,33.145c0,0.782,0.634,1.417,1.417,1.417"/>
		<path style="&st1;" d="M28.187,45.893c0,1.564,1.269,2.833,2.833,2.833"/>
		<path style="&st2;" d="M52.974,10.482c1.095,0,1.983-0.888,1.983-1.983"/>
		<path style="&st1;" d="M21.813,11.898c3.129,0,5.666-2.537,5.666-5.666"/>
		<path style="&st1;" d="M85.552,21.813c0-1.564-1.269-2.833-2.833-2.833"/>
		<path style="&st2;" d="M82.719,23.229c0-0.782-0.634-1.417-1.417-1.417"/>
		<path style="&st1;" d="M58.64,6.232c0,3.129,2.537,5.666,5.666,5.666"/>
		<path style="&st2;" d="M34.561,6.232c-0.782,0-1.417,0.634-1.417,1.416"/>
		<path style="&st1;" d="M82.719,37.394c1.564,0,2.833-1.268,2.833-2.833"/>
		<path style="&st2;" d="M81.303,34.561c0.782,0,1.417-0.634,1.417-1.417"/>
		<path style="&st2;" d="M52.974,7.649c0-0.782-0.634-1.416-1.417-1.416"/>
		<path style="&st1;" d="M57.932,44.476h13.456"/>
		<path style="&st2;" d="M81.303,34.561H78.47"/>
		<path style="&st2;" d="M82.719,23.229v9.915"/>
		<path style="&st2;" d="M52.974,10.482v4.249"/>
		<path style="&st2;" d="M54.957,7.649v0.85"/>
		<path style="&st2;" d="M33.994,4.816h18.13"/>
		<path style="&st2;" d="M33.144,10.482v4.249"/>
		<path style="&st2;" d="M35.977,14.731h14.165"/>
		<path style="&st2;" d="M13.315,20.396v12.748h59.49V20.396H13.315"/>
		<path style="&st2;" d="M23.229,33.145V20.396"/>
		<path style="&st2;" d="M33.144,33.145V20.396"/>
		<path style="&st2;" d="M43.059,33.145V20.396"/>
		<path style="&st2;" d="M52.974,33.145V20.396"/>
		<path style="&st2;" d="M62.889,33.145V20.396"/>
		<path style="&st2;" d="M38.81,14.731v1.417h8.499v-1.417"/>
		<path style="&st2;" d="M31.161,7.649v0.85"/>
		<path style="&st1;" d="M64.306,11.898h7.082"/>
		<path style="&st1;" d="M31.02,48.725h24.08"/>
		<path style="&st1;" d="M14.731,11.898h7.083"/>
		<path style="&st1;" d="M3.399,37.394h1.83"/>
		<path style="&st2;" d="M10.482,21.813v12.748"/>
		<path style="&st2;" d="M75.637,21.813v12.748"/>
		<path style="&st2;" d="M14.731,17.564h56.657"/>
		<path style="&st2;" d="M14.731,38.81h56.657"/>
		<path style="&st1;" d="M0.567,21.813v12.748"/>
		<path style="&st2;" d="M28.187,44.476h29.745"/>
		<path style="&st1;" d="M5.229,18.98h-1.83"/>
		<path style="&st1;" d="M14.731,44.476h13.456"/>
		<path style="&st2;" d="M7.649,21.813H4.816"/>
		<path style="&st2;" d="M14.731,41.643h56.657"/>
		<path style="&st2;" d="M3.399,23.229v9.915"/>
		<path style="&st2;" d="M4.816,34.561h2.833"/>
		<path style="&st1;" d="M28.187,44.476v1.417"/>
		<path style="&st2;" d="M40.227,38.81v-2.833h5.666v2.833"/>
		<path style="&st1;" d="M57.932,44.476v1.417"/>
		<path style="&st2;" d="M78.47,21.813h2.833"/>
		<path style="&st2;" d="M34.561,6.232h16.997"/>
		<path style="&st1;" d="M33.144,0.567h19.83"/>
		<path style="&st2;" d="M33.144,10.482h2.833"/>
		<path style="&st2;" d="M50.142,10.482h2.833"/>
		<path style="&st1;" d="M80.889,18.98h1.83"/>
		<path style="&st2;" d="M35.977,8.215v6.516"/>
		<path style="&st2;" d="M50.142,8.215v6.516"/>
		<path style="&st2;" d="M52.974,14.731h18.414"/>
		<path style="&st1;" d="M82.719,37.394h-1.83"/>
		<path style="&st1;" d="M85.552,21.813v12.748"/>
		<path style="&st2;" d="M33.144,8.215h19.83"/>
		<path style="&st2;" d="M14.731,14.731h18.414"/>
		<path style="&st2;" d="M38.81,8.215v4.391h8.499V8.215"/>
		<path style="&st2;" d="M38.81,11.19h2.833v1.417"/>
		<path style="&st2;" d="M44.476,12.606V11.19h2.833"/>
		<path style="&st2;" d="M52.974,7.649v2.833"/>
		<path style="&st2;" d="M33.144,10.482V7.649"/>
		<g ewd:pinNo="1">
			<text transform="matrix(0.88 0 0 1 16.6062 28.7397)"><tspan x="0" y="0" style="&st3; &st0;">1</tspan></text>
		</g>
		<g ewd:pinNo="2">
			<text transform="matrix(0.88 0 0 1 26.5212 28.7397)"><tspan x="0" y="0" style="&st3; &st0;">2</tspan></text>
		</g>
		<g ewd:pinNo="3">
			<text transform="matrix(0.88 0 0 1 36.4363 28.7397)"><tspan x="0" y="0" style="&st3; &st0;">3</tspan></text>
		</g>
		<g ewd:pinNo="4">
			<text transform="matrix(0.88 0 0 1 46.3513 28.7397)"><tspan x="0" y="0" style="&st3; &st0;">4</tspan></text>
		</g>
		<g ewd:pinNo="5">
			<text transform="matrix(0.88 0 0 1 56.2664 28.7397)"><tspan x="0" y="0" style="&st3; &st0;">5</tspan></text>
		</g>
		<g ewd:pinNo="6">
			<text transform="matrix(0.88 0 0 1 66.1814 28.7397)"><tspan x="0" y="0" style="&st3; &st0;">6</tspan></text>
		</g>
	</g>
</g>
</svg>