﻿<?xml version="1.0" encoding="utf-8"?>
<!DOCTYPE svg PUBLIC "-//W3C//DTD SVG 1.0//EN" "http://www.w3.org/TR/2001/REC-SVG-20010904/DTD/svg10.dtd"[
	<!ENTITY ns_flows "http://ns.adobe.com/Flows/1.0/">
	<!ENTITY ns_svg "http://www.w3.org/2000/svg">
	<!ENTITY ns_xlink "http://www.w3.org/1999/xlink">
	<!ENTITY st0 "font-size:7px;font-family:'MS-PGothic';adobe-font-script:japanese;">
	<!ENTITY st1 "font-size:6px;font-family:'ArialMT';">
	<!-- White fill  -->
	<!ENTITY st2 "fill:#FFFFFF;stroke:#000000; stroke-width:1.41;stroke-linecap:round;stroke-linejoin:round;">
	<!-- Yellow fill  -->
	<!ENTITY st3 "fill:#FFFFCC;stroke:#FFFFCC; stroke-width:0.1;stroke-linecap:round;stroke-linejoin:round;">
	<!-- Gray fill  -->
	<!ENTITY st4 "fill:#CCCCCC;stroke:#CCCCCC; stroke-width:0.1;stroke-linecap:round;stroke-linejoin:round;">
	<!-- Light-blue fill -->
	<!ENTITY st5 "fill:#CCECF4;stroke:#000000; stroke-width:1.133;stroke-linecap:round;stroke-linejoin:round;">
	<!ENTITY st6 "fill:none;stroke-linecap:butt; stroke-linejoin:round;">
	<!ENTITY st7 "fill:none;stroke:#000000;stroke-linecap:round;stroke-linejoin:round;">
	<!ENTITY st8 "enable-background:new    ;">
	<!-- Black fill -->
	<!ENTITY st9 "fill:#000000;stroke:#000000; stroke-linecap:round;stroke-linejoin:round;">
	<!-- SRS note   -->
	<!ENTITY st10 "font-size:9px;font-family:'ArialMT';">
	<!ENTITY st11 "font-size:9px;font-family:'Svg Symbol';">
	<!ENTITY st12 "font-size:6px;font-family:'Svg Symbol';">
	<!ENTITY st13 "fill:none;stroke:#ff0000;stroke-linecap:round;stroke-linejoin:round;">
	<!-- Yellow fill  -->
	<!ENTITY st14 "fill:#FFFF00;stroke:#FFFF00; stroke-width:0.1;stroke-linecap:round;stroke-linejoin:round;">
	<!ENTITY st15 "font-size:6px;font-family:'MS-PGothic';adobe-font-script:japanese;">
	<!ENTITY st16 "1.00 0.00 0.00 1.00">
	<!ENTITY st17 "0.00 -1.00 1.00 0.00">
	<!ENTITY st18 "font-size:6px;font-family:'Arial';">
	<!ENTITY st19 "font-size:9px;font-family:'Arial';">
	<!ENTITY st20 "font-size:6px;font-family:'MS-PGothic','MS PGothic';adobe-font-script:japanese;">
	<!ENTITY st21 "font-size:7px;font-family:'MS-PGothic','MS PGothic';adobe-font-script:japanese;">
	<!ATTLIST svg
		xmlns:ewd CDATA #FIXED "http://shcl.co.jp/ewd"
		xmlns:a CDATA #FIXED "http://ns.adobe.com/AdobeSVGViewerExtensions/3.0/"
		ewd:ver CDATA #IMPLIED
	>
	<!ATTLIST a
		ewd:lineID CDATA #IMPLIED
		ewd:groupID CDATA #IMPLIED
		ewd:figtype CDATA #IMPLIED
		ewd:code CDATA #IMPLIED
		ewd:figID CDATA #IMPLIED
		ewd:pinNo CDATA #IMPLIED
		ewd:comment CDATA #IMPLIED >
	<!ATTLIST g
		ewd:lineID CDATA #IMPLIED
		ewd:groupID CDATA #IMPLIED
		ewd:figtype CDATA #IMPLIED
		ewd:code CDATA #IMPLIED
		ewd:figID CDATA #IMPLIED
		ewd:pinNo CDATA #IMPLIED
		ewd:comment CDATA #IMPLIED >
	<!ATTLIST text
		ewd:textID CDATA #IMPLIED >
	<!ATTLIST title
		ewd:textID CDATA #IMPLIED >
]>
<!-- Generator: Shintec Hozumi YS   -->
<svg onload="call_execInitLoadProc_svg('system')" style="overflow:visible;  enable-background:new 0 0 2935.382 710.000" viewBox="0 0 2939.604 710.000" height="710.000" width="2939.604" xml:space="preserve" ewd:ver="2.1.2.7" xmlns="&ns_svg;" xmlns:a="http://ns.adobe.com/AdobeSVGViewerExtensions/3.0/" xmlns:ewd="http://shcl.co.jp/ewd" xmlns:xlink="&ns_xlink;"><script type="text/javascript" xlink:href="../../../../../system/js/ewd/fig/svgfig.js" xmlns:xlink="http://www.w3.org/1999/xlink" />
<g id="ewd_top"><a ewd:figtype="conn" style="cursor:pointer;" ewd:code="G124" ewd:figID="1"><path style="fill:#CCECF4;stroke:#000000; stroke-width:1.33; stroke-linecap:round;stroke-linejoin:round; " d=" M   586.40,   613.68  L   552.41,   613.68  L   552.41,   647.68  L   586.40,   647.68  L   586.40,   613.68 " /><title ewd:textID="61">Theft Warning ECU Assembly</title></a><a ewd:figtype="rb" style="cursor:pointer;" ewd:code="FUSE2" ewd:figID="2"><path style="fill:#CCECF4;stroke:#000000; stroke-width:0; stroke-linecap:round;stroke-linejoin:round; " d=" M   259.21,    78.27  L   259.21,    35.78  L   233.71,    35.78  L   233.71,    78.27  L   259.21,    78.27 " /></a><a ewd:figtype="conn" style="cursor:pointer;" ewd:code="G88" ewd:figID="3"><path style="fill:#CCECF4;stroke:#000000; stroke-width:1.33; stroke-linecap:round;stroke-linejoin:round; " d=" M   722.38,   613.68  L   688.38,   613.68  L   688.38,   647.68  L   722.38,   647.68  L   722.38,   613.68 " /><title>ECM</title></a><a ewd:figtype="conn" style="cursor:pointer;" ewd:code="C80" ewd:figID="4"><path style="fill:#CCECF4;stroke:#000000; stroke-width:1.33; stroke-linecap:round;stroke-linejoin:round; " d=" M  1470.25,   630.68  L  1487.25,   630.68  L  1487.25,   647.68  L  1470.25,   647.68  L  1470.25,   630.68 " /><title ewd:textID="43">Junction Connector</title></a><a ewd:figtype="conn" style="cursor:pointer;" ewd:code="G19,G109" ewd:figID="5"><path style="fill:#CCECF4;stroke:#000000; stroke-width:1.33; stroke-linecap:round;stroke-linejoin:round; " d=" M    67.99,   154.76  L    67.99,   418.22  L  2923.51,   418.22  L  2923.51,   154.76  L    67.99,   154.76 " /><title ewd:textID="23">Combination Meter Assembly</title></a><a ewd:figtype="conn" style="cursor:pointer;" ewd:code="A18" ewd:figID="6"><path style="fill:#CCECF4;stroke:#000000; stroke-width:1.33; stroke-linecap:round;stroke-linejoin:round; " d=" M  2745.04,   562.69  L  2745.04,   596.69  L  2762.04,   596.69  L  2762.04,   562.69  L  2745.04,   562.69 " /><title ewd:textID="18">Brake Fluid Level Warning Switch (Brake Master Cylinder Reservoir Sub-Assembly)</title></a><a ewd:figtype="conn" style="cursor:pointer;" ewd:code="K6" ewd:figID="7"><path style="fill:#CCECF4;stroke:#000000; stroke-width:1.33; stroke-linecap:round;stroke-linejoin:round; " d=" M  2838.53,   647.68  L  2838.53,   613.68  L  2821.53,   613.68  L  2821.53,   647.68  L  2838.53,   647.68 " /><title ewd:textID="48">Parking Brake Switch Assembly</title></a><a ewd:figtype="conn" style="cursor:pointer;" ewd:code="C25" ewd:figID="8"><path style="fill:#CCECF4;stroke:#000000; stroke-width:1.33; stroke-linecap:round;stroke-linejoin:round; " d=" M  2915.01,   613.68  L  2915.01,   579.69  L  2898.02,   579.69  L  2898.02,   613.68  L  2915.01,   613.68 " /><title ewd:textID="26">Engine Oil Pressure Switch Assembly</title></a><a ewd:figtype="conn" style="cursor:pointer;" ewd:code="G1,G127" ewd:figID="9"><path style="fill:#CCECF4;stroke:#000000; stroke-width:1.33; stroke-linecap:round;stroke-linejoin:round; " d=" M   756.37,   613.68  L   756.37,   647.68  L   790.37,   647.68  L   790.37,   613.68  L   756.37,   613.68 " /><title ewd:textID="51">Radio Receiver Assembly , Radio &amp; Display Receiver Assembly</title></a><a ewd:figtype="conn" style="cursor:pointer;" ewd:code="L4" ewd:figID="10"><path style="fill:#CCECF4;stroke:#000000; stroke-width:1.33; stroke-linecap:round;stroke-linejoin:round; " d=" M   458.92,   605.18  L   416.43,   605.18  L   416.43,   673.17  L   458.92,   673.17  L   458.92,   605.18 " /><title ewd:textID="36">Fuel Sender Gage Assembly</title></a><a ewd:figtype="conn" style="cursor:pointer;" ewd:code="T1" ewd:figID="11"><path style="fill:#CCECF4;stroke:#000000; stroke-width:1.33; stroke-linecap:round;stroke-linejoin:round; " d=" M   654.39,   613.68  L   620.40,   613.68  L   620.40,   647.68  L   654.39,   647.68  L   654.39,   613.68 " /><title ewd:textID="22">Clearance Warning ECU Assembly</title></a><a ewd:figtype="conn" style="cursor:pointer;" ewd:code="G94" ewd:figID="12"><path style="fill:#CCECF4;stroke:#000000; stroke-width:1.33; stroke-linecap:round;stroke-linejoin:round; " d=" M   866.86,   613.68  L   832.86,   613.68  L   832.86,   647.68  L   866.86,   647.68  L   866.86,   613.68 " /><title ewd:textID="12">A/C Amplifier Assembly</title></a><a ewd:figtype="conn" style="cursor:pointer;" ewd:code="C38" ewd:figID="13"><path style="fill:#CCECF4;stroke:#000000; stroke-width:1.33; stroke-linecap:round;stroke-linejoin:round; " d=" M  1495.75,   537.20  L  1419.26,   537.20  L  1419.26,   571.19  L  1495.75,   571.19  L  1495.75,   537.20 " /><title ewd:textID="57">Speedometer Sensor</title></a><a ewd:figtype="conn" style="cursor:pointer;" ewd:code="G113,G114" ewd:figID="14"><path style="fill:#CCECF4;stroke:#000000; stroke-width:1.33; stroke-linecap:round;stroke-linejoin:round; " d=" M  1912.18,   520.20  L  1912.18,   545.69  L  1929.18,   545.69  L  1929.18,   520.20  L  1912.18,   520.20 " /><title ewd:textID="43">Junction Connector</title></a><a ewd:figtype="jb" style="cursor:pointer;" ewd:code="2" ewd:figID="24"><path style="&st4; " d=" M   161.47,    61.28  L   186.97,    61.28  L   186.97,   112.27  L   161.47,   112.27  L   161.47,    61.28  " /></a><a ewd:figtype="jb" style="cursor:pointer;" ewd:code="2" ewd:figID="25"><path style="&st4; " d=" M  1232.29,    35.78  L  1232.29,   112.27  L  1291.78,   112.27  L  1291.78,    35.78  L  1232.29,    35.78  " /></a><a ewd:figtype="jb" style="cursor:pointer;" ewd:code="2" ewd:figID="26"><path style="&st4; " d=" M   450.42,    35.78  L   450.42,   103.77  L   501.42,   103.77  L   501.42,    35.78  L   450.42,    35.78  " /></a><a ewd:figtype="jb" style="cursor:pointer;" ewd:code="2" ewd:figID="27"><path style="&st4; " d=" M  2736.54,   452.21  L  2736.54,   503.20  L  2838.53,   503.20  L  2838.53,   452.21  L  2736.54,   452.21  " /></a><a ewd:figtype="jb" style="cursor:pointer;" ewd:code="2" ewd:figID="28"><path style="&st4; " d=" M   552.41,   469.21  L   552.41,   520.20  L   858.36,   520.20  L   858.36,   469.21  L   552.41,   469.21  " /></a><a ewd:figtype="fuse" style="cursor:pointer;" ewd:code="FUSE2" ewd:figID="43"><path style="&st7; stroke-width:0;" d=" M   259.21,    78.27  L   259.21,    35.78  L   233.71,    35.78  L   233.71,    78.27  L   259.21,    78.27 " /></a><a ewd:figtype="fuse" style="cursor:pointer;" ewd:code="FUSE34" ewd:figID="44"><path style="&st7; stroke-width:0;" d=" M   454.67,    35.78  L   454.67,    78.27  L   480.17,    78.27  L   480.17,    35.78  L   454.67,    35.78 " /></a><a ewd:figtype="fuse" style="cursor:pointer;" ewd:code="FUSE26" ewd:figID="45"><path style="&st7; stroke-width:0;" d=" M  1262.04,    78.27  L  1262.04,    35.78  L  1236.54,    35.78  L  1236.54,    78.27  L  1262.04,    78.27 " /></a><a style="cursor:pointer;" ewd:lineID="1"><path style="stroke:#FF0000;stroke-width: 5.10 ;&st6;" d=" M   101.98,   486.20  L   101.98,   427.28  " /><path style="stroke:#FFFFFF;stroke-width: 2.27 ;&st6;" d=" M   101.98,   486.20  L   101.98,   427.28  " /><path style="stroke:#FFE600;stroke-width: 1.13 ;&st6;" d=" M   101.98,   486.20  L   101.98,   427.28  " /></a><a style="cursor:pointer;" ewd:lineID="2"><path style="stroke:#FF0000;stroke-width: 5.10 ;&st6;" d=" M   178.47,   486.20  L   178.47,   427.28  " /><path style="stroke:#FFFFFF;stroke-width: 2.27 ;&st6;" d=" M   178.47,   486.20  L   178.47,   427.28  " /><path style="stroke:#00A0C6;stroke-width: 1.13 ;&st6;" d=" M   178.47,   486.20  L   178.47,   427.28  " /></a><a style="cursor:pointer;" ewd:lineID="3"><path style="stroke:#FF0000;stroke-width: 5.10 ;&st6;" d=" M   178.47,   112.27  L   178.47,   145.69  " /></a><a style="cursor:pointer;" ewd:lineID="4"><path style="stroke:#FF0000;stroke-width: 5.10 ;&st6;" d=" M   246.46,   486.20  L   246.46,   427.28  " /><path style="stroke:#FFFFFF;stroke-width: 2.27 ;&st6;" d=" M   246.46,   486.20  L   246.46,   427.28  " /><path style="stroke:#000000;stroke-width: 1.13 ;&st6;" d=" M   246.46,   486.20  L   246.46,   427.28  " /></a><a style="cursor:pointer;" ewd:lineID="5"><path style="stroke:#FF0000;stroke-width: 5.10 ;&st6;" d=" M   246.46,   112.27  L   246.46,   137.76  L   212.46,   137.76  L   212.46,    44.28  L   178.47,    44.28  L   178.47,    61.28  " /></a><a style="cursor:pointer;" ewd:lineID="6"><path style="stroke:#FF0000;stroke-width: 5.10 ;&st6;" d=" M   280.45,   486.20  L   280.45,   427.28  " /><path style="stroke:#FFFFFF;stroke-width: 2.27 ;&st6;" d=" M   280.45,   486.20  L   280.45,   427.28  " /><path style="stroke:#000000;stroke-width: 1.13 ;&st6;" d=" M   280.45,   486.20  L   280.45,   427.28  " /></a><a style="cursor:pointer;" ewd:lineID="7"><path style="stroke:#008837;stroke-width: 5.10 ;&st6;" d=" M   322.95,   486.20  L   322.95,   427.28  " /><path style="stroke:#FFFFFF;stroke-width: 2.27 ;&st6;" d=" M   322.95,   486.20  L   322.95,   427.28  " /><path style="stroke:#FFE600;stroke-width: 1.13 ;&st6;" d=" M   322.95,   486.20  L   322.95,   427.28  " /></a><a style="cursor:pointer;" ewd:lineID="8"><path style="stroke:#992903;stroke-width: 5.10 ;&st6;" d=" M   382.44,   500.93  L   382.44,   539.46  " /></a><a style="cursor:pointer;" ewd:lineID="9"><path style="stroke:#992903;stroke-width: 5.10 ;&st6;" d=" M   382.44,   427.28  L   382.44,   477.71  " /></a><a style="cursor:pointer;" ewd:lineID="10"><path style="stroke:#992903;stroke-width: 5.10 ;&st6;" d=" M   433.43,   673.17  L   433.43,   690.17  L   382.44,   690.17  L   382.44,   554.19  " /></a><a style="cursor:pointer;" ewd:lineID="11"><path style="stroke:#992903;stroke-width: 5.10 ;&st6;" d=" M   433.43,   554.19  L   433.43,   605.18  " /><path style="stroke:#FFFFFF;stroke-width: 2.27 ;&st6;" d=" M   433.43,   554.19  L   433.43,   605.18  " /><path style="stroke:#FFE600;stroke-width: 1.13 ;&st6;" d=" M   433.43,   554.19  L   433.43,   605.18  " /></a><a style="cursor:pointer;" ewd:lineID="12"><path style="stroke:#992903;stroke-width: 5.10 ;&st6;" d=" M   433.43,   501.22  L   433.43,   539.18  " /><path style="stroke:#FFFFFF;stroke-width: 2.27 ;&st6;" d=" M   433.43,   501.22  L   433.43,   539.18  " /><path style="stroke:#FFE600;stroke-width: 1.13 ;&st6;" d=" M   433.43,   501.22  L   433.43,   539.18  " /></a><a style="cursor:pointer;" ewd:lineID="13"><path style="stroke:#992903;stroke-width: 5.10 ;&st6;" d=" M   433.43,   427.28  L   433.43,   477.71  " /><path style="stroke:#FFFFFF;stroke-width: 2.27 ;&st6;" d=" M   433.43,   427.28  L   433.43,   477.71  " /><path style="stroke:#FFE600;stroke-width: 1.13 ;&st6;" d=" M   433.43,   427.28  L   433.43,   477.71  " /></a><a style="cursor:pointer;" ewd:lineID="14"><path style="stroke:#000000;stroke-width: 5.10 ;&st6;" d=" M   467.42,   103.77  L   467.42,   145.69  " /><path style="stroke:#FFFFFF;stroke-width: 2.27 ;&st6;" d=" M   467.42,   103.77  L   467.42,   145.69  " /><path style="stroke:#FF0000;stroke-width: 1.13 ;&st6;" d=" M   467.42,   103.77  L   467.42,   145.69  " /></a><a ewd:comment="1,13" style="cursor:pointer;" ewd:lineID="15"><path style="stroke:#56077D;stroke-width: 5.10 ;&st6;" d=" M   569.40,   613.68  L   569.40,   520.20  " /><path style="stroke:#FFFFFF;stroke-width: 2.27 ;&st6;" d=" M   569.40,   613.68  L   569.40,   520.20  " /><path style="stroke:#FF0000;stroke-width: 1.13 ;&st6;" d=" M   569.40,   613.68  L   569.40,   520.20  " /></a><a ewd:comment="3" style="cursor:pointer;" ewd:lineID="16"><path style="stroke:#56077D;stroke-width: 5.10 ;&st6;" d=" M   637.39,   613.68  L   637.39,   569.21  " /><path style="stroke:#FFFFFF;stroke-width: 2.27 ;&st6;" d=" M   637.39,   613.68  L   637.39,   569.21  " /><path style="stroke:#FF0000;stroke-width: 1.13 ;&st6;" d=" M   637.39,   613.68  L   637.39,   569.21  " /></a><a ewd:comment="3" style="cursor:pointer;" ewd:lineID="17"><path style="stroke:#56077D;stroke-width: 5.10 ;&st6;" d=" M   637.39,   554.19  L   637.39,   520.20  " /><path style="stroke:#FFFFFF;stroke-width: 2.27 ;&st6;" d=" M   637.39,   554.19  L   637.39,   520.20  " /><path style="stroke:#FF0000;stroke-width: 1.13 ;&st6;" d=" M   637.39,   554.19  L   637.39,   520.20  " /></a><a style="cursor:pointer;" ewd:lineID="18"><path style="stroke:#56077D;stroke-width: 5.10 ;&st6;" d=" M   705.38,   604.62  L   705.38,   520.20  " /><path style="stroke:#FFFFFF;stroke-width: 2.27 ;&st6;" d=" M   705.38,   604.62  L   705.38,   520.20  " /><path style="stroke:#FF0000;stroke-width: 1.13 ;&st6;" d=" M   705.38,   604.62  L   705.38,   520.20  " /></a><a style="cursor:pointer;" ewd:lineID="19"><path style="stroke:#56077D;stroke-width: 5.10 ;&st6;" d=" M   705.38,   427.28  L   705.38,   469.21  " /><path style="stroke:#FFFFFF;stroke-width: 2.27 ;&st6;" d=" M   705.38,   427.28  L   705.38,   469.21  " /><path style="stroke:#FF0000;stroke-width: 1.13 ;&st6;" d=" M   705.38,   427.28  L   705.38,   469.21  " /></a><a style="cursor:pointer;" ewd:lineID="20"><path style="stroke:#56077D;stroke-width: 5.10 ;&st6;" d=" M   773.37,   520.20  L   773.37,   595.55  " /><path style="stroke:#FFFFFF;stroke-width: 2.27 ;&st6;" d=" M   773.37,   520.20  L   773.37,   595.55  " /><path style="stroke:#FF0000;stroke-width: 1.13 ;&st6;" d=" M   773.37,   520.20  L   773.37,   595.55  " /></a><a ewd:comment="4" style="cursor:pointer;" ewd:lineID="21"><path style="stroke:#56077D;stroke-width: 5.10 ;&st6;" d=" M   849.86,   604.62  L   849.86,   520.20  " /><path style="stroke:#FFFFFF;stroke-width: 1.13 ;&st6;" d=" M   849.86,   604.62  L   849.86,   520.20  " /></a><a style="cursor:pointer;" ewd:lineID="22"><path style="stroke:#000000;stroke-width: 5.10 ;&st6;" d=" M   883.85,   511.70  L   883.85,   427.28  " /><path style="stroke:#FFFFFF;stroke-width: 1.13 ;&st6;" d=" M   883.85,   511.70  L   883.85,   427.28  " /></a><a style="cursor:pointer;" ewd:lineID="23"><path style="stroke:#F668B2;stroke-width: 5.10 ;&st6;" d=" M   917.85,   427.28  L   917.85,   511.70  " /></a><a style="cursor:pointer;" ewd:lineID="24"><path style="stroke:#00A0C6;stroke-width: 5.10 ;&st6;" d=" M   985.84,   511.70  L   985.84,   427.28  " /></a><a ewd:comment="7" style="cursor:pointer;" ewd:lineID="25"><path style="stroke:#F668B2;stroke-width: 5.10 ;&st6;" d=" M  1147.31,   503.20  L  1147.31,   427.28  " /><path style="stroke:#FFFFFF;stroke-width: 2.27 ;&st6;" d=" M  1147.31,   503.20  L  1147.31,   427.28  " /><path style="stroke:#008837;stroke-width: 1.13 ;&st6;" d=" M  1147.31,   503.20  L  1147.31,   427.28  " /></a><a ewd:comment="7" style="cursor:pointer;" ewd:lineID="26"><path style="stroke:#00A0C6;stroke-width: 5.10 ;&st6;" d=" M  1181.30,   427.28  L  1181.30,   503.20  " /><path style="stroke:#FFFFFF;stroke-width: 2.27 ;&st6;" d=" M  1181.30,   427.28  L  1181.30,   503.20  " /><path style="stroke:#000000;stroke-width: 1.13 ;&st6;" d=" M  1181.30,   427.28  L  1181.30,   503.20  " /></a><a style="cursor:pointer;" ewd:lineID="27"><path style="stroke:#FF0000;stroke-width: 5.10 ;&st6;" d=" M  1249.29,   503.20  L  1249.29,   427.28  " /><path style="stroke:#FFFFFF;stroke-width: 2.27 ;&st6;" d=" M  1249.29,   503.20  L  1249.29,   427.28  " /><path style="stroke:#FFE600;stroke-width: 1.13 ;&st6;" d=" M  1249.29,   503.20  L  1249.29,   427.28  " /></a><a style="cursor:pointer;" ewd:lineID="28"><path style="stroke:#000000;stroke-width: 5.10 ;&st6;" d=" M  1249.29,   145.69  L  1249.29,   112.27  " /><path style="stroke:#FFFFFF;stroke-width: 2.27 ;&st6;" d=" M  1249.29,   145.69  L  1249.29,   112.27  " /><path style="stroke:#FF7F00;stroke-width: 1.13 ;&st6;" d=" M  1249.29,   145.69  L  1249.29,   112.27  " /></a><a style="cursor:pointer;" ewd:lineID="29"><path style="stroke:#000000;stroke-width: 5.10 ;&st6;" d=" M  1283.29,   503.20  L  1283.29,   427.28  " /><path style="stroke:#FFFFFF;stroke-width: 2.27 ;&st6;" d=" M  1283.29,   503.20  L  1283.29,   427.28  " /><path style="stroke:#FFE600;stroke-width: 1.13 ;&st6;" d=" M  1283.29,   503.20  L  1283.29,   427.28  " /></a><a ewd:comment="5" style="cursor:pointer;" ewd:lineID="30"><path style="stroke:#000000;stroke-width: 5.10 ;&st6;" d=" M  1325.78,   503.20  L  1325.78,   427.28  " /><path style="stroke:#FFFFFF;stroke-width: 4.53 ;&st6;" d=" M  1325.78,   503.20  L  1325.78,   427.28  " /><path style="stroke:#008837;stroke-width: 1.13 ;&st6;" d=" M  1325.78,   503.20  L  1325.78,   427.28  " /></a><a ewd:comment="6" style="cursor:pointer;" ewd:lineID="31"><path style="stroke:#000000;stroke-width: 5.10 ;&st6;" d=" M  1359.77,   503.20  L  1359.77,   443.71  L  1334.28,   443.71  L  1325.78,   435.21  L  1325.78,   427.28  " /><path style="stroke:#FFFFFF;stroke-width: 4.53 ;&st6;" d=" M  1359.77,   503.20  L  1359.77,   443.71  L  1334.28,   443.71  L  1325.78,   435.21  L  1325.78,   427.28  " /><path style="stroke:#008837;stroke-width: 1.13 ;&st6;" d=" M  1359.77,   503.20  L  1359.77,   443.71  L  1334.28,   443.71  L  1325.78,   435.21  L  1325.78,   427.28  " /></a><a style="cursor:pointer;" ewd:lineID="32"><path style="stroke:#F668B2;stroke-width: 5.10 ;&st6;" d=" M  1436.26,   477.71  L  1436.26,   537.20  " /><path style="stroke:#FFFFFF;stroke-width: 2.27 ;&st6;" d=" M  1436.26,   477.71  L  1436.26,   537.20  " /><path style="stroke:#00A0C6;stroke-width: 1.13 ;&st6;" d=" M  1436.26,   477.71  L  1436.26,   537.20  " /></a><a style="cursor:pointer;" ewd:lineID="33"><path style="stroke:#F668B2;stroke-width: 5.10 ;&st6;" d=" M  1436.26,   462.69  L  1436.26,   427.28  " /><path style="stroke:#FFFFFF;stroke-width: 2.27 ;&st6;" d=" M  1436.26,   462.69  L  1436.26,   427.28  " /><path style="stroke:#00A0C6;stroke-width: 1.13 ;&st6;" d=" M  1436.26,   462.69  L  1436.26,   427.28  " /></a><a style="cursor:pointer;" ewd:lineID="34"><path style="stroke:#992903;stroke-width: 5.10 ;&st6;" d=" M  1478.75,   647.68  L  1478.75,   681.67  " /></a><a style="cursor:pointer;" ewd:lineID="35"><path style="stroke:#992903;stroke-width: 5.10 ;&st6;" d=" M  1478.75,   630.68  L  1478.75,   571.19  " /></a><a style="cursor:pointer;" ewd:lineID="36"><path style="stroke:#FF0000;stroke-width: 5.10 ;&st6;" d=" M  1478.75,   477.71  L  1478.75,   537.20  " /><path style="stroke:#FFFFFF;stroke-width: 2.27 ;&st6;" d=" M  1478.75,   477.71  L  1478.75,   537.20  " /><path style="stroke:#000000;stroke-width: 1.13 ;&st6;" d=" M  1478.75,   477.71  L  1478.75,   537.20  " /></a><a style="cursor:pointer;" ewd:lineID="37"><path style="stroke:#FF0000;stroke-width: 5.10 ;&st6;" d=" M  1478.75,   462.69  L  1478.75,   427.28  " /><path style="stroke:#FFFFFF;stroke-width: 2.27 ;&st6;" d=" M  1478.75,   462.69  L  1478.75,   427.28  " /><path style="stroke:#000000;stroke-width: 1.13 ;&st6;" d=" M  1478.75,   462.69  L  1478.75,   427.28  " /></a><a style="cursor:pointer;" ewd:lineID="38"><path style="stroke:#008837;stroke-width: 5.10 ;&st6;" d=" M  1793.20,   503.20  L  1793.20,   427.28  " /><path style="stroke:#FFFFFF;stroke-width: 2.27 ;&st6;" d=" M  1793.20,   503.20  L  1793.20,   427.28  " /><path style="stroke:#000000;stroke-width: 1.13 ;&st6;" d=" M  1793.20,   503.20  L  1793.20,   427.28  " /></a><a style="cursor:pointer;" ewd:lineID="39"><path style="stroke:#000000;stroke-width: 5.10 ;&st6;" d=" M  1920.68,   554.76  L  1920.68,   681.67  " /><path style="stroke:#FFFFFF;stroke-width: 4.53 ;&st6;" d=" M  1920.68,   554.76  L  1920.68,   681.67  " /><path style="stroke:#000000;stroke-width: 1.13 ;&st6;" d=" M  1920.68,   554.76  L  1920.68,   681.67  " /></a><a style="cursor:pointer;" ewd:lineID="40"><path style="stroke:#FFE600;stroke-width: 5.10 ;&st6;" d=" M  1920.68,   427.28  L  1920.68,   511.13  " /></a><a style="cursor:pointer;" ewd:lineID="41"><path style="stroke:#008837;stroke-width: 5.10 ;&st6;" d=" M  1954.67,   145.69  L  1954.67,    86.77  " /></a><a style="cursor:pointer;" ewd:lineID="42"><path style="stroke:#FF0000;stroke-width: 5.10 ;&st6;" d=" M  2141.64,    69.77  L  2141.64,   145.69  " /><path style="stroke:#FFFFFF;stroke-width: 2.27 ;&st6;" d=" M  2141.64,    69.77  L  2141.64,   145.69  " /><path style="stroke:#FFE600;stroke-width: 1.13 ;&st6;" d=" M  2141.64,    69.77  L  2141.64,   145.69  " /></a><a style="cursor:pointer;" ewd:lineID="43"><path style="stroke:#008837;stroke-width: 5.10 ;&st6;" d=" M  2175.64,    69.77  L  2175.64,   145.69  " /><path style="stroke:#FFFFFF;stroke-width: 2.27 ;&st6;" d=" M  2175.64,    69.77  L  2175.64,   145.69  " /><path style="stroke:#000000;stroke-width: 1.13 ;&st6;" d=" M  2175.64,    69.77  L  2175.64,   145.69  " /></a><a style="cursor:pointer;" ewd:lineID="44"><path style="stroke:#FF0000;stroke-width: 5.10 ;&st6;" d=" M  2209.63,    69.77  L  2209.63,   145.69  " /><path style="stroke:#FFFFFF;stroke-width: 1.13 ;&st6;" d=" M  2209.63,    69.77  L  2209.63,   145.69  " /></a><a style="cursor:pointer;" ewd:lineID="45"><path style="stroke:#00A0C6;stroke-width: 5.10 ;&st6;" d=" M  2311.61,    69.77  L  2311.61,   145.69  " /></a><a style="cursor:pointer;" ewd:lineID="46"><path style="stroke:#008837;stroke-width: 5.10 ;&st6;" d=" M  2345.61,    69.77  L  2345.61,   145.69  " /><path style="stroke:#FFFFFF;stroke-width: 2.27 ;&st6;" d=" M  2345.61,    69.77  L  2345.61,   145.69  " /><path style="stroke:#FF0000;stroke-width: 1.13 ;&st6;" d=" M  2345.61,    69.77  L  2345.61,   145.69  " /></a><a style="cursor:pointer;" ewd:lineID="47"><path style="stroke:#000000;stroke-width: 5.10 ;&st6;" d=" M  2379.60,    69.77  L  2379.60,   145.69  " /><path style="stroke:#FFFFFF;stroke-width: 2.27 ;&st6;" d=" M  2379.60,    69.77  L  2379.60,   145.69  " /><path style="stroke:#FF0000;stroke-width: 1.13 ;&st6;" d=" M  2379.60,    69.77  L  2379.60,   145.69  " /></a><a style="cursor:pointer;" ewd:lineID="48"><path style="stroke:#008837;stroke-width: 5.10 ;&st6;" d=" M  2413.60,    69.77  L  2413.60,   145.69  " /><path style="stroke:#FFFFFF;stroke-width: 2.27 ;&st6;" d=" M  2413.60,    69.77  L  2413.60,   145.69  " /><path style="stroke:#FF7F00;stroke-width: 1.13 ;&st6;" d=" M  2413.60,    69.77  L  2413.60,   145.69  " /></a><a style="cursor:pointer;" ewd:lineID="49"><path style="stroke:#999999;stroke-width: 5.10 ;&st6;" d=" M  2422.10,   503.20  L  2422.10,   427.28  " /></a><a style="cursor:pointer;" ewd:lineID="50"><path style="stroke:#008837;stroke-width: 5.10 ;&st6;" d=" M  2456.09,    69.77  L  2456.09,   145.69  " /><path style="stroke:#FFFFFF;stroke-width: 2.27 ;&st6;" d=" M  2456.09,    69.77  L  2456.09,   145.69  " /><path style="stroke:#000000;stroke-width: 1.13 ;&st6;" d=" M  2456.09,    69.77  L  2456.09,   145.69  " /></a><a style="cursor:pointer;" ewd:lineID="51"><path style="stroke:#008837;stroke-width: 5.10 ;&st6;" d=" M  2490.08,    69.77  L  2490.08,   145.69  " /><path style="stroke:#FFFFFF;stroke-width: 2.27 ;&st6;" d=" M  2490.08,    69.77  L  2490.08,   145.69  " /><path style="stroke:#FFE600;stroke-width: 1.13 ;&st6;" d=" M  2490.08,    69.77  L  2490.08,   145.69  " /></a><a style="cursor:pointer;" ewd:lineID="52"><path style="stroke:#FF0000;stroke-width: 5.10 ;&st6;" d=" M  2558.07,   503.20  L  2558.07,   427.28  " /><path style="stroke:#FFFFFF;stroke-width: 2.27 ;&st6;" d=" M  2558.07,   503.20  L  2558.07,   427.28  " /><path style="stroke:#000000;stroke-width: 1.13 ;&st6;" d=" M  2558.07,   503.20  L  2558.07,   427.28  " /></a><a style="cursor:pointer;" ewd:lineID="53"><path style="stroke:#FF0000;stroke-width: 5.10 ;&st6;" d=" M  2660.06,   503.20  L  2660.06,   427.28  " /><path style="stroke:#FFFFFF;stroke-width: 2.27 ;&st6;" d=" M  2660.06,   503.20  L  2660.06,   427.28  " /><path style="stroke:#008837;stroke-width: 1.13 ;&st6;" d=" M  2660.06,   503.20  L  2660.06,   427.28  " /></a><a style="cursor:pointer;" ewd:lineID="54"><path style="stroke:#000000;stroke-width: 5.10 ;&st6;" d=" M  2753.54,   681.67  L  2753.54,   647.68  " /><path style="stroke:#FFFFFF;stroke-width: 4.53 ;&st6;" d=" M  2753.54,   681.67  L  2753.54,   647.68  " /><path style="stroke:#000000;stroke-width: 1.13 ;&st6;" d=" M  2753.54,   681.67  L  2753.54,   647.68  " /></a><a style="cursor:pointer;" ewd:lineID="55"><path style="stroke:#000000;stroke-width: 5.10 ;&st6;" d=" M  2753.54,   630.68  L  2753.54,   596.69  " /><path style="stroke:#FFFFFF;stroke-width: 4.53 ;&st6;" d=" M  2753.54,   630.68  L  2753.54,   596.69  " /><path style="stroke:#000000;stroke-width: 1.13 ;&st6;" d=" M  2753.54,   630.68  L  2753.54,   596.69  " /></a><a style="cursor:pointer;" ewd:lineID="56"><path style="stroke:#7FC97F;stroke-width: 5.10 ;&st6;" d=" M  2753.54,   503.20  L  2753.54,   562.69  " /></a><a style="cursor:pointer;" ewd:lineID="57"><path style="stroke:#7FC97F;stroke-width: 5.10 ;&st6;" d=" M  2753.54,   452.21  L  2753.54,   427.28  " /></a><a style="cursor:pointer;" ewd:lineID="58"><path style="stroke:#7FC97F;stroke-width: 5.10 ;&st6;" d=" M  2830.03,   613.68  L  2830.03,   503.20  " /></a><a style="cursor:pointer;" ewd:lineID="59"><path style="stroke:#7FC97F;stroke-width: 5.10 ;&st6;" d=" M  2906.51,   520.20  L  2906.51,   579.69  " /><path style="stroke:#FFFFFF;stroke-width: 2.27 ;&st6;" d=" M  2906.51,   520.20  L  2906.51,   579.69  " /><path style="stroke:#000000;stroke-width: 1.13 ;&st6;" d=" M  2906.51,   520.20  L  2906.51,   579.69  " /></a><a style="cursor:pointer;" ewd:lineID="60"><path style="stroke:#7FC97F;stroke-width: 5.10 ;&st6;" d=" M  2906.51,   427.28  L  2906.51,   505.18  " /><path style="stroke:#FFFFFF;stroke-width: 2.27 ;&st6;" d=" M  2906.51,   427.28  L  2906.51,   505.18  " /><path style="stroke:#000000;stroke-width: 1.13 ;&st6;" d=" M  2906.51,   427.28  L  2906.51,   505.18  " /></a><a ewd:figtype="w2w" style="cursor:pointer;" ewd:pinNo="1" ewd:code="LK4" ewd:figID="29"><path style="&st2;" d=" M   390.93,   545.69  L   373.94,   545.69  L   373.94,   554.19  L   390.93,   554.19  L   390.93,   545.69 " /><text style="&st8;" transform="matrix(&st16;  376.78  552.06 )"><tspan x="0" style="&st18;" y="0">LK4</tspan></text></a><a ewd:figtype="w2w" style="cursor:pointer;" ewd:pinNo="9" ewd:code="GK1" ewd:figID="30"><path style="&st2;" d=" M   390.93,   486.20  L   373.94,   486.20  L   373.94,   494.70  L   390.93,   494.70  L   390.93,   486.20 " /><text style="&st8;" transform="matrix(&st16;  376.08  492.57 )"><tspan x="0" style="&st18;" y="0">GK1</tspan></text></a><a ewd:figtype="w2w" style="cursor:pointer;" ewd:pinNo="17" ewd:code="GK1" ewd:figID="31"><path style="&st2;" d=" M   390.93,   477.71  L   373.94,   477.71  L   373.94,   486.20  L   390.93,   486.20  L   390.93,   477.71 " /><text style="&st8;" transform="matrix(&st16;  376.08  484.07 )"><tspan x="0" style="&st18;" y="0">GK1</tspan></text></a><a ewd:figtype="w2w" style="cursor:pointer;" ewd:pinNo="2" ewd:code="LK4" ewd:figID="32"><path style="&st2;" d=" M   441.93,   545.69  L   424.93,   545.69  L   424.93,   554.19  L   441.93,   554.19  L   441.93,   545.69 " /><text style="&st8;" transform="matrix(&st16;  427.77  552.06 )"><tspan x="0" style="&st18;" y="0">LK4</tspan></text></a><a ewd:figtype="w2w" style="cursor:pointer;" ewd:pinNo="8" ewd:code="GK1" ewd:figID="33"><path style="&st2;" d=" M   441.93,   486.20  L   424.93,   486.20  L   424.93,   494.70  L   441.93,   494.70  L   441.93,   486.20 " /><text style="&st8;" transform="matrix(&st16;  427.08  492.57 )"><tspan x="0" style="&st18;" y="0">GK1</tspan></text></a><a ewd:figtype="w2w" style="cursor:pointer;" ewd:pinNo="7" ewd:code="GK1" ewd:figID="34"><path style="&st2;" d=" M   441.93,   477.71  L   424.93,   477.71  L   424.93,   486.20  L   441.93,   486.20  L   441.93,   477.71 " /><text style="&st8;" transform="matrix(&st16;  427.08  484.07 )"><tspan x="0" style="&st18;" y="0">GK1</tspan></text></a><a ewd:figtype="w2w" style="cursor:pointer;" ewd:pinNo="5" ewd:code="KT1" ewd:figID="35"><path style="&st2;" d=" M   645.89,   554.19  L   628.89,   554.19  L   628.89,   562.69  L   645.89,   562.69  L   645.89,   554.19 " /><text style="&st8;" transform="matrix(&st16;  631.61  560.56 )"><tspan x="0" style="&st18;" y="0">KT1</tspan></text></a><a ewd:figtype="w2w" style="cursor:pointer;" ewd:pinNo="16" ewd:code="CG1" ewd:figID="36"><path style="&st2;" d=" M  1444.76,   469.21  L  1427.76,   469.21  L  1427.76,   477.71  L  1444.76,   477.71  L  1444.76,   469.21 " /><text style="&st8;" transform="matrix(&st16;  1429.75  475.58 )"><tspan x="0" style="&st18;" y="0">CG1</tspan></text></a><a ewd:figtype="w2w" style="cursor:pointer;" ewd:pinNo="15" ewd:code="CG1" ewd:figID="37"><path style="&st2;" d=" M  1487.25,   469.21  L  1470.25,   469.21  L  1470.25,   477.71  L  1487.25,   477.71  L  1487.25,   469.21 " /><text style="&st8;" transform="matrix(&st16;  1472.24  475.58 )"><tspan x="0" style="&st18;" y="0">CG1</tspan></text></a><a ewd:figtype="w2w" style="cursor:pointer;" ewd:pinNo="10" ewd:code="CG1" ewd:figID="38"><path style="&st2;" d=" M  2915.01,   511.70  L  2898.02,   511.70  L  2898.02,   520.20  L  2915.01,   520.20  L  2915.01,   511.70 " /><text style="&st8;" transform="matrix(&st16;  2900.0  518.07 )"><tspan x="0" style="&st18;" y="0">CG1</tspan></text></a><a ewd:figtype="gp" style="cursor:pointer;" ewd:code="C2" ewd:figID="39"><path style="&st2;" d=" M  1468.13,   681.67  L  1489.38,   681.67  L  1478.75,   697.25  L  1468.13,   681.67 " /><text style="&st8;" transform="matrix(&st16;  1474.71  689.46 )"><tspan x="0" style="&st18;" y="0">C2</tspan></text></a><a ewd:figtype="gp" style="cursor:pointer;" ewd:code="G1" ewd:figID="40"><path style="&st2;" d=" M  1910.06,   681.67  L  1931.30,   681.67  L  1920.68,   697.25  L  1910.06,   681.67 " /><text style="&st8;" transform="matrix(&st16;  1916.44  689.46 )"><tspan x="0" style="&st18;" y="0">G1</tspan></text></a><a ewd:figtype="gp" style="cursor:pointer;" ewd:code="A1" ewd:figID="41"><path style="&st2;" d=" M  2742.92,   681.67  L  2764.16,   681.67  L  2753.54,   697.25  L  2742.92,   681.67 " /><text style="&st8;" transform="matrix(&st16;  2749.65  689.46 )"><tspan x="0" style="&st18;" y="0">A1</tspan></text></a><a ewd:figtype="sp" style="cursor:pointer;" ewd:code="SP1" ewd:figID="42"><path style="&st2;" d=" M  2749.29,   630.68  L  2757.79,   630.68  L  2762.04,   634.93  L  2762.04,   643.43  L  2757.79,   647.68  L  2749.29,   647.68  L  2745.04,   643.43  L  2745.04,   634.93  L  2749.29,   630.68 " /></a></g></svg>