﻿<?xml version="1.0" encoding="utf-8"?>
<!DOCTYPE svg PUBLIC "-//W3C//DTD SVG 1.0//EN" "http://www.w3.org/TR/2001/REC-SVG-20010904/DTD/svg10.dtd"[
	<!ENTITY ns_flows "http://ns.adobe.com/Flows/1.0/">
	<!ENTITY ns_svg "http://www.w3.org/2000/svg">
	<!ENTITY ns_xlink "http://www.w3.org/1999/xlink">
	<!ENTITY st0 "font-size:7px;font-family:'MS-PGothic';adobe-font-script:japanese;">
	<!ENTITY st1 "font-size:6px;font-family:'ArialMT';">
	<!-- White fill  -->
	<!ENTITY st2 "fill:#FFFFFF;stroke:#000000; stroke-width:1.41;stroke-linecap:round;stroke-linejoin:round;">
	<!-- Yellow fill  -->
	<!ENTITY st3 "fill:#FFFFCC;stroke:#FFFFCC; stroke-width:0.1;stroke-linecap:round;stroke-linejoin:round;">
	<!-- Gray fill  -->
	<!ENTITY st4 "fill:#CCCCCC;stroke:#CCCCCC; stroke-width:0.1;stroke-linecap:round;stroke-linejoin:round;">
	<!-- Light-blue fill -->
	<!ENTITY st5 "fill:#CCECF4;stroke:#000000; stroke-width:1.133;stroke-linecap:round;stroke-linejoin:round;">
	<!ENTITY st6 "fill:none;stroke-linecap:butt; stroke-linejoin:round;">
	<!ENTITY st7 "fill:none;stroke:#000000;stroke-linecap:round;stroke-linejoin:round;">
	<!ENTITY st8 "enable-background:new    ;">
	<!-- Black fill -->
	<!ENTITY st9 "fill:#000000;stroke:#000000; stroke-linecap:round;stroke-linejoin:round;">
	<!-- SRS note   -->
	<!ENTITY st10 "font-size:9px;font-family:'ArialMT';">
	<!ENTITY st11 "font-size:9px;font-family:'Svg Symbol';">
	<!ENTITY st12 "font-size:6px;font-family:'Svg Symbol';">
	<!ENTITY st13 "fill:none;stroke:#ff0000;stroke-linecap:round;stroke-linejoin:round;">
	<!-- Yellow fill  -->
	<!ENTITY st14 "fill:#FFFF00;stroke:#FFFF00; stroke-width:0.1;stroke-linecap:round;stroke-linejoin:round;">
	<!ENTITY st15 "font-size:6px;font-family:'MS-PGothic';adobe-font-script:japanese;">
	<!ENTITY st16 "1.00 0.00 0.00 1.00">
	<!ENTITY st17 "0.00 -1.00 1.00 0.00">
	<!ENTITY st18 "font-size:6px;font-family:'Arial';">
	<!ENTITY st19 "font-size:9px;font-family:'Arial';">
	<!ENTITY st20 "font-size:6px;font-family:'MS-PGothic','MS PGothic';adobe-font-script:japanese;">
	<!ENTITY st21 "font-size:7px;font-family:'MS-PGothic','MS PGothic';adobe-font-script:japanese;">
	<!ATTLIST svg
		xmlns:ewd CDATA #FIXED "http://shcl.co.jp/ewd"
		xmlns:a CDATA #FIXED "http://ns.adobe.com/AdobeSVGViewerExtensions/3.0/"
		ewd:ver CDATA #IMPLIED
	>
	<!ATTLIST a
		ewd:lineID CDATA #IMPLIED
		ewd:groupID CDATA #IMPLIED
		ewd:figtype CDATA #IMPLIED
		ewd:code CDATA #IMPLIED
		ewd:figID CDATA #IMPLIED
		ewd:pinNo CDATA #IMPLIED
		ewd:comment CDATA #IMPLIED >
	<!ATTLIST g
		ewd:lineID CDATA #IMPLIED
		ewd:groupID CDATA #IMPLIED
		ewd:figtype CDATA #IMPLIED
		ewd:code CDATA #IMPLIED
		ewd:figID CDATA #IMPLIED
		ewd:pinNo CDATA #IMPLIED
		ewd:comment CDATA #IMPLIED >
	<!ATTLIST text
		ewd:textID CDATA #IMPLIED >
	<!ATTLIST title
		ewd:textID CDATA #IMPLIED >
]>
<!-- Generator: Shintec Hozumi YS   -->
<svg onload="call_execInitLoadProc_svg('system')" style="overflow:visible;  enable-background:new 0 0 1533.116 710.000" viewBox="0 0 1537.334 710.000" height="710.000" width="1537.334" xml:space="preserve" ewd:ver="2.1.2.7" xmlns="&ns_svg;" xmlns:a="http://ns.adobe.com/AdobeSVGViewerExtensions/3.0/" xmlns:ewd="http://shcl.co.jp/ewd" xmlns:xlink="&ns_xlink;">
<path style="stroke-width: 1.42 ;&st7;  " d=" M   416.43,   460.71  L   424.93,   460.71  " /><path style="stroke-width: 1.42 ;&st7;  " d=" M   458.92,   460.71  L   467.42,   460.71  " /><text style="&st18;" transform="matrix(&st17;  319.25  422.0 )">LG</text><text style="&st18;" transform="matrix(&st17;  378.74  422.14 )">BR</text><text style="&st18;" transform="matrix(&st17;  421.23  424.71 )">W-G</text><text style="&st18;" transform="matrix(&st17;  463.73  425.65 )">BR-Y</text><text style="&st18;" transform="matrix(&st17;  463.73  502.13 )">BR-Y</text><text style="&st18;" transform="matrix(&st17;  421.23  501.2 )">W-G</text><text style="&st18;" transform="matrix(&st17;  251.26  254.09 )">G-R</text><text style="&st18;" transform="matrix(&st17;  412.73  250.28 )">R</text><text style="&st18;" transform="matrix(&st17;  412.73  131.3 )">R</text><text style="&st18;" transform="matrix(&st16;  490.88  176.56 )">R</text><text style="&st18;" transform="matrix(&st17;  310.75  253.78 )">R-B</text><text style="&st18;" transform="matrix(&st17;  140.78  492.66 )">G</text><text style="&st18;" transform="matrix(&st17;  251.26  420.42 )">G</text><text style="&st18;" transform="matrix(&st17;  251.26  522.4 )">G</text><text style="&st18;" transform="matrix(&st17;  319.25  560.38 )">W-B</text><text style="&st18;" transform="matrix(&st17;  106.79  254.74 )">G-W</text><text style="&st18;" transform="matrix(&st17;  140.78  598.89 )">G</text><g ewd:figtype="conn" ewd:figID="3" ewd:code="A22"><path style="stroke-width: 0.85 ;&st7;  " d=" M   467.42,   562.69  L   467.42,   549.94  " /><path style="stroke-width: 0.85 ;&st7;  " d=" M   470.25,   545.69  L   464.59,   548.53  " /><path style="stroke-width: 0.85 ;&st7;  " d=" M   464.59,   542.86  L   470.25,   545.69  " /><path style="stroke-width: 0.85 ;&st7;  " d=" M   470.25,   540.03  L   464.59,   542.86  " /><path style="stroke-width: 0.85 ;&st7;  " d=" M   464.59,   537.20  L   470.25,   540.03  " /><path style="stroke-width: 0.85 ;&st7;  " d=" M   470.25,   534.36  L   464.59,   537.20  " /><path style="stroke-width: 0.85 ;&st7;  " d=" M   467.42,   532.95  L   470.25,   534.36  " /><path style="stroke-width: 0.85 ;&st7;  " d=" M   464.59,   548.53  L   467.42,   549.94  " /><path style="stroke-width: 0.85 ;&st7;  " d=" M   467.42,   532.95  L   467.42,   520.20  " /><path style="stroke-width: 0.85 ;&st7;  " d=" M   458.92,   532.95  L   458.92,   549.94  " /><path style="stroke-width: 0.85 ;&st7;  " d=" M   475.92,   532.95  L   475.92,   549.94  " /><path style="stroke-width: 0.85 ;&st7;   " d=" M   475.92,   532.95  C   475.92    528.25    472.12    524.45    467.42    524.45  " /><path style="stroke-width: 0.85 ;&st7;   " d=" M   467.42,   524.45  C   462.73    524.45    458.92    528.25    458.92    532.95  " /><path style="stroke-width: 0.85 ;&st7;   " d=" M   458.92,   549.94  C   458.92    554.64    462.73    558.44    467.42    558.44  " /><path style="stroke-width: 0.85 ;&st7;   " d=" M   467.42,   558.44  C   472.12    558.44    475.92    554.64    475.92    549.94  " /><path style="stroke-width: 1.42 ;&st7;  " d=" M   454.67,   562.69  L   454.67,   520.20  L   480.17,   520.20  L   480.17,   562.69  L   454.67,   562.69  " /><text style="&st18;" transform="matrix(&st16;  459.82  570.88 )">2</text><text style="&st18;" transform="matrix(&st16;  459.82  516.51 )">1</text><g ewd:figtype="title"><text style="&st18;" transform="matrix(&st17;  494.89  565.22 )" ewd:textID="6">Ambient Temperature Sensor <tspan x="0 " dy="6.0">(Thermistor Assembly)</tspan></text><text style="&st18;" transform="matrix(&st17;  487.78  565.22 )">A22</text></g></g><g ewd:figtype="rb" ewd:figID="4" ewd:code="FUSE2"><path style="stroke-width: 1.42 ;&st7;  " d=" M   418.56,    95.27  L   414.31,    95.27  " /><path style="stroke-width: 1.42 ;&st7;  " d=" M   418.56,   103.77  L   414.31,   103.77  " /><path style="stroke-width: 0.85 ;&st7;  " d=" M   416.43,    69.77  L   416.43,    95.27  " /><path style="stroke-width: 1.42 ;&st7;   " d=" M   414.31,    95.27  C   411.96     95.27    410.06     97.17    410.06     99.52  " /><path style="stroke-width: 1.42 ;&st7;   " d=" M   410.06,    99.52  C   410.06    101.87    411.96    103.77    414.31    103.77  " /><path style="stroke-width: 1.42 ;&st7;   " d=" M   418.56,   103.77  C   420.90    103.77    422.80    101.87    422.80     99.52  " /><path style="stroke-width: 1.42 ;&st7;   " d=" M   422.80,    99.52  C   422.80     97.17    420.90     95.27    418.56     95.27  " /><path style="stroke-width: 0.28 ;&st9;  " d=" M   416.43,    90.37  L   413.60,    87.54  L   413.60,    91.79  L   416.43,    94.62  L   419.26,    91.79  L   419.26,    87.54  L   416.43,    90.37  " /><text style="&st18;" transform="matrix(&st16;  433.74  56.17 )">7.5A <tspan x="0 " dy="6.0">DOME</tspan></text><text style="&st18;" transform="matrix(&st16;  414.85  101.49 )">1</text><text style="&st18;" transform="matrix(&st16;  410.83  86.47 )">2</text><text style="&st18;" transform="matrix(&st16;  409.08  32.08 )">(BAT)</text><path style="stroke-width: 1.42 ;&st7;   " d=" M   416.43,    47.11  C   413.69     48.72    412.78     52.25    414.39     54.99  " /><path style="stroke-width: 1.42 ;&st7;   " d=" M   414.39,    54.99  C   414.91     55.87    415.55     56.51    416.43     57.03  " /><path style="stroke-width: 1.42 ;&st7;   " d=" M   416.43,    66.94  C   419.17     65.33    420.08     61.80    418.47     59.06  " /><path style="stroke-width: 1.42 ;&st7;   " d=" M   418.47,    59.06  C   417.95     58.18    417.31     57.55    416.43     57.03  " /><path style="stroke-width: 0.85 ;&st7;   " d=" M   417.85,    45.69  C   417.85     44.91    417.21     44.28    416.43     44.28  " /><path style="stroke-width: 0.85 ;&st7;   " d=" M   416.43,    44.28  C   415.65     44.28    415.01     44.91    415.01     45.69  " /><path style="stroke-width: 0.85 ;&st7;   " d=" M   415.01,    45.69  C   415.01     46.48    415.65     47.11    416.43     47.11  " /><path style="stroke-width: 0.85 ;&st7;   " d=" M   416.43,    47.11  C   417.21     47.11    417.85     46.48    417.85     45.69  " /><path style="stroke-width: 0.85 ;&st7;   " d=" M   417.85,    68.36  C   417.85     67.57    417.21     66.94    416.43     66.94  " /><path style="stroke-width: 0.85 ;&st7;   " d=" M   416.43,    66.94  C   415.65     66.94    415.01     67.57    415.01     68.36  " /><path style="stroke-width: 0.85 ;&st7;   " d=" M   415.01,    68.36  C   415.01     69.14    415.65     69.77    416.43     69.77  " /><path style="stroke-width: 0.85 ;&st7;   " d=" M   416.43,    69.77  C   417.21     69.77    417.85     69.14    417.85     68.36  " /><path style="stroke-width: 1.42 ;&st7;  " d=" M   403.68,    35.78  L   403.68,    78.27  L   429.18,    78.27  L   429.18,    35.78  L   403.68,    35.78  " /></g><g ewd:figtype="conn" ewd:figID="10" ewd:code="G112"><path style="stroke-width: 1.42 ;&st7;  " d=" M   237.96,   341.73  L   237.96,   384.22  L   900.85,   384.22  L   900.85,   341.73  L   237.96,   341.73  " /><g ewd:lineID="10"><text style="&st18;" transform="matrix(&st16;  406.06  338.04 )">14</text><text style="&st18;" transform="matrix(&st16;  412.93  349.36 )">+B</text></g><g ewd:lineID="13"><text style="&st18;" transform="matrix(&st16;  417.33  392.41 )">3</text><text style="&st18;" transform="matrix(&st16;  419.59  380.52 )">TH+</text></g><g ewd:lineID="16"><text style="&st18;" transform="matrix(&st16;  459.82  392.41 )">2</text><text style="&st18;" transform="matrix(&st16;  463.32  380.52 )">SG</text></g><g ewd:lineID="4"><text style="&st18;" transform="matrix(&st16;  247.36  392.41 )">6</text><text style="&st18;" transform="matrix(&st16;  249.0  380.52 )">TAIL</text></g><g ewd:lineID="5"><text style="&st18;" transform="matrix(&st16;  244.59  338.04 )">13</text><text style="&st18;" transform="matrix(&st16;  249.0  349.36 )">ACC</text></g><g ewd:lineID="6"><text style="&st18;" transform="matrix(&st16;  304.08  338.04 )">12</text><text style="&st18;" transform="matrix(&st16;  311.45  349.36 )">IG</text></g><g ewd:lineID="8"><text style="&st18;" transform="matrix(&st16;  315.34  392.41 )">1</text><text style="&st18;" transform="matrix(&st16;  315.09  380.52 )">GND1</text></g><g ewd:lineID="9"><text style="&st18;" transform="matrix(&st16;  372.06  392.41 )">10</text><text style="&st18;" transform="matrix(&st16;  374.27  380.52 )">SGND</text></g><g ewd:figtype="title"><text style="&st18;" transform="matrix(&st16;  422.4  332.08 )" ewd:textID="5">Accessory Meter <tspan x="0 " dy="6.0">Assembly</tspan></text><text style="&st18;" transform="matrix(&st16;  422.4  324.98 )">G112</text></g></g><g ewd:figtype="conn" ewd:figID="11" ewd:code="G11,G64"><path style="stroke-width: 0.85 ;&st7;  " d=" M    25.50,   375.72  L   161.47,   375.72  " /><path style="stroke-width: 0.85 ;&st7;  " d=" M    93.48,   358.73  L    93.48,   426.71  " /><path style="stroke-width: 0.85 ;&st7;  " d=" M    59.49,   409.72  L   161.47,   409.72  " /><path style="stroke-width: 0.85 ;&st7;  " d=" M   111.90,   418.22  L   143.06,   418.22  " /><path style="stroke-width: 0.85 ;&st7;  " d=" M    59.49,   392.72  L   161.47,   392.72  " /><path style="stroke-width: 0.85 ;&st7;  " d=" M    59.49,   358.73  L    59.49,   426.71  " /><path style="stroke-width: 0.85 ;&st7;  " d=" M   111.90,   401.22  L   143.06,   401.22  " /><path style="stroke-width: 0.85 ;&st7;   " d=" M   145.89,   418.22  C   145.89    417.43    145.26    416.80    144.48    416.80  " /><path style="stroke-width: 0.85 ;&st7;   " d=" M   144.48,   416.80  C   143.69    416.80    143.06    417.43    143.06    418.22  " /><path style="stroke-width: 0.85 ;&st7;   " d=" M   143.06,   418.22  C   143.06    419.00    143.69    419.63    144.48    419.63  " /><path style="stroke-width: 0.85 ;&st7;   " d=" M   144.48,   419.63  C   145.26    419.63    145.89    419.00    145.89    418.22  " /><path style="stroke-width: 0.85 ;&st7;   " d=" M   111.90,   418.22  C   111.90    417.43    111.26    416.80    110.48    416.80  " /><path style="stroke-width: 0.85 ;&st7;   " d=" M   110.48,   416.80  C   109.70    416.80    109.07    417.43    109.07    418.22  " /><path style="stroke-width: 0.85 ;&st7;   " d=" M   109.07,   418.22  C   109.07    419.00    109.70    419.63    110.48    419.63  " /><path style="stroke-width: 0.85 ;&st7;   " d=" M   110.48,   419.63  C   111.26    419.63    111.90    419.00    111.90    418.22  " /><path style="stroke-width: 0.85 ;&st7;   " d=" M   111.90,   401.22  C   111.90    400.44    111.26    399.80    110.48    399.80  " /><path style="stroke-width: 0.85 ;&st7;   " d=" M   110.48,   399.80  C   109.70    399.80    109.07    400.44    109.07    401.22  " /><path style="stroke-width: 0.85 ;&st7;   " d=" M   109.07,   401.22  C   109.07    402.00    109.70    402.63    110.48    402.63  " /><path style="stroke-width: 0.85 ;&st7;   " d=" M   110.48,   402.63  C   111.26    402.63    111.90    402.00    111.90    401.22  " /><path style="stroke-width: 0.85 ;&st7;   " d=" M   145.89,   401.22  C   145.89    400.44    145.26    399.80    144.48    399.80  " /><path style="stroke-width: 0.85 ;&st7;   " d=" M   144.48,   399.80  C   143.69    399.80    143.06    400.44    143.06    401.22  " /><path style="stroke-width: 0.85 ;&st7;   " d=" M   143.06,   401.22  C   143.06    402.00    143.69    402.63    144.48    402.63  " /><path style="stroke-width: 0.85 ;&st7;   " d=" M   144.48,   402.63  C   145.26    402.63    145.89    402.00    145.89    401.22  " /><path style="stroke-width: 0.85 ;&st7;  " d=" M   110.48,   358.73  L   110.48,   341.73  " /><path style="stroke-width: 0.85 ;&st7;  " d=" M   127.48,   358.73  L   127.48,   426.71  " /><path style="stroke-width: 1.42 ;&st7;  " d=" M   161.47,   426.71  L    25.50,   426.71  L    25.50,   358.73  L   161.47,   358.73  L   161.47,   426.71  " /><path style="stroke-width: 1.42 ;&st7;  " d=" M    12.75,   341.73  L    12.75,   443.71  L   178.47,   443.71  L   178.47,   341.73  L    12.75,   341.73  " /><path style="stroke-width: 0.85 ;&st7;  " d=" M   144.48,   426.71  L   144.48,   443.71  " /><text style="&st18;" transform="matrix(&st16;  141.2  369.19 )">T1</text><text style="&st18;" transform="matrix(&st16;  107.01  369.19 )">B1</text><text style="&st18;" transform="matrix(&st17;  38.81  410.37 )" ewd:textID="14">Light <tspan x="0 " dy="6.0">Control </tspan><tspan x="0 " dy="6.0">Switch</tspan></text><text style="&st18;" transform="matrix(&st16;  70.49  420.18 )" ewd:textID="11">Head</text><text style="&st18;" transform="matrix(&st16;  70.89  386.19 )">OFF</text><text style="&st18;" transform="matrix(&st16;  72.64  403.19 )" ewd:textID="25">Tail</text><text style="&st18;" transform="matrix(&st16;  113.31  349.92 )">B1</text><text style="&st18;" transform="matrix(&st16;  147.31  440.02 )">T1</text><text style="&st18;" transform="matrix(&st16;  99.6  339.16 )">5</text><text style="&st18;" transform="matrix(&st16;  95.65  330.1 )">13</text><path style="stroke-width: 1.42 ;&st7;   " d=" M   115.01,   337.20  C   115.01    334.69    112.98    332.66    110.48    332.66  " /><path style="stroke-width: 1.42 ;&st7;   " d=" M   110.48,   332.66  C   107.98    332.66    105.95    334.69    105.95    337.20  " /><path style="stroke-width: 1.42 ;&st7;   " d=" M   105.95,   337.20  C   105.95    339.70    107.98    341.73    110.48    341.73  " /><path style="stroke-width: 1.42 ;&st7;   " d=" M   110.48,   341.73  C   112.98    341.73    115.01    339.70    115.01    337.20  " /><path style="stroke-width: 1.42 ;&st7;   " d=" M   115.01,   328.13  C   115.01    325.63    112.98    323.60    110.48    323.60  " /><path style="stroke-width: 1.42 ;&st7;   " d=" M   110.48,   323.60  C   107.98    323.60    105.95    325.63    105.95    328.13  " /><path style="stroke-width: 1.42 ;&st7;   " d=" M   105.95,   328.13  C   105.95    330.63    107.98    332.66    110.48    332.66  " /><path style="stroke-width: 1.42 ;&st7;   " d=" M   110.48,   332.66  C   112.98    332.66    115.01    330.63    115.01    328.13  " /><text style="&st18;" transform="matrix(&st16;  108.59  339.16 )">B</text><text style="&st18;" transform="matrix(&st16;  108.59  330.1 )">A</text><text style="&st18;" transform="matrix(&st16;  133.6  459.28 )">8</text><text style="&st18;" transform="matrix(&st16;  129.64  450.21 )">10</text><path style="stroke-width: 1.42 ;&st7;   " d=" M   149.01,   457.31  C   149.01    454.81    146.98    452.78    144.48    452.78  " /><path style="stroke-width: 1.42 ;&st7;   " d=" M   144.48,   452.78  C   141.97    452.78    139.94    454.81    139.94    457.31  " /><path style="stroke-width: 1.42 ;&st7;   " d=" M   139.94,   457.31  C   139.94    459.81    141.97    461.84    144.48    461.84  " /><path style="stroke-width: 1.42 ;&st7;   " d=" M   144.48,   461.84  C   146.98    461.84    149.01    459.81    149.01    457.31  " /><path style="stroke-width: 1.42 ;&st7;   " d=" M   149.01,   448.24  C   149.01    445.74    146.98    443.71    144.48    443.71  " /><path style="stroke-width: 1.42 ;&st7;   " d=" M   144.48,   443.71  C   141.97    443.71    139.94    445.74    139.94    448.24  " /><path style="stroke-width: 1.42 ;&st7;   " d=" M   139.94,   448.24  C   139.94    450.75    141.97    452.78    144.48    452.78  " /><path style="stroke-width: 1.42 ;&st7;   " d=" M   144.48,   452.78  C   146.98    452.78    149.01    450.75    149.01    448.24  " /><text style="&st18;" transform="matrix(&st16;  142.58  450.21 )">A</text><text style="&st18;" transform="matrix(&st16;  142.58  459.28 )">B</text><g ewd:figtype="title"><text style="&st18;" transform="matrix(&st16;  10.22  458.43 )" ewd:textID="12">Headlight Dimmer <tspan x="0 " dy="6.0">Switch Assembly</tspan></text><text style="&st18;" transform="matrix(&st16;  10.22  451.32 )">G11(A),G64(B)</text></g><g ewd:code="" ewd:figID="48" ewd:comment="" ewd:figtype="commref"><text style="&st18;" transform="matrix(&st16;  116.46  339.16 )">(RHD)</text></g><g ewd:code="" ewd:figID="49" ewd:comment="" ewd:figtype="commref"><text style="&st18;" transform="matrix(&st16;  116.46  330.1 )">(LHD)</text></g><g ewd:code="" ewd:figID="50" ewd:comment="" ewd:figtype="commref"><text style="&st18;" transform="matrix(&st16;  150.45  450.21 )">(LHD)</text></g><g ewd:code="" ewd:figID="51" ewd:comment="" ewd:figtype="commref"><text style="&st18;" transform="matrix(&st16;  150.45  459.28 )">(RHD)</text></g></g><g ewd:figtype="conn" ewd:figID="12" ewd:code="G113,G114"><path style="stroke-width: 0.85 ;&st7;  " d=" M   322.95,   469.21  L   322.95,   494.70  " /><path style="stroke-width: 1.13 ;&st7; stroke-dasharray:3, 3;" d=" M   314.45,   486.20  L   331.44,   486.20  " /><path style="stroke-width: 1.13 ;&st7; stroke-dasharray:3, 3;" d=" M   314.45,   477.71  L   331.44,   477.71  " /><path style="stroke-width: 1.42 ;&st7;  " d=" M   314.45,   469.21  L   314.45,   494.70  L   331.44,   494.70  L   331.44,   469.21  L   314.45,   469.21  " /><text style="&st18;" transform="matrix(&st16;  308.11  501.2 )">12</text><text style="&st18;" transform="matrix(&st16;  321.05  501.2 )">B</text><path style="stroke-width: 1.42 ;&st7;   " d=" M   327.48,   499.24  C   327.48    496.73    325.45    494.70    322.95    494.70  " /><path style="stroke-width: 1.42 ;&st7;   " d=" M   322.95,   494.70  C   320.44    494.70    318.41    496.73    318.41    499.24  " /><path style="stroke-width: 1.42 ;&st7;   " d=" M   318.41,   499.24  C   318.41    501.74    320.44    503.77    322.95    503.77  " /><path style="stroke-width: 1.42 ;&st7;   " d=" M   322.95,   503.77  C   325.45    503.77    327.48    501.74    327.48    499.24  " /><text style="&st18;" transform="matrix(&st16;  312.07  466.64 )">7</text><text style="&st18;" transform="matrix(&st16;  321.05  466.64 )">A</text><path style="stroke-width: 1.42 ;&st7;   " d=" M   327.48,   464.67  C   327.48    462.17    325.45    460.14    322.95    460.14  " /><path style="stroke-width: 1.42 ;&st7;   " d=" M   322.95,   460.14  C   320.44    460.14    318.41    462.17    318.41    464.67  " /><path style="stroke-width: 1.42 ;&st7;   " d=" M   318.41,   464.67  C   318.41    467.18    320.44    469.21    322.95    469.21  " /><path style="stroke-width: 1.42 ;&st7;   " d=" M   322.95,   469.21  C   325.45    469.21    327.48    467.18    327.48    464.67  " /><g ewd:figtype="title"><text style="&st18;" transform="matrix(&st17;  339.06  497.23 )">G113(A),G114(B)</text><text style="&st18;" transform="matrix(&st17;  346.16  497.23 )" ewd:textID="13">Junction Connector</text></g></g><g ewd:figtype="jb" ewd:figID="19" ewd:code="2"><path style="stroke-width: 1.42 ;&st7;  " d=" M   418.56,   154.76  L   414.31,   154.76  " /><path style="stroke-width: 1.42 ;&st7;  " d=" M   418.56,   163.26  L   414.31,   163.26  " /><path style="stroke-width: 1.42 ;&st7;  " d=" M   418.56,   197.25  L   414.31,   197.25  " /><path style="stroke-width: 1.42 ;&st7;  " d=" M   418.56,   205.75  L   414.31,   205.75  " /><path style="stroke-width: 1.42 ;&st7;   " d=" M   414.31,   154.76  C   411.96    154.76    410.06    156.66    410.06    159.01  " /><path style="stroke-width: 1.42 ;&st7;   " d=" M   410.06,   159.01  C   410.06    161.36    411.96    163.26    414.31    163.26  " /><path style="stroke-width: 1.42 ;&st7;   " d=" M   418.56,   163.26  C   420.90    163.26    422.80    161.36    422.80    159.01  " /><path style="stroke-width: 1.42 ;&st7;   " d=" M   422.80,   159.01  C   422.80    156.66    420.90    154.76    418.56    154.76  " /><path style="stroke-width: 1.42 ;&st7;   " d=" M   414.31,   197.25  C   411.96    197.25    410.06    199.15    410.06    201.50  " /><path style="stroke-width: 1.42 ;&st7;   " d=" M   410.06,   201.50  C   410.06    203.85    411.96    205.75    414.31    205.75  " /><path style="stroke-width: 1.42 ;&st7;   " d=" M   418.56,   205.75  C   420.90    205.75    422.80    203.85    422.80    201.50  " /><path style="stroke-width: 1.42 ;&st7;   " d=" M   422.80,   201.50  C   422.80    199.15    420.90    197.25    418.56    197.25  " /><path style="stroke-width: 0.28 ;&st9;  " d=" M   416.43,   168.15  L   419.26,   170.99  L   419.26,   166.74  L   416.43,   163.90  L   413.60,   166.74  L   413.60,   170.99  L   416.43,   168.15  " /><path style="stroke-width: 0.28 ;&st9;  " d=" M   416.43,   192.36  L   413.60,   189.52  L   413.60,   193.77  L   416.43,   196.61  L   419.26,   193.77  L   419.26,   189.52  L   416.43,   192.36  " /><path style="stroke-width: 0.85 ;&st7;  " d=" M   416.43,   197.25  L   416.43,   163.26  " /><text style="&st18;" transform="matrix(&st16;  413.44  160.98 )">2J</text><text style="&st18;" transform="matrix(&st16;  403.74  160.98 )">8</text><text style="&st18;" transform="matrix(&st16;  412.95  203.47 )">2S</text><text style="&st18;" transform="matrix(&st16;  403.74  203.47 )">8</text><path style="stroke-width: 1.42 ;&st7;  " d=" M   446.18,   176.01  L   441.93,   176.01  " /><path style="stroke-width: 1.42 ;&st7;  " d=" M   446.18,   184.50  L   441.93,   184.50  " /><path style="stroke-width: 1.42 ;&st7;   " d=" M   441.93,   176.01  C   439.58    176.01    437.68    177.91    437.68    180.26  " /><path style="stroke-width: 1.42 ;&st7;   " d=" M   437.68,   180.26  C   437.68    182.60    439.58    184.50    441.93    184.50  " /><path style="stroke-width: 1.42 ;&st7;   " d=" M   446.18,   184.50  C   448.52    184.50    450.42    182.60    450.42    180.26  " /><path style="stroke-width: 1.42 ;&st7;   " d=" M   450.42,   180.26  C   450.42    177.91    448.52    176.01    446.18    176.01  " /><path style="stroke-width: 0.28 ;&st9;  " d=" M   432.78,   180.26  L   429.95,   177.42  L   434.20,   177.42  L   437.03,   180.26  L   434.20,   183.09  L   429.95,   183.09  L   432.78,   180.26  " /><text style="&st18;" transform="matrix(&st16;  440.26  182.22 )">2Q</text><text style="&st18;" transform="matrix(&st16;  440.89  173.02 )">25</text><path style="stroke-width: 0.85 ;&st7;  " d=" M   416.43,   180.26  L   437.68,   180.26  " /><path style="stroke-width: 0.85 ;&st7;  " d=" M   415.24,   179.25  L   414.97,   179.72  L   414.87,   180.26  L   414.97,   180.79  L   415.24,   181.26  L   415.65,   181.60  L   416.16,   181.79  L   416.70,   181.79  L   417.21,   181.60  L   417.62,   181.26  L   417.89,   180.79  L   417.99,   180.26  L   417.89,   179.72  L   417.62,   179.25  L   417.21,   178.91  L   416.70,   178.72  L   416.16,   178.72  L   415.65,   178.91  L   415.24,   179.25  L   415.63,   179.96  L   415.63,   180.55  L   416.01,   180.99  L   416.58,   181.09  L   417.08,   180.80  L   417.28,   180.26  L   417.08,   179.71  L   416.58,   179.42  L   416.01,   179.52  L   416.43,   180.26  " /></g><g ewd:figtype="jb" ewd:figID="21" ewd:code="2"><path style="stroke-width: 0.85 ;&st7;   " d=" M   256.37,    68.36  C   256.37     67.57    255.74     66.94    254.96     66.94  " /><path style="stroke-width: 0.85 ;&st7;   " d=" M   254.96,    66.94  C   254.18     66.94    253.54     67.57    253.54     68.36  " /><path style="stroke-width: 0.85 ;&st7;   " d=" M   253.54,    68.36  C   253.54     69.14    254.18     69.77    254.96     69.77  " /><path style="stroke-width: 0.85 ;&st7;   " d=" M   254.96,    69.77  C   255.74     69.77    256.37     69.14    256.37     68.36  " /><path style="stroke-width: 1.42 ;&st7;   " d=" M   252.83,    95.27  C   250.49     95.27    248.58     97.17    248.58     99.52  " /><path style="stroke-width: 1.42 ;&st7;   " d=" M   248.58,    99.52  C   248.58    101.87    250.49    103.77    252.83    103.77  " /><path style="stroke-width: 1.42 ;&st7;   " d=" M   257.08,   103.77  C   259.43    103.77    261.33    101.87    261.33     99.52  " /><path style="stroke-width: 1.42 ;&st7;   " d=" M   261.33,    99.52  C   261.33     97.17    259.43     95.27    257.08     95.27  " /><path style="stroke-width: 0.28 ;&st9;  " d=" M   254.96,    90.37  L   252.12,    87.54  L   252.12,    91.79  L   254.96,    94.62  L   257.79,    91.79  L   257.79,    87.54  L   254.96,    90.37  " /><path style="stroke-width: 1.42 ;&st7;  " d=" M   242.21,    35.78  L   242.21,    78.27  L   267.71,    78.27  L   267.71,    35.78  L   242.21,    35.78  " /><text style="&st18;" transform="matrix(&st16;  272.26  56.17 )">7.5A <tspan x="0 " dy="6.0">ACC</tspan></text><text style="&st18;" transform="matrix(&st16;  251.17  101.49 )">2O</text><text style="&st18;" transform="matrix(&st16;  238.31  101.49 )">24</text><text style="&st18;" transform="matrix(&st16;  247.13  32.08 )">(ACC)</text><path style="stroke-width: 0.85 ;&st7;  " d=" M   314.45,    69.77  L   314.45,    95.27  " /><path style="stroke-width: 1.42 ;&st7;   " d=" M   314.45,    47.11  C   311.71     48.72    310.80     52.25    312.41     54.99  " /><path style="stroke-width: 1.42 ;&st7;   " d=" M   312.41,    54.99  C   312.93     55.87    313.57     56.51    314.45     57.03  " /><path style="stroke-width: 1.42 ;&st7;   " d=" M   314.45,    66.94  C   317.19     65.33    318.10     61.80    316.48     59.06  " /><path style="stroke-width: 1.42 ;&st7;   " d=" M   316.48,    59.06  C   315.96     58.18    315.33     57.55    314.45     57.03  " /><path style="stroke-width: 0.85 ;&st7;   " d=" M   315.86,    45.69  C   315.86     44.91    315.23     44.28    314.45     44.28  " /><path style="stroke-width: 0.85 ;&st7;   " d=" M   314.45,    44.28  C   313.67     44.28    313.03     44.91    313.03     45.69  " /><path style="stroke-width: 0.85 ;&st7;   " d=" M   313.03,    45.69  C   313.03     46.48    313.67     47.11    314.45     47.11  " /><path style="stroke-width: 0.85 ;&st7;   " d=" M   314.45,    47.11  C   315.23     47.11    315.86     46.48    315.86     45.69  " /><path style="stroke-width: 0.85 ;&st7;   " d=" M   315.86,    68.36  C   315.86     67.57    315.23     66.94    314.45     66.94  " /><path style="stroke-width: 0.85 ;&st7;   " d=" M   314.45,    66.94  C   313.67     66.94    313.03     67.57    313.03     68.36  " /><path style="stroke-width: 0.85 ;&st7;   " d=" M   313.03,    68.36  C   313.03     69.14    313.67     69.77    314.45     69.77  " /><path style="stroke-width: 0.85 ;&st7;   " d=" M   314.45,    69.77  C   315.23     69.77    315.86     69.14    315.86     68.36  " /><path style="stroke-width: 0.85 ;&st7;   " d=" M   256.37,    45.69  C   256.37     44.91    255.74     44.28    254.96     44.28  " /><path style="stroke-width: 0.85 ;&st7;   " d=" M   254.96,    44.28  C   254.18     44.28    253.54     44.91    253.54     45.69  " /><path style="stroke-width: 0.85 ;&st7;   " d=" M   253.54,    45.69  C   253.54     46.48    254.18     47.11    254.96     47.11  " /><path style="stroke-width: 0.85 ;&st7;   " d=" M   254.96,    47.11  C   255.74     47.11    256.37     46.48    256.37     45.69  " /><path style="stroke-width: 1.42 ;&st7;   " d=" M   254.96,    66.94  C   257.70     65.33    258.61     61.80    256.99     59.06  " /><path style="stroke-width: 1.42 ;&st7;   " d=" M   256.99,    59.06  C   256.47     58.18    255.84     57.55    254.96     57.03  " /><path style="stroke-width: 1.42 ;&st7;   " d=" M   254.96,    47.11  C   252.22     48.72    251.31     52.25    252.92     54.99  " /><path style="stroke-width: 1.42 ;&st7;   " d=" M   252.92,    54.99  C   253.44     55.87    254.08     56.51    254.96     57.03  " /><path style="stroke-width: 1.42 ;&st7;  " d=" M   257.08,   103.77  L   252.83,   103.77  " /><path style="stroke-width: 1.42 ;&st7;  " d=" M   257.08,    95.27  L   252.83,    95.27  " /><path style="stroke-width: 0.85 ;&st7;  " d=" M   254.96,    69.77  L   254.96,    95.27  " /><path style="stroke-width: 1.42 ;&st7;  " d=" M   301.70,    35.78  L   301.70,    78.27  L   327.20,    78.27  L   327.20,    35.78  L   301.70,    35.78  " /><text style="&st18;" transform="matrix(&st16;  331.75  56.17 )">10A <tspan x="0 " dy="6.0">ECU-IG&amp;GAUGE</tspan></text><text style="&st18;" transform="matrix(&st16;  309.59  32.08 )">(IG)</text><path style="stroke-width: 1.42 ;&st7;  " d=" M   316.57,    95.27  L   312.32,    95.27  " /><path style="stroke-width: 1.42 ;&st7;  " d=" M   316.57,   103.77  L   312.32,   103.77  " /><path style="stroke-width: 1.42 ;&st7;   " d=" M   312.32,    95.27  C   309.98     95.27    308.07     97.17    308.07     99.52  " /><path style="stroke-width: 1.42 ;&st7;   " d=" M   308.07,    99.52  C   308.07    101.87    309.98    103.77    312.32    103.77  " /><path style="stroke-width: 1.42 ;&st7;   " d=" M   316.57,   103.77  C   318.92    103.77    320.82    101.87    320.82     99.52  " /><path style="stroke-width: 1.42 ;&st7;   " d=" M   320.82,    99.52  C   320.82     97.17    318.92     95.27    316.57     95.27  " /><path style="stroke-width: 0.28 ;&st9;  " d=" M   314.45,    90.37  L   311.61,    87.54  L   311.61,    91.79  L   314.45,    94.62  L   317.28,    91.79  L   317.28,    87.54  L   314.45,    90.37  " /><text style="&st18;" transform="matrix(&st16;  310.97  101.49 )">2S</text><text style="&st18;" transform="matrix(&st16;  297.8  101.49 )">31</text><path style="stroke-width: 0.85 ;&st7;  " d=" M   110.48,    69.77  L   110.48,    95.27  " /><path style="stroke-width: 1.42 ;&st7;  " d=" M   112.61,    95.27  L   108.36,    95.27  " /><path style="stroke-width: 1.42 ;&st7;  " d=" M   112.61,   103.77  L   108.36,   103.77  " /><path style="stroke-width: 1.42 ;&st7;   " d=" M   110.48,    47.11  C   107.74     48.72    106.83     52.25    108.44     54.99  " /><path style="stroke-width: 1.42 ;&st7;   " d=" M   108.44,    54.99  C   108.96     55.87    109.60     56.51    110.48     57.03  " /><path style="stroke-width: 1.42 ;&st7;   " d=" M   110.48,    66.94  C   113.22     65.33    114.13     61.80    112.52     59.06  " /><path style="stroke-width: 1.42 ;&st7;   " d=" M   112.52,    59.06  C   112.00     58.18    111.36     57.55    110.48     57.03  " /><path style="stroke-width: 0.85 ;&st7;   " d=" M   111.90,    45.69  C   111.90     44.91    111.26     44.28    110.48     44.28  " /><path style="stroke-width: 0.85 ;&st7;   " d=" M   110.48,    44.28  C   109.70     44.28    109.07     44.91    109.07     45.69  " /><path style="stroke-width: 0.85 ;&st7;   " d=" M   109.07,    45.69  C   109.07     46.48    109.70     47.11    110.48     47.11  " /><path style="stroke-width: 0.85 ;&st7;   " d=" M   110.48,    47.11  C   111.26     47.11    111.90     46.48    111.90     45.69  " /><path style="stroke-width: 0.85 ;&st7;   " d=" M   111.90,    68.36  C   111.90     67.57    111.26     66.94    110.48     66.94  " /><path style="stroke-width: 0.85 ;&st7;   " d=" M   110.48,    66.94  C   109.70     66.94    109.07     67.57    109.07     68.36  " /><path style="stroke-width: 0.85 ;&st7;   " d=" M   109.07,    68.36  C   109.07     69.14    109.70     69.77    110.48     69.77  " /><path style="stroke-width: 0.85 ;&st7;   " d=" M   110.48,    69.77  C   111.26     69.77    111.90     69.14    111.90     68.36  " /><path style="stroke-width: 1.42 ;&st7;   " d=" M   108.36,    95.27  C   106.01     95.27    104.11     97.17    104.11     99.52  " /><path style="stroke-width: 1.42 ;&st7;   " d=" M   104.11,    99.52  C   104.11    101.87    106.01    103.77    108.36    103.77  " /><path style="stroke-width: 1.42 ;&st7;   " d=" M   112.61,   103.77  C   114.95    103.77    116.86    101.87    116.86     99.52  " /><path style="stroke-width: 1.42 ;&st7;   " d=" M   116.86,    99.52  C   116.86     97.17    114.95     95.27    112.61     95.27  " /><path style="stroke-width: 0.28 ;&st9;  " d=" M   110.48,    90.37  L   107.65,    87.54  L   107.65,    91.79  L   110.48,    94.62  L   113.31,    91.79  L   113.31,    87.54  L   110.48,    90.37  " /><path style="stroke-width: 1.42 ;&st7;  " d=" M    97.73,    35.78  L    97.73,    78.27  L   123.23,    78.27  L   123.23,    35.78  L    97.73,    35.78  " /><text style="&st18;" transform="matrix(&st16;  127.79  56.17 )">10A <tspan x="0 " dy="6.0">TAIL</tspan></text><text style="&st18;" transform="matrix(&st16;  106.86  101.49 )">2C</text><text style="&st18;" transform="matrix(&st16;  97.79  101.49 )">5</text><text style="&st18;" transform="matrix(&st16;  103.13  32.08 )">(BAT)</text></g><g ewd:figtype="jb" ewd:figID="22" ewd:code="2"><path style="stroke-width: 1.42 ;&st7;  " d=" M   146.60,   520.20  L   142.35,   520.20  " /><path style="stroke-width: 1.42 ;&st7;  " d=" M   146.60,   528.70  L   142.35,   528.70  " /><path style="stroke-width: 1.42 ;&st7;  " d=" M   146.60,   562.69  L   142.35,   562.69  " /><path style="stroke-width: 1.42 ;&st7;  " d=" M   146.60,   571.19  L   142.35,   571.19  " /><path style="stroke-width: 1.42 ;&st7;   " d=" M   142.35,   520.20  C   140.00    520.20    138.10    522.10    138.10    524.45  " /><path style="stroke-width: 1.42 ;&st7;   " d=" M   138.10,   524.45  C   138.10    526.79    140.00    528.70    142.35    528.70  " /><path style="stroke-width: 1.42 ;&st7;   " d=" M   146.60,   528.70  C   148.95    528.70    150.85    526.79    150.85    524.45  " /><path style="stroke-width: 1.42 ;&st7;   " d=" M   150.85,   524.45  C   150.85    522.10    148.95    520.20    146.60    520.20  " /><path style="stroke-width: 1.42 ;&st7;   " d=" M   142.35,   562.69  C   140.00    562.69    138.10    564.59    138.10    566.94  " /><path style="stroke-width: 1.42 ;&st7;   " d=" M   138.10,   566.94  C   138.10    569.29    140.00    571.19    142.35    571.19  " /><path style="stroke-width: 1.42 ;&st7;   " d=" M   146.60,   571.19  C   148.95    571.19    150.85    569.29    150.85    566.94  " /><path style="stroke-width: 1.42 ;&st7;   " d=" M   150.85,   566.94  C   150.85    564.59    148.95    562.69    146.60    562.69  " /><path style="stroke-width: 0.28 ;&st9;  " d=" M   144.48,   533.59  L   147.31,   536.43  L   147.31,   532.18  L   144.48,   529.34  L   141.64,   532.18  L   141.64,   536.43  L   144.48,   533.59  " /><path style="stroke-width: 0.28 ;&st9;  " d=" M   144.48,   557.80  L   141.64,   554.96  L   141.64,   559.21  L   144.48,   562.05  L   147.31,   559.21  L   147.31,   554.96  L   144.48,   557.80  " /><path style="stroke-width: 0.85 ;&st7;  " d=" M   144.48,   562.69  L   144.48,   528.70  " /><text style="&st18;" transform="matrix(&st16;  140.86  526.42 )">2R</text><text style="&st18;" transform="matrix(&st16;  131.79  526.42 )">7</text><text style="&st18;" transform="matrix(&st16;  141.0  568.91 )">2S</text><text style="&st18;" transform="matrix(&st16;  131.79  568.91 )">7</text></g><g ewd:figtype="jb" ewd:figID="23" ewd:code="2"><path style="stroke-width: 1.42 ;&st7;  " d=" M   257.08,   443.71  L   252.83,   443.71  " /><path style="stroke-width: 1.42 ;&st7;  " d=" M   257.08,   452.21  L   252.83,   452.21  " /><path style="stroke-width: 1.42 ;&st7;  " d=" M   257.08,   486.20  L   252.83,   486.20  " /><path style="stroke-width: 1.42 ;&st7;  " d=" M   257.08,   494.70  L   252.83,   494.70  " /><path style="stroke-width: 1.42 ;&st7;   " d=" M   252.83,   443.71  C   250.49    443.71    248.58    445.61    248.58    447.96  " /><path style="stroke-width: 1.42 ;&st7;   " d=" M   248.58,   447.96  C   248.58    450.31    250.49    452.21    252.83    452.21  " /><path style="stroke-width: 1.42 ;&st7;   " d=" M   257.08,   452.21  C   259.43    452.21    261.33    450.31    261.33    447.96  " /><path style="stroke-width: 1.42 ;&st7;   " d=" M   261.33,   447.96  C   261.33    445.61    259.43    443.71    257.08    443.71  " /><path style="stroke-width: 1.42 ;&st7;   " d=" M   252.83,   486.20  C   250.49    486.20    248.58    488.11    248.58    490.45  " /><path style="stroke-width: 1.42 ;&st7;   " d=" M   248.58,   490.45  C   248.58    492.80    250.49    494.70    252.83    494.70  " /><path style="stroke-width: 1.42 ;&st7;   " d=" M   257.08,   494.70  C   259.43    494.70    261.33    492.80    261.33    490.45  " /><path style="stroke-width: 1.42 ;&st7;   " d=" M   261.33,   490.45  C   261.33    488.11    259.43    486.20    257.08    486.20  " /><path style="stroke-width: 0.28 ;&st9;  " d=" M   254.96,   457.11  L   257.79,   459.94  L   257.79,   455.69  L   254.96,   452.86  L   252.12,   455.69  L   252.12,   459.94  L   254.96,   457.11  " /><path style="stroke-width: 0.28 ;&st9;  " d=" M   254.96,   481.31  L   252.12,   478.48  L   252.12,   482.73  L   254.96,   485.56  L   257.79,   482.73  L   257.79,   478.48  L   254.96,   481.31  " /><path style="stroke-width: 0.85 ;&st7;  " d=" M   254.96,   486.20  L   254.96,   452.21  " /><text style="&st18;" transform="matrix(&st16;  251.17  449.93 )">2Q</text><text style="&st18;" transform="matrix(&st16;  238.31  449.93 )">13</text><text style="&st18;" transform="matrix(&st16;  251.17  492.42 )">2Q</text><text style="&st18;" transform="matrix(&st16;  238.31  492.42 )">12</text></g><g ewd:figtype="w2w" ewd:figID="24" ewd:code="AG6"><path style="stroke-width: 1.42 ;&st7;  " d=" M   420.68,   451.64  L   424.93,   455.89  L   429.18,   451.64  " /><path style="stroke-width: 1.42 ;&st7;  " d=" M   429.18,   455.04  L   424.93,   459.29  L   420.68,   455.04  " /><text style="&st18;" transform="matrix(&st16;  410.11  466.93 )">6</text></g><g ewd:figtype="w2w" ewd:figID="25" ewd:code="AG6"><path style="stroke-width: 1.42 ;&st7;  " d=" M   471.67,   455.04  L   467.42,   459.29  L   463.17,   455.04  " /><path style="stroke-width: 1.42 ;&st7;  " d=" M   463.17,   451.64  L   467.42,   455.89  L   471.67,   451.64  " /><text style="&st18;" transform="matrix(&st16;  452.61  466.93 )">3</text></g><g ewd:figtype="gp" ewd:figID="36" ewd:code="G1"><path style="stroke-width: 0.85 ;&st7;  " d=" M   382.44,   697.25  L   382.44,   701.50  " /><path style="stroke-width: 0.85 ;&st7;  " d=" M   373.94,   701.50  L   390.93,   701.50  " /><path style="stroke-width: 0.85 ;&st7;  " d=" M   378.19,   704.33  L   386.69,   704.33  " /><path style="stroke-width: 0.85 ;&st7;  " d=" M   379.60,   707.17  L   385.27,   707.17  " /><path style="stroke-width: 0.85 ;&st7;  " d=" M   381.02,   710.00  L   383.85,   710.00  " /></g></svg>