﻿<?xml version="1.0" encoding="UTF-8"?>
<!DOCTYPE svg PUBLIC "-//W3C//DTD SVG 1.0//EN" "http://www.w3.org/TR/2001/REC-SVG-20010904/DTD/svg10.dtd"[
	<!ENTITY ns_flows "http://ns.adobe.com/Flows/1.0/">
	<!ENTITY ns_svg "http://www.w3.org/2000/svg">
	<!ENTITY ns_xlink "http://www.w3.org/1999/xlink">
	<!ENTITY st0 "font-size:7px;font-family:'MS-PGothic';adobe-font-script:japanese;">
	<!ENTITY st1 "font-size:6px;font-family:'ArialMT';">
	<!-- White fill  -->
	<!ENTITY st2 "fill:#FFFFFF;stroke:#000000; stroke-width:1.41;stroke-linecap:round;stroke-linejoin:round;">
	<!-- Yellow fill  -->
	<!ENTITY st3 "fill:#FFFFCC;stroke:#FFFFCC; stroke-width:0.1;stroke-linecap:round;stroke-linejoin:round;">
	<!-- Gray fill  -->
	<!ENTITY st4 "fill:#CCCCCC;stroke:#CCCCCC; stroke-width:0.1;stroke-linecap:round;stroke-linejoin:round;">
	<!-- Light-blue fill -->
	<!ENTITY st5 "fill:#CCECF4;stroke:#000000; stroke-width:1.133;stroke-linecap:round;stroke-linejoin:round;">
	<!ENTITY st6 "fill:none;stroke-linecap:butt; stroke-linejoin:round;">
	<!ENTITY st7 "fill:none;stroke:#000000;stroke-linecap:round;stroke-linejoin:round;">
	<!ENTITY st8 "enable-background:new    ;">
	<!-- Black fill -->
	<!ENTITY st9 "fill:#000000;stroke:#000000; stroke-linecap:round;stroke-linejoin:round;">
	<!-- SRS note   -->
	<!ENTITY st10 "font-size:9px;font-family:'ArialMT';">
	<!ENTITY st11 "font-size:9px;font-family:'Svg Symbol';">
	<!ENTITY st12 "font-size:6px;font-family:'Svg Symbol';">
	<!ENTITY st13 "fill:none;stroke:#ff0000;stroke-linecap:round;stroke-linejoin:round;">
	<!-- Yellow fill  -->
	<!ENTITY st14 "fill:#FFFF00;stroke:#FFFF00; stroke-width:0.1;stroke-linecap:round;stroke-linejoin:round;">
	<!ENTITY st15 "font-size:6px;font-family:'MS-PGothic';adobe-font-script:japanese;">
	<!ENTITY st16 "1.00 0.00 0.00 1.00">
	<!ENTITY st17 "0.00 -1.00 1.00 0.00">
	<!ENTITY st18 "font-size:6px;font-family:'Arial';">
	<!ENTITY st19 "font-size:9px;font-family:'Arial';">
	<!ENTITY st20 "font-size:6px;font-family:'MS-PGothic','MS PGothic';adobe-font-script:japanese;">
	<!ENTITY st21 "font-size:7px;font-family:'MS-PGothic','MS PGothic';adobe-font-script:japanese;">
	<!ATTLIST svg
		xmlns:ewd CDATA #FIXED "http://shcl.co.jp/ewd"
		xmlns:a CDATA #FIXED "http://ns.adobe.com/AdobeSVGViewerExtensions/3.0/"
		ewd:ver CDATA #IMPLIED
	>
	<!ATTLIST a
		ewd:lineID CDATA #IMPLIED
		ewd:groupID CDATA #IMPLIED
		ewd:figtype CDATA #IMPLIED
		ewd:code CDATA #IMPLIED
		ewd:figID CDATA #IMPLIED
		ewd:pinNo CDATA #IMPLIED
		ewd:comment CDATA #IMPLIED >
	<!ATTLIST g
		ewd:lineID CDATA #IMPLIED
		ewd:groupID CDATA #IMPLIED
		ewd:figtype CDATA #IMPLIED
		ewd:code CDATA #IMPLIED
		ewd:figID CDATA #IMPLIED
		ewd:pinNo CDATA #IMPLIED
		ewd:comment CDATA #IMPLIED >
	<!ATTLIST text
		ewd:textID CDATA #IMPLIED >
	<!ATTLIST title
		ewd:textID CDATA #IMPLIED >
]>
<!-- Generator: Shintec Hozumi YS   -->
<svg onload="call_execInitLoadProc_svg('system')" style="overflow:visible;  enable-background:new 0 0 1045.352 710.000" viewBox="0 0 1041.924 710.000" height="710.000" width="1041.924" xml:space="preserve" ewd:ver="2.1.2.7" xmlns="&ns_svg;" xmlns:a="http://ns.adobe.com/AdobeSVGViewerExtensions/3.0/" xmlns:ewd="http://shcl.co.jp/ewd" xmlns:xlink="&ns_xlink;">
	<script type="text/javascript" xlink:href="../../../../../system/js/ewd/fig/svgfig.js"/>
<g id="ewd_top">
	<a ewd:figtype="conn" style="cursor:pointer;" ewd:code="I12" ewd:figID="1">
		<path style="fill:#CCECF4;stroke:#000000; stroke-width:1.33; stroke-linecap:round;stroke-linejoin:round; " d=" M   101.98,    44.28  L   101.98,    86.77  L  1002.83,    86.77  L  1002.83,    44.28  L   101.98,    44.28 "/>
		<title ewd:textID="6">Power Window Regulator Master Switch Assembly</title>
	</a>
	<a ewd:figtype="conn" style="cursor:pointer;" ewd:code="I3" ewd:figID="2">
		<path style="fill:#CCECF4;stroke:#000000; stroke-width:1.33; stroke-linecap:round;stroke-linejoin:round; " d=" M   433.43,   205.75  L   348.44,   205.75  L   348.44,   273.74  L   433.43,   273.74  L   433.43,   205.75 "/>
		<title ewd:textID="2">Front Power Window Regulator Motor Assembly LH</title>
	</a>
	<a ewd:figtype="conn" style="cursor:pointer;" ewd:code="I10,K10" ewd:figID="3">
		<path style="fill:#CCECF4;stroke:#000000; stroke-width:1.33; stroke-linecap:round;stroke-linejoin:round; " d=" M   195.47,   180.26  L   195.47,   214.25  L   288.95,   214.25  L   288.95,   180.26  L   195.47,   180.26 "/>
		<title ewd:textID="5">Junction Connector</title>
	</a>
	<a ewd:figtype="rb" style="cursor:pointer;" ewd:code="FUSE41" ewd:figID="4">
		<path style="fill:#CCECF4;stroke:#000000; stroke-width:0; stroke-linecap:round;stroke-linejoin:round; " d=" M    29.75,    35.78  L    29.75,    78.27  L    55.24,    78.27  L    55.24,    35.78  L    29.75,    35.78 "/>
	</a>
	<a ewd:figtype="conn" style="cursor:pointer;" ewd:code="K15,K16" ewd:figID="5">
		<path style="fill:#CCECF4;stroke:#000000; stroke-width:1.33; stroke-linecap:round;stroke-linejoin:round; " d=" M   169.97,   265.24  L   169.97,   299.24  L   212.46,   299.24  L   212.46,   265.24  L   169.97,   265.24 "/>
		<title ewd:textID="5">Junction Connector</title>
	</a>
	<a ewd:figtype="conn" style="cursor:pointer;" ewd:code="H10,K34" ewd:figID="6">
		<path style="fill:#CCECF4;stroke:#000000; stroke-width:1.33; stroke-linecap:round;stroke-linejoin:round; " d=" M   195.47,   367.22  L   195.47,   401.22  L   237.96,   401.22  L   237.96,   367.22  L   195.47,   367.22 "/>
		<title ewd:textID="5">Junction Connector</title>
	</a>
	<a ewd:figtype="conn" style="cursor:pointer;" ewd:code="K7" ewd:figID="7">
		<path style="fill:#CCECF4;stroke:#000000; stroke-width:1.33; stroke-linecap:round;stroke-linejoin:round; " d=" M   110.48,   656.18  L   110.48,   673.17  L   127.48,   673.17  L   127.48,   656.18  L   110.48,   656.18 "/>
		<title ewd:textID="5">Junction Connector</title>
	</a>
	<a ewd:figtype="conn" style="cursor:pointer;" ewd:code="H5" ewd:figID="8">
		<path style="fill:#CCECF4;stroke:#000000; stroke-width:1.33; stroke-linecap:round;stroke-linejoin:round; " d=" M   569.40,   469.21  L   671.39,   469.21  L   671.39,   537.20  L   569.40,   537.20  L   569.40,   469.21 "/>
		<title ewd:textID="4">Front Power Window Regulator Switch Assembly RH</title>
	</a>
	<a ewd:figtype="conn" style="cursor:pointer;" ewd:code="J4" ewd:figID="9">
		<path style="fill:#CCECF4;stroke:#000000; stroke-width:1.33; stroke-linecap:round;stroke-linejoin:round; " d=" M   747.88,   469.21  L   849.86,   469.21  L   849.86,   537.20  L   747.88,   537.20  L   747.88,   469.21 "/>
		<title ewd:textID="9">Rear Power Window Regulator Switch Assembly LH</title>
	</a>
	<a ewd:figtype="conn" style="cursor:pointer;" ewd:code="J8" ewd:figID="10">
		<path style="fill:#CCECF4;stroke:#000000; stroke-width:1.33; stroke-linecap:round;stroke-linejoin:round; " d=" M   909.35,   469.21  L  1011.33,   469.21  L  1011.33,   537.20  L   909.35,   537.20  L   909.35,   469.21 "/>
		<title ewd:textID="10">Rear Power Window Regulator Switch Assembly RH</title>
	</a>
	<a ewd:figtype="conn" style="cursor:pointer;" ewd:code="J6" ewd:figID="11">
		<path style="fill:#CCECF4;stroke:#000000; stroke-width:1.33; stroke-linecap:round;stroke-linejoin:round; " d=" M  1011.33,   588.19  L   909.35,   588.19  L   909.35,   656.18  L  1011.33,   656.18  L  1011.33,   588.19 "/>
		<title ewd:textID="8">Rear Power Window Regulator Motor Assembly RH</title>
	</a>
	<a ewd:figtype="conn" style="cursor:pointer;" ewd:code="J2" ewd:figID="12">
		<path style="fill:#CCECF4;stroke:#000000; stroke-width:1.33; stroke-linecap:round;stroke-linejoin:round; " d=" M   849.86,   588.19  L   747.88,   588.19  L   747.88,   656.18  L   849.86,   656.18  L   849.86,   588.19 "/>
		<title ewd:textID="7">Rear Power Window Regulator Motor Assembly LH</title>
	</a>
	<a ewd:figtype="conn" style="cursor:pointer;" ewd:code="H2" ewd:figID="13">
		<path style="fill:#CCECF4;stroke:#000000; stroke-width:1.33; stroke-linecap:round;stroke-linejoin:round; " d=" M   671.39,   588.19  L   569.40,   588.19  L   569.40,   656.18  L   671.39,   656.18  L   671.39,   588.19 "/>
		<title ewd:textID="3">Front Power Window Regulator Motor Assembly RH</title>
	</a>
	<a ewd:figtype="fuse" style="cursor:pointer;" ewd:code="FUSE41" ewd:figID="31">
		<path style="&st7; stroke-width:0;" d=" M    29.75,    35.78  L    29.75,    78.27  L    55.24,    78.27  L    55.24,    35.78  L    29.75,    35.78 "/>
	</a>
	<a style="cursor:pointer;" ewd:lineID="1">
		<path style="stroke:#00A0C6;stroke-width: 5.10 ;&st6;" d=" M    42.49,   112.27  L    42.49,   358.73  L   178.47,   358.73  L   178.47,   308.30  "/>
	</a>
	<a style="cursor:pointer;" ewd:lineID="2">
		<path style="stroke:#000000;stroke-width: 5.10 ;&st6;" d=" M   118.98,   656.18  L   118.98,   517.93  "/>
		<path style="stroke:#FFFFFF;stroke-width: 4.53 ;&st6;" d=" M   118.98,   656.18  L   118.98,   517.93  "/>
		<path style="stroke:#000000;stroke-width: 1.13 ;&st6;" d=" M   118.98,   656.18  L   118.98,   517.93  "/>
	</a>
	<a style="cursor:pointer;" ewd:lineID="3">
		<path style="stroke:#000000;stroke-width: 5.10 ;&st6;" d=" M   118.98,    86.77  L   118.98,   503.20  "/>
		<path style="stroke:#FFFFFF;stroke-width: 4.53 ;&st6;" d=" M   118.98,    86.77  L   118.98,   503.20  "/>
		<path style="stroke:#000000;stroke-width: 1.13 ;&st6;" d=" M   118.98,    86.77  L   118.98,   503.20  "/>
	</a>
	<a style="cursor:pointer;" ewd:lineID="4">
		<path style="stroke:#00A0C6;stroke-width: 5.10 ;&st6;" d=" M   203.97,   410.28  L   203.97,   426.71  L   577.90,   426.71  L   577.90,   469.21  "/>
	</a>
	<a style="cursor:pointer;" ewd:lineID="5">
		<path style="stroke:#00A0C6;stroke-width: 5.10 ;&st6;" d=" M   203.97,   308.30  L   203.97,   358.16  "/>
	</a>
	<a style="cursor:pointer;" ewd:lineID="6">
		<path style="stroke:#00A0C6;stroke-width: 5.10 ;&st6;" d=" M   203.97,   223.31  L   203.97,   256.18  "/>
	</a>
	<a style="cursor:pointer;" ewd:lineID="7">
		<path style="stroke:#00A0C6;stroke-width: 5.10 ;&st6;" d=" M   203.97,    86.77  L   203.97,   171.19  "/>
	</a>
	<a style="cursor:pointer;" ewd:lineID="8">
		<path style="stroke:#00A0C6;stroke-width: 5.10 ;&st6;" d=" M   229.46,   358.16  L   229.46,   341.73  L   883.85,   341.73  L   883.85,   369.49  "/>
	</a>
	<a style="cursor:pointer;" ewd:lineID="9">
		<path style="stroke:#00A0C6;stroke-width: 5.10 ;&st6;" d=" M   280.45,   223.31  L   280.45,   307.73  L   722.38,   307.73  L   722.38,   369.49  "/>
	</a>
	<a style="cursor:pointer;" ewd:lineID="10">
		<path style="stroke:#FF0000;stroke-width: 5.10 ;&st6;" d=" M   373.94,    86.77  L   373.94,   205.75  "/>
	</a>
	<a style="cursor:pointer;" ewd:lineID="11">
		<path style="stroke:#00A0C6;stroke-width: 5.10 ;&st6;" d=" M   416.43,   205.75  L   416.43,    86.77  "/>
		<path style="stroke:#FFFFFF;stroke-width: 2.27 ;&st6;" d=" M   416.43,   205.75  L   416.43,    86.77  "/>
		<path style="stroke:#FF0000;stroke-width: 1.13 ;&st6;" d=" M   416.43,   205.75  L   416.43,    86.77  "/>
	</a>
	<a style="cursor:pointer;" ewd:lineID="12">
		<path style="stroke:#FF0000;stroke-width: 5.10 ;&st6;" d=" M   586.40,   588.19  L   586.40,   537.20  "/>
	</a>
	<a style="cursor:pointer;" ewd:lineID="13">
		<path style="stroke:#FF0000;stroke-width: 5.10 ;&st6;" d=" M   594.90,   384.22  L   594.90,   469.21  "/>
		<path style="stroke:#FFFFFF;stroke-width: 2.27 ;&st6;" d=" M   594.90,   384.22  L   594.90,   469.21  "/>
		<path style="stroke:#00A0C6;stroke-width: 1.13 ;&st6;" d=" M   594.90,   384.22  L   594.90,   469.21  "/>
	</a>
	<a style="cursor:pointer;" ewd:lineID="14">
		<path style="stroke:#FF0000;stroke-width: 5.10 ;&st6;" d=" M   594.90,   203.77  L   594.90,   369.21  "/>
		<path style="stroke:#FFFFFF;stroke-width: 2.27 ;&st6;" d=" M   594.90,   203.77  L   594.90,   369.21  "/>
		<path style="stroke:#00A0C6;stroke-width: 1.13 ;&st6;" d=" M   594.90,   203.77  L   594.90,   369.21  "/>
	</a>
	<a style="cursor:pointer;" ewd:lineID="15">
		<path style="stroke:#FF0000;stroke-width: 5.10 ;&st6;" d=" M   594.90,   188.75  L   594.90,    86.77  "/>
		<path style="stroke:#FFFFFF;stroke-width: 2.27 ;&st6;" d=" M   594.90,   188.75  L   594.90,    86.77  "/>
		<path style="stroke:#00A0C6;stroke-width: 1.13 ;&st6;" d=" M   594.90,   188.75  L   594.90,    86.77  "/>
	</a>
	<a style="cursor:pointer;" ewd:lineID="16">
		<path style="stroke:#008837;stroke-width: 5.10 ;&st6;" d=" M   645.89,   384.22  L   645.89,   469.21  "/>
		<path style="stroke:#FFFFFF;stroke-width: 1.13 ;&st6;" d=" M   645.89,   384.22  L   645.89,   469.21  "/>
	</a>
	<a style="cursor:pointer;" ewd:lineID="17">
		<path style="stroke:#008837;stroke-width: 5.10 ;&st6;" d=" M   645.89,   369.49  L   645.89,   204.05  "/>
		<path style="stroke:#FFFFFF;stroke-width: 1.13 ;&st6;" d=" M   645.89,   369.49  L   645.89,   204.05  "/>
	</a>
	<a style="cursor:pointer;" ewd:lineID="18">
		<path style="stroke:#008837;stroke-width: 5.10 ;&st6;" d=" M   645.89,   188.75  L   645.89,    86.77  "/>
		<path style="stroke:#FFFFFF;stroke-width: 1.13 ;&st6;" d=" M   645.89,   188.75  L   645.89,    86.77  "/>
	</a>
	<a style="cursor:pointer;" ewd:lineID="19">
		<path style="stroke:#00A0C6;stroke-width: 5.10 ;&st6;" d=" M   654.39,   537.20  L   654.39,   588.19  "/>
		<path style="stroke:#FFFFFF;stroke-width: 2.27 ;&st6;" d=" M   654.39,   537.20  L   654.39,   588.19  "/>
		<path style="stroke:#FF0000;stroke-width: 1.13 ;&st6;" d=" M   654.39,   537.20  L   654.39,   588.19  "/>
	</a>
	<a style="cursor:pointer;" ewd:lineID="20">
		<path style="stroke:#00A0C6;stroke-width: 5.10 ;&st6;" d=" M   756.37,   469.21  L   756.37,   418.22  L   722.38,   418.22  L   722.38,   384.22  "/>
	</a>
	<a style="cursor:pointer;" ewd:lineID="21">
		<path style="stroke:#FF0000;stroke-width: 5.10 ;&st6;" d=" M   764.87,   537.20  L   764.87,   588.19  "/>
	</a>
	<a style="cursor:pointer;" ewd:lineID="22">
		<path style="stroke:#FF0000;stroke-width: 5.10 ;&st6;" d=" M   773.37,   469.21  L   773.37,   384.22  "/>
		<path style="stroke:#FFFFFF;stroke-width: 2.27 ;&st6;" d=" M   773.37,   469.21  L   773.37,   384.22  "/>
		<path style="stroke:#000000;stroke-width: 1.13 ;&st6;" d=" M   773.37,   469.21  L   773.37,   384.22  "/>
	</a>
	<a style="cursor:pointer;" ewd:lineID="23">
		<path style="stroke:#FF0000;stroke-width: 5.10 ;&st6;" d=" M   773.37,   369.21  L   773.37,   203.77  "/>
		<path style="stroke:#FFFFFF;stroke-width: 2.27 ;&st6;" d=" M   773.37,   369.21  L   773.37,   203.77  "/>
		<path style="stroke:#FFE600;stroke-width: 1.13 ;&st6;" d=" M   773.37,   369.21  L   773.37,   203.77  "/>
	</a>
	<a style="cursor:pointer;" ewd:lineID="24">
		<path style="stroke:#FF0000;stroke-width: 5.10 ;&st6;" d=" M   773.37,   188.75  L   773.37,    86.77  "/>
		<path style="stroke:#FFFFFF;stroke-width: 2.27 ;&st6;" d=" M   773.37,   188.75  L   773.37,    86.77  "/>
		<path style="stroke:#FFE600;stroke-width: 1.13 ;&st6;" d=" M   773.37,   188.75  L   773.37,    86.77  "/>
	</a>
	<a style="cursor:pointer;" ewd:lineID="25">
		<path style="stroke:#008837;stroke-width: 5.10 ;&st6;" d=" M   824.36,   384.22  L   824.36,   469.21  "/>
		<path style="stroke:#FFFFFF;stroke-width: 2.27 ;&st6;" d=" M   824.36,   384.22  L   824.36,   469.21  "/>
		<path style="stroke:#000000;stroke-width: 1.13 ;&st6;" d=" M   824.36,   384.22  L   824.36,   469.21  "/>
	</a>
	<a style="cursor:pointer;" ewd:lineID="26">
		<path style="stroke:#008837;stroke-width: 5.10 ;&st6;" d=" M   824.36,   203.77  L   824.36,   369.21  "/>
		<path style="stroke:#FFFFFF;stroke-width: 2.27 ;&st6;" d=" M   824.36,   203.77  L   824.36,   369.21  "/>
		<path style="stroke:#FFE600;stroke-width: 1.13 ;&st6;" d=" M   824.36,   203.77  L   824.36,   369.21  "/>
	</a>
	<a style="cursor:pointer;" ewd:lineID="27">
		<path style="stroke:#008837;stroke-width: 5.10 ;&st6;" d=" M   824.36,    86.77  L   824.36,   188.75  "/>
		<path style="stroke:#FFFFFF;stroke-width: 2.27 ;&st6;" d=" M   824.36,    86.77  L   824.36,   188.75  "/>
		<path style="stroke:#FFE600;stroke-width: 1.13 ;&st6;" d=" M   824.36,    86.77  L   824.36,   188.75  "/>
	</a>
	<a style="cursor:pointer;" ewd:lineID="28">
		<path style="stroke:#00A0C6;stroke-width: 5.10 ;&st6;" d=" M   832.86,   588.19  L   832.86,   537.20  "/>
		<path style="stroke:#FFFFFF;stroke-width: 2.27 ;&st6;" d=" M   832.86,   588.19  L   832.86,   537.20  "/>
		<path style="stroke:#FF0000;stroke-width: 1.13 ;&st6;" d=" M   832.86,   588.19  L   832.86,   537.20  "/>
	</a>
	<a style="cursor:pointer;" ewd:lineID="29">
		<path style="stroke:#00A0C6;stroke-width: 5.10 ;&st6;" d=" M   883.85,   384.22  L   883.85,   409.72  L   917.85,   409.72  L   917.85,   469.21  "/>
	</a>
	<a style="cursor:pointer;" ewd:lineID="30">
		<path style="stroke:#FF0000;stroke-width: 5.10 ;&st6;" d=" M   926.35,   537.20  L   926.35,   588.19  "/>
	</a>
	<a style="cursor:pointer;" ewd:lineID="31">
		<path style="stroke:#FF0000;stroke-width: 5.10 ;&st6;" d=" M   934.84,   384.22  L   934.84,   469.21  "/>
		<path style="stroke:#FFFFFF;stroke-width: 2.27 ;&st6;" d=" M   934.84,   384.22  L   934.84,   469.21  "/>
		<path style="stroke:#000000;stroke-width: 1.13 ;&st6;" d=" M   934.84,   384.22  L   934.84,   469.21  "/>
	</a>
	<a style="cursor:pointer;" ewd:lineID="32">
		<path style="stroke:#FF0000;stroke-width: 5.10 ;&st6;" d=" M   934.84,   203.77  L   934.84,   369.21  "/>
		<path style="stroke:#FFFFFF;stroke-width: 2.27 ;&st6;" d=" M   934.84,   203.77  L   934.84,   369.21  "/>
		<path style="stroke:#000000;stroke-width: 1.13 ;&st6;" d=" M   934.84,   203.77  L   934.84,   369.21  "/>
	</a>
	<a style="cursor:pointer;" ewd:lineID="33">
		<path style="stroke:#FF0000;stroke-width: 5.10 ;&st6;" d=" M   934.84,    86.77  L   934.84,   188.75  "/>
		<path style="stroke:#FFFFFF;stroke-width: 2.27 ;&st6;" d=" M   934.84,    86.77  L   934.84,   188.75  "/>
		<path style="stroke:#000000;stroke-width: 1.13 ;&st6;" d=" M   934.84,    86.77  L   934.84,   188.75  "/>
	</a>
	<a style="cursor:pointer;" ewd:lineID="34">
		<path style="stroke:#008837;stroke-width: 5.10 ;&st6;" d=" M   985.84,   469.21  L   985.84,   384.22  "/>
		<path style="stroke:#FFFFFF;stroke-width: 2.27 ;&st6;" d=" M   985.84,   469.21  L   985.84,   384.22  "/>
		<path style="stroke:#000000;stroke-width: 1.13 ;&st6;" d=" M   985.84,   469.21  L   985.84,   384.22  "/>
	</a>
	<a style="cursor:pointer;" ewd:lineID="35">
		<path style="stroke:#008837;stroke-width: 5.10 ;&st6;" d=" M   985.84,   203.77  L   985.84,   369.21  "/>
		<path style="stroke:#FFFFFF;stroke-width: 2.27 ;&st6;" d=" M   985.84,   203.77  L   985.84,   369.21  "/>
		<path style="stroke:#000000;stroke-width: 1.13 ;&st6;" d=" M   985.84,   203.77  L   985.84,   369.21  "/>
	</a>
	<a style="cursor:pointer;" ewd:lineID="36">
		<path style="stroke:#008837;stroke-width: 5.10 ;&st6;" d=" M   985.84,   188.75  L   985.84,    86.77  "/>
		<path style="stroke:#FFFFFF;stroke-width: 2.27 ;&st6;" d=" M   985.84,   188.75  L   985.84,    86.77  "/>
		<path style="stroke:#000000;stroke-width: 1.13 ;&st6;" d=" M   985.84,   188.75  L   985.84,    86.77  "/>
	</a>
	<a style="cursor:pointer;" ewd:lineID="37">
		<path style="stroke:#00A0C6;stroke-width: 5.10 ;&st6;" d=" M   994.33,   588.19  L   994.33,   537.20  "/>
		<path style="stroke:#FFFFFF;stroke-width: 2.27 ;&st6;" d=" M   994.33,   588.19  L   994.33,   537.20  "/>
		<path style="stroke:#FF0000;stroke-width: 1.13 ;&st6;" d=" M   994.33,   588.19  L   994.33,   537.20  "/>
	</a>
	<g ewd:figtype="conn" ewd:figID="1" ewd:code="I12">
		<g ewd:lineID="10">
			<text style="&st18;" transform="matrix(&st16;  366.34  94.96 )">4</text>
			<text style="&st18;" transform="matrix(&st16;  371.9  83.07 )">U</text>
		</g>
		<g ewd:lineID="11">
			<text style="&st18;" transform="matrix(&st16;  408.83  94.96 )">9</text>
			<text style="&st18;" transform="matrix(&st16;  414.4  83.07 )">D</text>
		</g>
		<g ewd:lineID="15">
			<text style="&st18;" transform="matrix(&st16;  584.53  94.96 )">18</text>
			<text style="&st18;" transform="matrix(&st16;  592.87  83.07 )">U</text>
		</g>
		<g ewd:lineID="18">
			<text style="&st18;" transform="matrix(&st16;  635.52  94.96 )">15</text>
			<text style="&st18;" transform="matrix(&st16;  643.86  83.07 )">D</text>
		</g>
		<g ewd:lineID="24">
			<text style="&st18;" transform="matrix(&st16;  763.0  94.96 )">12</text>
			<text style="&st18;" transform="matrix(&st16;  771.34  83.07 )">U</text>
		</g>
		<g ewd:lineID="27">
			<text style="&st18;" transform="matrix(&st16;  813.99  94.96 )">13</text>
			<text style="&st18;" transform="matrix(&st16;  822.33  83.07 )">D</text>
		</g>
		<g ewd:lineID="3">
			<text style="&st18;" transform="matrix(&st16;  111.38  94.96 )">3</text>
			<text style="&st18;" transform="matrix(&st16;  117.09  83.07 )">E</text>
		</g>
		<g ewd:lineID="33">
			<text style="&st18;" transform="matrix(&st16;  924.47  94.96 )">10</text>
			<text style="&st18;" transform="matrix(&st16;  932.81  83.07 )">U</text>
		</g>
		<g ewd:lineID="36">
			<text style="&st18;" transform="matrix(&st16;  975.46  94.96 )">16</text>
			<text style="&st18;" transform="matrix(&st16;  983.8  83.07 )">D</text>
		</g>
		<g ewd:lineID="7">
			<text style="&st18;" transform="matrix(&st16;  196.36  94.96 )">6</text>
			<text style="&st18;" transform="matrix(&st16;  202.07  83.07 )">B</text>
		</g>
		<path style="stroke-width: 1.42 ;&st7;  " d=" M   101.98,    44.28  L   101.98,    86.77  L  1002.83,    86.77  L  1002.83,    44.28  L   101.98,    44.28  "/>
		<g ewd:figtype="title">
			<text style="&st18;" transform="matrix(&st16;  107.96  33.47 )">I12</text>
			<text style="&st18;" transform="matrix(&st16;  107.96  40.58 )" ewd:textID="6">Power Window Regulator Master Switch Assembly</text>
		</g>
	</g>
	<g ewd:figtype="conn" ewd:figID="2" ewd:code="I3">
		<path style="stroke-width: 0.85 ;&st7;  " d=" M   373.94,   251.08  L   373.94,   265.24  L   416.43,   265.24  "/>
		<path style="stroke-width: 0.85 ;&st7;  " d=" M   416.43,   265.24  L   416.43,   205.75  "/>
		<path style="stroke-width: 1.42 ;&st7;  " d=" M   433.43,   205.75  L   348.44,   205.75  L   348.44,   273.74  L   433.43,   273.74  L   433.43,   205.75  "/>
		<path style="stroke-width: 0.85 ;&st7;  " d=" M   373.94,   205.75  L   373.94,   228.41  "/>
		<path style="stroke-width: 1.42 ;&st7;   " d=" M   382.44,   239.75  C   382.44    235.05    378.63    231.25    373.94    231.25  "/>
		<path style="stroke-width: 1.42 ;&st7;   " d=" M   373.94,   231.25  C   369.24    231.25    365.44    235.05    365.44    239.75  "/>
		<path style="stroke-width: 1.42 ;&st7;   " d=" M   365.44,   239.75  C   365.44    244.44    369.24    248.24    373.94    248.24  "/>
		<path style="stroke-width: 1.42 ;&st7;   " d=" M   373.94,   248.24  C   378.63    248.24    382.44    244.44    382.44    239.75  "/>
		<path style="stroke-width: 1.42 ;&st7;  " d=" M   378.19,   228.41  L   378.19,   232.38  "/>
		<path style="stroke-width: 1.42 ;&st7;  " d=" M   369.69,   232.38  L   369.69,   228.41  "/>
		<path style="stroke-width: 1.42 ;&st7;  " d=" M   369.69,   228.41  L   378.19,   228.41  "/>
		<path style="stroke-width: 1.42 ;&st7;  " d=" M   378.19,   251.08  L   378.19,   247.11  "/>
		<path style="stroke-width: 1.42 ;&st7;  " d=" M   369.69,   247.11  L   369.69,   251.08  "/>
		<path style="stroke-width: 1.42 ;&st7;  " d=" M   369.69,   251.08  L   378.19,   251.08  "/>
		<text style="&st18;" transform="matrix(&st16;  376.77  213.94 )">U</text>
		<text style="&st18;" transform="matrix(&st16;  419.26  213.94 )">D</text>
		<text style="&st18;" transform="matrix(&st16;  371.56  241.71 )">M</text>
		<text style="&st18;" transform="matrix(&st16;  366.34  202.06 )">2</text>
		<text style="&st18;" transform="matrix(&st16;  408.83  202.06 )">1</text>
		<g ewd:figtype="title">
			<text style="&st18;" transform="matrix(&st17;  441.04  276.26 )">I3</text>
			<text style="&st18;" transform="matrix(&st17;  448.15  276.26 )" ewd:textID="2">Front Power Window <tspan x="0 " dy="6.0">Regulator Motor Assembly LH</tspan></text>
		</g>
	</g>
	<g ewd:figtype="conn" ewd:figID="3" ewd:code="I10,K10">
		<path style="stroke-width: 0.85 ;&st7;  " d=" M   202.77,   196.25  L   202.50,   196.72  L   202.41,   197.25  L   202.50,   197.79  L   202.77,   198.26  L   203.19,   198.60  L   203.69,   198.79  L   204.24,   198.79  L   204.74,   198.60  L   205.16,   198.26  L   205.43,   197.79  L   205.52,   197.25  L   205.43,   196.72  L   205.16,   196.25  L   204.74,   195.90  L   204.24,   195.72  L   203.69,   195.72  L   203.19,   195.90  L   202.77,   196.25  L   203.17,   196.96  L   203.17,   197.54  L   203.54,   197.99  L   204.11,   198.09  L   204.62,   197.80  L   204.82,   197.25  L   204.62,   196.71  L   204.11,   196.42  L   203.54,   196.52  L   203.97,   197.25  "/>
		<path style="stroke-width: 0.85 ;&st7;  " d=" M   203.97,   197.25  L   280.45,   197.25  L   280.45,   214.25  "/>
		<path style="stroke-width: 0.85 ;&st7;  " d=" M   203.97,   180.26  L   203.97,   214.25  "/>
		<path style="stroke-width: 1.13 ;&st7; stroke-dasharray:3, 3;" d=" M   195.47,   205.75  L   288.95,   205.75  "/>
		<path style="stroke-width: 1.13 ;&st7; stroke-dasharray:3, 3;" d=" M   195.47,   188.75  L   288.95,   188.75  "/>
		<path style="stroke-width: 1.42 ;&st7;  " d=" M   195.47,   180.26  L   195.47,   214.25  L   288.95,   214.25  L   288.95,   180.26  L   195.47,   180.26  "/>
		<text style="&st18;" transform="matrix(&st16;  193.09  220.75 )">1</text>
		<text style="&st18;" transform="matrix(&st16;  202.07  220.75 )">B</text>
		<path style="stroke-width: 1.42 ;&st7;   " d=" M   208.50,   218.78  C   208.50    216.28    206.47    214.25    203.97    214.25  "/>
		<path style="stroke-width: 1.42 ;&st7;   " d=" M   203.97,   214.25  C   201.46    214.25    199.43    216.28    199.43    218.78  "/>
		<path style="stroke-width: 1.42 ;&st7;   " d=" M   199.43,   218.78  C   199.43    221.29    201.46    223.31    203.97    223.31  "/>
		<path style="stroke-width: 1.42 ;&st7;   " d=" M   203.97,   223.31  C   206.47    223.31    208.50    221.29    208.50    218.78  "/>
		<text style="&st18;" transform="matrix(&st16;  193.09  177.69 )">6</text>
		<text style="&st18;" transform="matrix(&st16;  202.07  177.69 )">A</text>
		<path style="stroke-width: 1.42 ;&st7;   " d=" M   208.50,   175.72  C   208.50    173.22    206.47    171.19    203.97    171.19  "/>
		<path style="stroke-width: 1.42 ;&st7;   " d=" M   203.97,   171.19  C   201.46    171.19    199.43    173.22    199.43    175.72  "/>
		<path style="stroke-width: 1.42 ;&st7;   " d=" M   199.43,   175.72  C   199.43    178.23    201.46    180.26    203.97    180.26  "/>
		<path style="stroke-width: 1.42 ;&st7;   " d=" M   203.97,   180.26  C   206.47    180.26    208.50    178.23    208.50    175.72  "/>
		<text style="&st18;" transform="matrix(&st16;  269.58  220.75 )">2</text>
		<text style="&st18;" transform="matrix(&st16;  278.56  220.75 )">B</text>
		<path style="stroke-width: 1.42 ;&st7;   " d=" M   284.99,   218.78  C   284.99    216.28    282.96    214.25    280.45    214.25  "/>
		<path style="stroke-width: 1.42 ;&st7;   " d=" M   280.45,   214.25  C   277.95    214.25    275.92    216.28    275.92    218.78  "/>
		<path style="stroke-width: 1.42 ;&st7;   " d=" M   275.92,   218.78  C   275.92    221.29    277.95    223.31    280.45    223.31  "/>
		<path style="stroke-width: 1.42 ;&st7;   " d=" M   280.45,   223.31  C   282.96    223.31    284.99    221.29    284.99    218.78  "/>
		<g ewd:figtype="title">
			<text style="&st18;" transform="matrix(&st17;  303.67  216.77 )" ewd:textID="5">Junction <tspan x="0 " dy="6.0">Connector</tspan></text>
			<text style="&st18;" transform="matrix(&st17;  296.56  216.77 )">I10(A),K10(B)</text>
		</g>
	</g>
	<g ewd:figtype="rb" ewd:figID="4" ewd:code="FUSE41">
		<path style="stroke-width: 0.85 ;&st7;  " d=" M    42.49,    78.27  L    42.49,   103.77  "/>
		<path style="stroke-width: 0.28 ;&st9;  " d=" M    42.49,    98.87  L    39.66,    96.04  L    39.66,   100.29  L    42.49,   103.12  L    45.33,   100.29  L    45.33,    96.04  L    42.49,    98.87  "/>
		<path style="stroke-width: 1.42 ;&st7;   " d=" M    48.87,   108.02  C    48.87    105.67     46.96    103.77     44.62    103.77  "/>
		<path style="stroke-width: 1.42 ;&st7;   " d=" M    44.62,   112.27  C    46.96    112.27     48.87    110.36     48.87    108.02  "/>
		<path style="stroke-width: 1.42 ;&st7;   " d=" M    36.12,   108.02  C    36.12    110.36     38.02    112.27     40.37    112.27  "/>
		<path style="stroke-width: 1.42 ;&st7;   " d=" M    40.37,   103.77  C    38.02    103.77     36.12    105.67     36.12    108.02  "/>
		<path style="stroke-width: 1.42 ;&st7;  " d=" M    44.62,   112.27  L    40.37,   112.27  "/>
		<path style="stroke-width: 1.42 ;&st7;  " d=" M    44.62,   103.77  L    40.37,   103.77  "/>
		<text style="&st18;" transform="matrix(&st16;  36.89  86.47 )">2</text>
		<text style="&st18;" transform="matrix(&st16;  40.91  109.99 )">3</text>
		<text style="&st18;" transform="matrix(&st16;  59.8  56.17 )">30A <tspan x="0 " dy="6.0">PWR</tspan></text>
		<text style="&st18;" transform="matrix(&st16;  37.63  32.08 )">(IG)</text>
		<path style="stroke-width: 1.42 ;&st7;  " d=" M    29.75,    35.78  L    29.75,    78.27  L    55.24,    78.27  L    55.24,    35.78  L    29.75,    35.78  "/>
		<path style="stroke-width: 0.85 ;&st7;   " d=" M    43.91,    45.69  C    43.91     44.91     43.28     44.28     42.49     44.28  "/>
		<path style="stroke-width: 0.85 ;&st7;   " d=" M    42.49,    44.28  C    41.71     44.28     41.08     44.91     41.08     45.69  "/>
		<path style="stroke-width: 0.85 ;&st7;   " d=" M    41.08,    45.69  C    41.08     46.48     41.71     47.11     42.49     47.11  "/>
		<path style="stroke-width: 0.85 ;&st7;   " d=" M    42.49,    47.11  C    43.28     47.11     43.91     46.48     43.91     45.69  "/>
		<path style="stroke-width: 0.85 ;&st7;   " d=" M    43.91,    68.36  C    43.91     67.57     43.28     66.94     42.49     66.94  "/>
		<path style="stroke-width: 0.85 ;&st7;   " d=" M    42.49,    66.94  C    41.71     66.94     41.08     67.57     41.08     68.36  "/>
		<path style="stroke-width: 0.85 ;&st7;   " d=" M    41.08,    68.36  C    41.08     69.14     41.71     69.77     42.49     69.77  "/>
		<path style="stroke-width: 0.85 ;&st7;   " d=" M    42.49,    69.77  C    43.28     69.77     43.91     69.14     43.91     68.36  "/>
		<path style="stroke-width: 0.85 ;&st7;  " d=" M    42.49,    69.77  L    42.49,    78.27  "/>
		<path style="stroke-width: 1.42 ;&st7;   " d=" M    42.49,    66.94  C    45.23     65.33     46.14     61.80     44.53     59.06  "/>
		<path style="stroke-width: 1.42 ;&st7;   " d=" M    44.53,    59.06  C    44.01     58.18     43.37     57.55     42.49     57.03  "/>
		<path style="stroke-width: 1.42 ;&st7;   " d=" M    42.49,    47.11  C    39.75     48.72     38.84     52.25     40.46     54.99  "/>
		<path style="stroke-width: 1.42 ;&st7;   " d=" M    40.46,    54.99  C    40.98     55.87     41.61     56.51     42.49     57.03  "/>
	</g>
	<g ewd:figtype="conn" ewd:figID="5" ewd:code="K15,K16">
		<path style="stroke-width: 0.85 ;&st7;  " d=" M   202.77,   281.24  L   202.50,   281.71  L   202.41,   282.24  L   202.50,   282.77  L   202.77,   283.24  L   203.19,   283.59  L   203.69,   283.77  L   204.24,   283.77  L   204.74,   283.59  L   205.16,   283.24  L   205.43,   282.77  L   205.52,   282.24  L   205.43,   281.71  L   205.16,   281.24  L   204.74,   280.89  L   204.24,   280.70  L   203.69,   280.70  L   203.19,   280.89  L   202.77,   281.24  L   203.17,   281.95  L   203.17,   282.53  L   203.54,   282.97  L   204.11,   283.07  L   204.62,   282.79  L   204.82,   282.24  L   204.62,   281.69  L   204.11,   281.40  L   203.54,   281.50  L   203.97,   282.24  "/>
		<path style="stroke-width: 1.13 ;&st7; stroke-dasharray:3, 3;" d=" M   169.97,   290.74  L   212.46,   290.74  "/>
		<path style="stroke-width: 1.13 ;&st7; stroke-dasharray:3, 3;" d=" M   169.97,   273.74  L   212.46,   273.74  "/>
		<path style="stroke-width: 0.85 ;&st7;  " d=" M   203.97,   282.24  L   178.47,   282.24  L   178.47,   299.24  "/>
		<path style="stroke-width: 0.85 ;&st7;  " d=" M   203.97,   265.24  L   203.97,   299.24  "/>
		<path style="stroke-width: 1.42 ;&st7;  " d=" M   169.97,   265.24  L   169.97,   299.24  L   212.46,   299.24  L   212.46,   265.24  L   169.97,   265.24  "/>
		<text style="&st18;" transform="matrix(&st16;  167.59  305.74 )">1</text>
		<path style="stroke-width: 1.42 ;&st7;   " d=" M   183.00,   303.77  C   183.00    301.26    180.97    299.24    178.47    299.24  "/>
		<path style="stroke-width: 1.42 ;&st7;   " d=" M   178.47,   299.24  C   175.97    299.24    173.94    301.26    173.94    303.77  "/>
		<path style="stroke-width: 1.42 ;&st7;   " d=" M   173.94,   303.77  C   173.94    306.27    175.97    308.30    178.47    308.30  "/>
		<path style="stroke-width: 1.42 ;&st7;   " d=" M   178.47,   308.30  C   180.97    308.30    183.00    306.27    183.00    303.77  "/>
		<text style="&st18;" transform="matrix(&st16;  176.58  305.74 )">A</text>
		<text style="&st18;" transform="matrix(&st16;  193.09  305.74 )">2</text>
		<text style="&st18;" transform="matrix(&st16;  202.07  305.74 )">A</text>
		<path style="stroke-width: 1.42 ;&st7;   " d=" M   208.50,   303.77  C   208.50    301.26    206.47    299.24    203.97    299.24  "/>
		<path style="stroke-width: 1.42 ;&st7;   " d=" M   203.97,   299.24  C   201.46    299.24    199.43    301.26    199.43    303.77  "/>
		<path style="stroke-width: 1.42 ;&st7;   " d=" M   199.43,   303.77  C   199.43    306.27    201.46    308.30    203.97    308.30  "/>
		<path style="stroke-width: 1.42 ;&st7;   " d=" M   203.97,   308.30  C   206.47    308.30    208.50    306.27    208.50    303.77  "/>
		<text style="&st18;" transform="matrix(&st16;  193.09  262.68 )">5</text>
		<path style="stroke-width: 1.42 ;&st7;   " d=" M   208.50,   260.71  C   208.50    258.21    206.47    256.18    203.97    256.18  "/>
		<path style="stroke-width: 1.42 ;&st7;   " d=" M   203.97,   256.18  C   201.46    256.18    199.43    258.21    199.43    260.71  "/>
		<path style="stroke-width: 1.42 ;&st7;   " d=" M   199.43,   260.71  C   199.43    263.21    201.46    265.24    203.97    265.24  "/>
		<path style="stroke-width: 1.42 ;&st7;   " d=" M   203.97,   265.24  C   206.47    265.24    208.50    263.21    208.50    260.71  "/>
		<text style="&st18;" transform="matrix(&st16;  202.07  262.68 )">B</text>
		<g ewd:figtype="title">
			<text style="&st18;" transform="matrix(&st17;  227.18  301.76 )" ewd:textID="5">Junction <tspan x="0 " dy="6.0">Connector</tspan></text>
			<text style="&st18;" transform="matrix(&st17;  220.08  301.76 )">K15(A),K16(B)</text>
		</g>
	</g>
	<g ewd:figtype="conn" ewd:figID="6" ewd:code="H10,K34">
		<path style="stroke-width: 0.85 ;&st7;  " d=" M   202.77,   383.22  L   202.50,   383.69  L   202.41,   384.22  L   202.50,   384.75  L   202.77,   385.22  L   203.19,   385.57  L   203.69,   385.76  L   204.24,   385.76  L   204.74,   385.57  L   205.16,   385.22  L   205.43,   384.75  L   205.52,   384.22  L   205.43,   383.69  L   205.16,   383.22  L   204.74,   382.87  L   204.24,   382.69  L   203.69,   382.69  L   203.19,   382.87  L   202.77,   383.22  L   203.17,   383.93  L   203.17,   384.51  L   203.54,   384.96  L   204.11,   385.06  L   204.62,   384.77  L   204.82,   384.22  L   204.62,   383.67  L   204.11,   383.39  L   203.54,   383.48  L   203.97,   384.22  "/>
		<path style="stroke-width: 1.13 ;&st7; stroke-dasharray:3, 3;" d=" M   195.47,   392.72  L   237.96,   392.72  "/>
		<path style="stroke-width: 1.13 ;&st7; stroke-dasharray:3, 3;" d=" M   195.47,   375.72  L   237.96,   375.72  "/>
		<path style="stroke-width: 0.85 ;&st7;  " d=" M   203.97,   384.22  L   229.46,   384.22  L   229.46,   367.22  "/>
		<path style="stroke-width: 0.85 ;&st7;  " d=" M   203.97,   367.22  L   203.97,   401.22  "/>
		<path style="stroke-width: 1.42 ;&st7;  " d=" M   195.47,   367.22  L   195.47,   401.22  L   237.96,   401.22  L   237.96,   367.22  L   195.47,   367.22  "/>
		<text style="&st18;" transform="matrix(&st16;  193.09  407.72 )">6</text>
		<path style="stroke-width: 1.42 ;&st7;   " d=" M   208.50,   405.75  C   208.50    403.25    206.47    401.22    203.97    401.22  "/>
		<path style="stroke-width: 1.42 ;&st7;   " d=" M   203.97,   401.22  C   201.46    401.22    199.43    403.25    199.43    405.75  "/>
		<path style="stroke-width: 1.42 ;&st7;   " d=" M   199.43,   405.75  C   199.43    408.25    201.46    410.28    203.97    410.28  "/>
		<path style="stroke-width: 1.42 ;&st7;   " d=" M   203.97,   410.28  C   206.47    410.28    208.50    408.25    208.50    405.75  "/>
		<text style="&st18;" transform="matrix(&st16;  202.07  407.72 )">A</text>
		<text style="&st18;" transform="matrix(&st16;  193.09  364.66 )">1</text>
		<text style="&st18;" transform="matrix(&st16;  202.07  364.66 )">B</text>
		<path style="stroke-width: 1.42 ;&st7;   " d=" M   208.50,   362.69  C   208.50    360.19    206.47    358.16    203.97    358.16  "/>
		<path style="stroke-width: 1.42 ;&st7;   " d=" M   203.97,   358.16  C   201.46    358.16    199.43    360.19    199.43    362.69  "/>
		<path style="stroke-width: 1.42 ;&st7;   " d=" M   199.43,   362.69  C   199.43    365.19    201.46    367.22    203.97    367.22  "/>
		<path style="stroke-width: 1.42 ;&st7;   " d=" M   203.97,   367.22  C   206.47    367.22    208.50    365.19    208.50    362.69  "/>
		<text style="&st18;" transform="matrix(&st16;  218.59  364.66 )">2</text>
		<path style="stroke-width: 1.42 ;&st7;   " d=" M   233.99,   362.69  C   233.99    360.19    231.96    358.16    229.46    358.16  "/>
		<path style="stroke-width: 1.42 ;&st7;   " d=" M   229.46,   358.16  C   226.96    358.16    224.93    360.19    224.93    362.69  "/>
		<path style="stroke-width: 1.42 ;&st7;   " d=" M   224.93,   362.69  C   224.93    365.19    226.96    367.22    229.46    367.22  "/>
		<path style="stroke-width: 1.42 ;&st7;   " d=" M   229.46,   367.22  C   231.96    367.22    233.99    365.19    233.99    362.69  "/>
		<text style="&st18;" transform="matrix(&st16;  227.57  364.66 )">B</text>
		<g ewd:figtype="title">
			<text style="&st18;" transform="matrix(&st17;  252.68  403.74 )" ewd:textID="5">Junction <tspan x="0 " dy="6.0">Connector</tspan></text>
			<text style="&st18;" transform="matrix(&st17;  245.57  403.74 )">H10(A),K34(B)</text>
		</g>
	</g>
	<g ewd:figtype="conn" ewd:figID="7" ewd:code="K7">
		<path style="stroke-width: 0.85 ;&st7;  " d=" M   118.98,   656.18  L   118.98,   681.67  "/>
		<path style="stroke-width: 1.42 ;&st7;  " d=" M   110.48,   656.18  L   110.48,   673.17  L   127.48,   673.17  L   127.48,   656.18  L   110.48,   656.18  "/>
		<text style="&st18;" transform="matrix(&st16;  111.38  652.49 )">1</text>
		<g ewd:figtype="title">
			<text style="&st18;" transform="matrix(&st17;  142.2  675.7 )" ewd:textID="5">Junction <tspan x="0 " dy="6.0">Connector</tspan></text>
			<text style="&st18;" transform="matrix(&st17;  135.09  675.7 )">K7</text>
		</g>
	</g>
	<g ewd:figtype="conn" ewd:figID="8" ewd:code="H5">
		<path style="stroke-width: 0.85 ;&st7;  " d=" M   576.71,   485.20  L   576.44,   485.67  L   576.35,   486.20  L   576.44,   486.74  L   576.71,   487.21  L   577.12,   487.55  L   577.63,   487.74  L   578.18,   487.74  L   578.68,   487.55  L   579.10,   487.21  L   579.37,   486.74  L   579.46,   486.20  L   579.37,   485.67  L   579.10,   485.20  L   578.68,   484.86  L   578.18,   484.67  L   577.63,   484.67  L   577.12,   484.86  L   576.71,   485.20  L   577.10,   485.91  L   577.10,   486.50  L   577.48,   486.94  L   578.05,   487.04  L   578.55,   486.75  L   578.75,   486.20  L   578.55,   485.66  L   578.05,   485.37  L   577.48,   485.47  L   577.90,   486.20  "/>
		<path style="stroke-width: 1.42 ;&st7;  " d=" M   569.40,   469.21  L   671.39,   469.21  L   671.39,   537.20  L   569.40,   537.20  L   569.40,   469.21  "/>
		<path style="stroke-width: 0.85 ;&st7;  " d=" M   645.89,   469.21  L   645.89,   491.87  "/>
		<path style="stroke-width: 0.85 ;&st7;  " d=" M   594.90,   469.21  L   594.90,   491.87  "/>
		<path style="stroke-width: 0.85 ;&st7;  " d=" M   662.89,   491.87  L   662.89,   486.20  L   577.90,   486.20  "/>
		<path style="stroke-width: 0.85 ;&st7;   " d=" M   647.31,   493.29  C   647.31    492.50    646.67    491.87    645.89    491.87  "/>
		<path style="stroke-width: 0.85 ;&st7;   " d=" M   645.89,   491.87  C   645.11    491.87    644.48    492.50    644.48    493.29  "/>
		<path style="stroke-width: 0.85 ;&st7;   " d=" M   644.48,   493.29  C   644.48    494.07    645.11    494.70    645.89    494.70  "/>
		<path style="stroke-width: 0.85 ;&st7;   " d=" M   645.89,   494.70  C   646.67    494.70    647.31    494.07    647.31    493.29  "/>
		<path style="stroke-width: 0.85 ;&st7;   " d=" M   579.32,   493.29  C   579.32    492.50    578.69    491.87    577.90    491.87  "/>
		<path style="stroke-width: 0.85 ;&st7;   " d=" M   577.90,   491.87  C   577.12    491.87    576.49    492.50    576.49    493.29  "/>
		<path style="stroke-width: 0.85 ;&st7;   " d=" M   576.49,   493.29  C   576.49    494.07    577.12    494.70    577.90    494.70  "/>
		<path style="stroke-width: 0.85 ;&st7;   " d=" M   577.90,   494.70  C   578.69    494.70    579.32    494.07    579.32    493.29  "/>
		<path style="stroke-width: 0.85 ;&st7;   " d=" M   587.82,   510.28  C   587.82    509.50    587.18    508.87    586.40    508.87  "/>
		<path style="stroke-width: 0.85 ;&st7;   " d=" M   586.40,   508.87  C   585.62    508.87    584.99    509.50    584.99    510.28  "/>
		<path style="stroke-width: 0.85 ;&st7;   " d=" M   584.99,   510.28  C   584.99    511.07    585.62    511.70    586.40    511.70  "/>
		<path style="stroke-width: 0.85 ;&st7;   " d=" M   586.40,   511.70  C   587.18    511.70    587.82    511.07    587.82    510.28  "/>
		<path style="stroke-width: 0.85 ;&st7;   " d=" M   596.32,   493.29  C   596.32    492.50    595.68    491.87    594.90    491.87  "/>
		<path style="stroke-width: 0.85 ;&st7;   " d=" M   594.90,   491.87  C   594.12    491.87    593.48    492.50    593.48    493.29  "/>
		<path style="stroke-width: 0.85 ;&st7;   " d=" M   593.48,   493.29  C   593.48    494.07    594.12    494.70    594.90    494.70  "/>
		<path style="stroke-width: 0.85 ;&st7;   " d=" M   594.90,   494.70  C   595.68    494.70    596.32    494.07    596.32    493.29  "/>
		<path style="stroke-width: 0.85 ;&st7;  " d=" M   586.40,   537.20  L   586.40,   511.70  "/>
		<path style="stroke-width: 0.85 ;&st7;  " d=" M   654.39,   537.20  L   654.39,   511.70  "/>
		<path style="stroke-width: 0.85 ;&st7;  " d=" M   577.90,   469.21  L   577.90,   491.87  "/>
		<path style="stroke-width: 1.42 ;&st7;  " d=" M   654.39,   508.87  L   646.10,   488.89  "/>
		<path style="stroke-width: 1.42 ;&st7;  " d=" M   654.39,   508.87  L   646.10,   488.89  "/>
		<path style="stroke-width: 1.42 ;&st7;  " d=" M   586.40,   508.87  L   594.54,   488.74  "/>
		<path style="stroke-width: 0.85 ;&st7;   " d=" M   655.81,   510.28  C   655.81    509.50    655.17    508.87    654.39    508.87  "/>
		<path style="stroke-width: 0.85 ;&st7;   " d=" M   654.39,   508.87  C   653.61    508.87    652.97    509.50    652.97    510.28  "/>
		<path style="stroke-width: 0.85 ;&st7;   " d=" M   652.97,   510.28  C   652.97    511.07    653.61    511.70    654.39    511.70  "/>
		<path style="stroke-width: 0.85 ;&st7;   " d=" M   654.39,   511.70  C   655.17    511.70    655.81    511.07    655.81    510.28  "/>
		<path style="stroke-width: 0.85 ;&st7;   " d=" M   664.31,   493.29  C   664.31    492.50    663.67    491.87    662.89    491.87  "/>
		<path style="stroke-width: 0.85 ;&st7;   " d=" M   662.89,   491.87  C   662.11    491.87    661.47    492.50    661.47    493.29  "/>
		<path style="stroke-width: 0.85 ;&st7;   " d=" M   661.47,   493.29  C   661.47    494.07    662.11    494.70    662.89    494.70  "/>
		<path style="stroke-width: 0.85 ;&st7;   " d=" M   662.89,   494.70  C   663.67    494.70    664.31    494.07    664.31    493.29  "/>
		<text style="&st18;" transform="matrix(&st17;  579.87  514.72 )" ewd:textID="11">Up</text>
		<text style="&st18;" transform="matrix(&st17;  664.86  516.9 )" ewd:textID="1">Down</text>
		<text style="&st18;" transform="matrix(&st16;  589.23  533.51 )">U</text>
		<text style="&st18;" transform="matrix(&st16;  657.22  533.51 )">D</text>
		<text style="&st18;" transform="matrix(&st16;  580.74  477.4 )">B</text>
		<text style="&st18;" transform="matrix(&st16;  597.73  477.4 )">SU</text>
		<text style="&st18;" transform="matrix(&st16;  648.72  477.4 )">SD</text>
		<text style="&st18;" transform="matrix(&st16;  578.8  545.39 )">2</text>
		<text style="&st18;" transform="matrix(&st16;  587.3  465.52 )">1</text>
		<text style="&st18;" transform="matrix(&st16;  638.29  465.52 )">4</text>
		<text style="&st18;" transform="matrix(&st16;  646.79  545.39 )">5</text>
		<text style="&st18;" transform="matrix(&st16;  570.3  465.52 )">3</text>
		<g ewd:figtype="title">
			<text style="&st18;" transform="matrix(&st17;  686.11  539.72 )" ewd:textID="4">Front Power Window <tspan x="0 " dy="6.0">Regulator Switch Assembly RH</tspan></text>
			<text style="&st18;" transform="matrix(&st17;  679.0  539.72 )">H5</text>
		</g>
	</g>
	<g ewd:figtype="conn" ewd:figID="9" ewd:code="J4">
		<path style="stroke-width: 1.42 ;&st7;  " d=" M   747.87,   469.21  L   849.86,   469.21  L   849.86,   537.20  L   747.87,   537.20  L   747.87,   469.21  "/>
		<path style="stroke-width: 0.85 ;&st7;  " d=" M   824.36,   469.21  L   824.36,   491.87  "/>
		<path style="stroke-width: 0.85 ;&st7;  " d=" M   841.36,   491.87  L   841.36,   486.20  L   756.37,   486.20  "/>
		<path style="stroke-width: 0.85 ;&st7;  " d=" M   755.18,   485.20  L   754.91,   485.67  L   754.82,   486.20  L   754.91,   486.74  L   755.18,   487.21  L   755.59,   487.55  L   756.10,   487.74  L   756.65,   487.74  L   757.15,   487.55  L   757.57,   487.21  L   757.84,   486.74  L   757.93,   486.20  L   757.84,   485.67  L   757.57,   485.20  L   757.15,   484.86  L   756.65,   484.67  L   756.10,   484.67  L   755.59,   484.86  L   755.18,   485.20  L   755.57,   485.91  L   755.57,   486.50  L   755.95,   486.94  L   756.52,   487.04  L   757.02,   486.75  L   757.22,   486.20  L   757.02,   485.66  L   756.52,   485.37  L   755.95,   485.47  L   756.37,   486.20  "/>
		<path style="stroke-width: 0.85 ;&st7;   " d=" M   825.78,   493.29  C   825.78    492.50    825.14    491.87    824.36    491.87  "/>
		<path style="stroke-width: 0.85 ;&st7;   " d=" M   824.36,   491.87  C   823.58    491.87    822.95    492.50    822.95    493.29  "/>
		<path style="stroke-width: 0.85 ;&st7;   " d=" M   822.95,   493.29  C   822.95    494.07    823.58    494.70    824.36    494.70  "/>
		<path style="stroke-width: 0.85 ;&st7;   " d=" M   824.36,   494.70  C   825.14    494.70    825.78    494.07    825.78    493.29  "/>
		<path style="stroke-width: 0.85 ;&st7;   " d=" M   757.79,   493.29  C   757.79    492.50    757.16    491.87    756.37    491.87  "/>
		<path style="stroke-width: 0.85 ;&st7;   " d=" M   756.37,   491.87  C   755.59    491.87    754.96    492.50    754.96    493.29  "/>
		<path style="stroke-width: 0.85 ;&st7;   " d=" M   754.96,   493.29  C   754.96    494.07    755.59    494.70    756.37    494.70  "/>
		<path style="stroke-width: 0.85 ;&st7;   " d=" M   756.37,   494.70  C   757.16    494.70    757.79    494.07    757.79    493.29  "/>
		<path style="stroke-width: 0.85 ;&st7;   " d=" M   834.28,   510.28  C   834.28    509.50    833.64    508.87    832.86    508.87  "/>
		<path style="stroke-width: 0.85 ;&st7;   " d=" M   832.86,   508.87  C   832.08    508.87    831.44    509.50    831.44    510.28  "/>
		<path style="stroke-width: 0.85 ;&st7;   " d=" M   831.44,   510.28  C   831.44    511.07    832.08    511.70    832.86    511.70  "/>
		<path style="stroke-width: 0.85 ;&st7;   " d=" M   832.86,   511.70  C   833.64    511.70    834.28    511.07    834.28    510.28  "/>
		<path style="stroke-width: 0.85 ;&st7;   " d=" M   766.29,   510.28  C   766.29    509.50    765.65    508.87    764.87    508.87  "/>
		<path style="stroke-width: 0.85 ;&st7;   " d=" M   764.87,   508.87  C   764.09    508.87    763.46    509.50    763.46    510.28  "/>
		<path style="stroke-width: 0.85 ;&st7;   " d=" M   763.46,   510.28  C   763.46    511.07    764.09    511.70    764.87    511.70  "/>
		<path style="stroke-width: 0.85 ;&st7;   " d=" M   764.87,   511.70  C   765.65    511.70    766.29    511.07    766.29    510.28  "/>
		<path style="stroke-width: 0.85 ;&st7;   " d=" M   774.79,   493.29  C   774.79    492.50    774.15    491.87    773.37    491.87  "/>
		<path style="stroke-width: 0.85 ;&st7;   " d=" M   773.37,   491.87  C   772.59    491.87    771.95    492.50    771.95    493.29  "/>
		<path style="stroke-width: 0.85 ;&st7;   " d=" M   771.95,   493.29  C   771.95    494.07    772.59    494.70    773.37    494.70  "/>
		<path style="stroke-width: 0.85 ;&st7;   " d=" M   773.37,   494.70  C   774.15    494.70    774.79    494.07    774.79    493.29  "/>
		<path style="stroke-width: 0.85 ;&st7;   " d=" M   842.78,   493.29  C   842.78    492.50    842.14    491.87    841.36    491.87  "/>
		<path style="stroke-width: 0.85 ;&st7;   " d=" M   841.36,   491.87  C   840.58    491.87    839.94    492.50    839.94    493.29  "/>
		<path style="stroke-width: 0.85 ;&st7;   " d=" M   839.94,   493.29  C   839.94    494.07    840.58    494.70    841.36    494.70  "/>
		<path style="stroke-width: 0.85 ;&st7;   " d=" M   841.36,   494.70  C   842.14    494.70    842.78    494.07    842.78    493.29  "/>
		<path style="stroke-width: 0.85 ;&st7;  " d=" M   764.87,   537.20  L   764.87,   511.70  "/>
		<path style="stroke-width: 0.85 ;&st7;  " d=" M   832.86,   537.20  L   832.86,   511.70  "/>
		<path style="stroke-width: 0.85 ;&st7;  " d=" M   756.37,   469.21  L   756.37,   491.87  "/>
		<path style="stroke-width: 1.42 ;&st7;  " d=" M   832.86,   508.87  L   824.57,   488.89  "/>
		<path style="stroke-width: 1.42 ;&st7;  " d=" M   832.86,   508.87  L   824.57,   488.89  "/>
		<path style="stroke-width: 1.42 ;&st7;  " d=" M   764.87,   508.87  L   773.01,   488.74  "/>
		<path style="stroke-width: 0.85 ;&st7;  " d=" M   773.37,   469.21  L   773.37,   491.87  "/>
		<text style="&st18;" transform="matrix(&st17;  843.33  516.9 )" ewd:textID="1">Down</text>
		<text style="&st18;" transform="matrix(&st17;  758.34  514.72 )" ewd:textID="11">Up</text>
		<text style="&st18;" transform="matrix(&st16;  767.71  533.51 )">U</text>
		<text style="&st18;" transform="matrix(&st16;  835.69  533.51 )">D</text>
		<text style="&st18;" transform="matrix(&st16;  759.21  477.4 )">B</text>
		<text style="&st18;" transform="matrix(&st16;  776.2  477.4 )">SU</text>
		<text style="&st18;" transform="matrix(&st16;  827.2  477.4 )">SD</text>
		<text style="&st18;" transform="matrix(&st16;  748.77  465.52 )">3</text>
		<text style="&st18;" transform="matrix(&st16;  757.27  545.39 )">2</text>
		<text style="&st18;" transform="matrix(&st16;  765.77  465.52 )">1</text>
		<text style="&st18;" transform="matrix(&st16;  816.76  465.52 )">4</text>
		<text style="&st18;" transform="matrix(&st16;  825.26  545.39 )">5</text>
		<g ewd:figtype="title">
			<text style="&st18;" transform="matrix(&st17;  857.47  539.72 )">J4</text>
			<text style="&st18;" transform="matrix(&st17;  864.58  539.72 )" ewd:textID="9">Rear Power Window <tspan x="0 " dy="6.0">Regulator Switch Assembly LH</tspan></text>
		</g>
	</g>
	<g ewd:figtype="conn" ewd:figID="10" ewd:code="J8">
		<path style="stroke-width: 0.85 ;&st7;  " d=" M   917.85,   469.21  L   917.85,   491.87  "/>
		<path style="stroke-width: 1.42 ;&st7;  " d=" M   909.35,   469.21  L  1011.33,   469.21  L  1011.33,   537.20  L   909.35,   537.20  L   909.35,   469.21  "/>
		<path style="stroke-width: 0.85 ;&st7;  " d=" M   985.83,   469.21  L   985.83,   491.87  "/>
		<path style="stroke-width: 0.85 ;&st7;  " d=" M   934.84,   491.87  L   934.84,   469.21  "/>
		<path style="stroke-width: 0.85 ;&st7;  " d=" M  1002.83,   491.87  L  1002.83,   486.20  L   917.85,   486.20  "/>
		<path style="stroke-width: 0.85 ;&st7;  " d=" M   916.65,   485.20  L   916.38,   485.67  L   916.29,   486.20  L   916.38,   486.74  L   916.65,   487.21  L   917.07,   487.55  L   917.57,   487.74  L   918.12,   487.74  L   918.63,   487.55  L   919.04,   487.21  L   919.31,   486.74  L   919.40,   486.20  L   919.31,   485.67  L   919.04,   485.20  L   918.63,   484.86  L   918.12,   484.67  L   917.57,   484.67  L   917.07,   484.86  L   916.65,   485.20  L   917.05,   485.91  L   917.05,   486.50  L   917.42,   486.94  L   917.99,   487.04  L   918.50,   486.75  L   918.70,   486.20  L   918.50,   485.66  L   917.99,   485.37  L   917.42,   485.47  L   917.85,   486.20  "/>
		<path style="stroke-width: 0.85 ;&st7;   " d=" M   987.25,   493.29  C   987.25    492.50    986.62    491.87    985.84    491.87  "/>
		<path style="stroke-width: 0.85 ;&st7;   " d=" M   985.84,   491.87  C   985.05    491.87    984.42    492.50    984.42    493.29  "/>
		<path style="stroke-width: 0.85 ;&st7;   " d=" M   984.42,   493.29  C   984.42    494.07    985.05    494.70    985.84    494.70  "/>
		<path style="stroke-width: 0.85 ;&st7;   " d=" M   985.84,   494.70  C   986.62    494.70    987.25    494.07    987.25    493.29  "/>
		<path style="stroke-width: 0.85 ;&st7;   " d=" M   919.26,   493.29  C   919.26    492.50    918.63    491.87    917.85    491.87  "/>
		<path style="stroke-width: 0.85 ;&st7;   " d=" M   917.85,   491.87  C   917.06    491.87    916.43    492.50    916.43    493.29  "/>
		<path style="stroke-width: 0.85 ;&st7;   " d=" M   916.43,   493.29  C   916.43    494.07    917.06    494.70    917.85    494.70  "/>
		<path style="stroke-width: 0.85 ;&st7;   " d=" M   917.85,   494.70  C   918.63    494.70    919.26    494.07    919.26    493.29  "/>
		<path style="stroke-width: 0.85 ;&st7;   " d=" M   936.26,   493.29  C   936.26    492.50    935.63    491.87    934.84    491.87  "/>
		<path style="stroke-width: 0.85 ;&st7;   " d=" M   934.84,   491.87  C   934.06    491.87    933.43    492.50    933.43    493.29  "/>
		<path style="stroke-width: 0.85 ;&st7;   " d=" M   933.43,   493.29  C   933.43    494.07    934.06    494.70    934.84    494.70  "/>
		<path style="stroke-width: 0.85 ;&st7;   " d=" M   934.84,   494.70  C   935.63    494.70    936.26    494.07    936.26    493.29  "/>
		<path style="stroke-width: 0.85 ;&st7;   " d=" M   995.75,   510.28  C   995.75    509.50    995.12    508.87    994.33    508.87  "/>
		<path style="stroke-width: 0.85 ;&st7;   " d=" M   994.33,   508.87  C   993.55    508.87    992.92    509.50    992.92    510.28  "/>
		<path style="stroke-width: 0.85 ;&st7;   " d=" M   992.92,   510.28  C   992.92    511.07    993.55    511.70    994.33    511.70  "/>
		<path style="stroke-width: 0.85 ;&st7;   " d=" M   994.33,   511.70  C   995.12    511.70    995.75    511.07    995.75    510.28  "/>
		<path style="stroke-width: 0.85 ;&st7;   " d=" M   927.76,   510.28  C   927.76    509.50    927.13    508.87    926.35    508.87  "/>
		<path style="stroke-width: 0.85 ;&st7;   " d=" M   926.35,   508.87  C   925.56    508.87    924.93    509.50    924.93    510.28  "/>
		<path style="stroke-width: 0.85 ;&st7;   " d=" M   924.93,   510.28  C   924.93    511.07    925.56    511.70    926.35    511.70  "/>
		<path style="stroke-width: 0.85 ;&st7;   " d=" M   926.35,   511.70  C   927.13    511.70    927.76    511.07    927.76    510.28  "/>
		<path style="stroke-width: 0.85 ;&st7;   " d=" M  1004.25,   493.29  C  1004.25    492.50   1003.61    491.87   1002.83    491.87  "/>
		<path style="stroke-width: 0.85 ;&st7;   " d=" M  1002.83,   491.87  C  1002.05    491.87   1001.42    492.50   1001.42    493.29  "/>
		<path style="stroke-width: 0.85 ;&st7;   " d=" M  1001.42,   493.29  C  1001.42    494.07   1002.05    494.70   1002.83    494.70  "/>
		<path style="stroke-width: 0.85 ;&st7;   " d=" M  1002.83,   494.70  C  1003.61    494.70   1004.25    494.07   1004.25    493.29  "/>
		<path style="stroke-width: 0.85 ;&st7;  " d=" M   926.35,   537.20  L   926.35,   511.70  "/>
		<path style="stroke-width: 0.85 ;&st7;  " d=" M   994.33,   537.20  L   994.33,   511.70  "/>
		<path style="stroke-width: 1.42 ;&st7;  " d=" M   994.33,   508.87  L   986.04,   488.89  "/>
		<path style="stroke-width: 1.42 ;&st7;  " d=" M   994.33,   508.87  L   986.04,   488.89  "/>
		<path style="stroke-width: 1.42 ;&st7;  " d=" M   926.35,   508.87  L   934.49,   488.74  "/>
		<text style="&st18;" transform="matrix(&st17;  1004.8  516.9 )" ewd:textID="1">Down</text>
		<text style="&st18;" transform="matrix(&st17;  919.82  514.72 )" ewd:textID="11">Up</text>
		<text style="&st18;" transform="matrix(&st16;  929.18  533.51 )">U</text>
		<text style="&st18;" transform="matrix(&st16;  997.17  533.51 )">D</text>
		<text style="&st18;" transform="matrix(&st16;  920.68  477.4 )">B</text>
		<text style="&st18;" transform="matrix(&st16;  937.68  477.4 )">SU</text>
		<text style="&st18;" transform="matrix(&st16;  988.67  477.4 )">SD</text>
		<text style="&st18;" transform="matrix(&st16;  910.24  465.52 )">3</text>
		<text style="&st18;" transform="matrix(&st16;  918.74  545.39 )">2</text>
		<text style="&st18;" transform="matrix(&st16;  927.24  465.52 )">1</text>
		<text style="&st18;" transform="matrix(&st16;  978.23  465.52 )">4</text>
		<text style="&st18;" transform="matrix(&st16;  986.73  545.39 )">5</text>
		<g ewd:figtype="title">
			<text style="&st18;" transform="matrix(&st17;  1018.94  539.72 )">J8</text>
			<text style="&st18;" transform="matrix(&st17;  1026.05  539.72 )" ewd:textID="10">Rear Power Window <tspan x="0 " dy="6.0">Regulator Switch Assembly RH</tspan></text>
		</g>
	</g>
	<g ewd:figtype="conn" ewd:figID="11" ewd:code="J6">
		<path style="stroke-width: 1.42 ;&st7;  " d=" M  1011.33,   588.19  L   909.35,   588.19  L   909.35,   656.18  L  1011.33,   656.18  L  1011.33,   588.19  "/>
		<path style="stroke-width: 0.85 ;&st7;  " d=" M   994.33,   588.19  L   994.33,   647.68  L   926.34,   647.68  "/>
		<path style="stroke-width: 0.85 ;&st7;  " d=" M   926.34,   588.19  L   926.34,   610.85  "/>
		<path style="stroke-width: 0.85 ;&st7;  " d=" M   926.34,   647.68  L   926.34,   633.51  "/>
		<path style="stroke-width: 1.42 ;&st7;   " d=" M   934.84,   622.18  C   934.84    617.49    931.04    613.68    926.35    613.68  "/>
		<path style="stroke-width: 1.42 ;&st7;   " d=" M   926.35,   613.68  C   921.65    613.68    917.85    617.49    917.85    622.18  "/>
		<path style="stroke-width: 1.42 ;&st7;   " d=" M   917.85,   622.18  C   917.85    626.87    921.65    630.68    926.35    630.68  "/>
		<path style="stroke-width: 1.42 ;&st7;   " d=" M   926.35,   630.68  C   931.04    630.68    934.84    626.87    934.84    622.18  "/>
		<path style="stroke-width: 1.42 ;&st7;  " d=" M   922.10,   633.51  L   930.59,   633.51  "/>
		<path style="stroke-width: 1.42 ;&st7;  " d=" M   922.10,   629.55  L   922.10,   633.51  "/>
		<path style="stroke-width: 1.42 ;&st7;  " d=" M   930.59,   633.51  L   930.59,   629.55  "/>
		<path style="stroke-width: 1.42 ;&st7;  " d=" M   922.10,   610.85  L   930.59,   610.85  "/>
		<path style="stroke-width: 1.42 ;&st7;  " d=" M   922.10,   614.82  L   922.10,   610.85  "/>
		<path style="stroke-width: 1.42 ;&st7;  " d=" M   930.59,   610.85  L   930.59,   614.82  "/>
		<text style="&st18;" transform="matrix(&st16;  923.97  624.15 )">M</text>
		<text style="&st18;" transform="matrix(&st16;  929.18  596.38 )">U</text>
		<text style="&st18;" transform="matrix(&st16;  997.17  596.38 )">D</text>
		<text style="&st18;" transform="matrix(&st16;  918.74  584.5 )">2</text>
		<text style="&st18;" transform="matrix(&st16;  986.73  584.5 )">1</text>
		<g ewd:figtype="title">
			<text style="&st18;" transform="matrix(&st16;  906.82  663.79 )">J6</text>
			<text style="&st18;" transform="matrix(&st16;  906.82  670.89 )" ewd:textID="8">Rear Power Window <tspan x="0 " dy="6.0">Regulator Motor Assembly RH</tspan></text>
		</g>
	</g>
	<g ewd:figtype="conn" ewd:figID="12" ewd:code="J2">
		<path style="stroke-width: 0.85 ;&st7;  " d=" M   764.87,   647.68  L   764.87,   633.51  "/>
		<path style="stroke-width: 0.85 ;&st7;  " d=" M   764.87,   588.19  L   764.87,   610.85  "/>
		<path style="stroke-width: 0.85 ;&st7;  " d=" M   832.86,   588.19  L   832.86,   647.68  L   764.87,   647.68  "/>
		<path style="stroke-width: 1.42 ;&st7;  " d=" M   849.86,   588.19  L   747.87,   588.19  L   747.87,   656.18  L   849.86,   656.18  L   849.86,   588.19  "/>
		<path style="stroke-width: 1.42 ;&st7;   " d=" M   773.37,   622.18  C   773.37    617.49    769.57    613.68    764.87    613.68  "/>
		<path style="stroke-width: 1.42 ;&st7;   " d=" M   764.87,   613.68  C   760.18    613.68    756.37    617.49    756.37    622.18  "/>
		<path style="stroke-width: 1.42 ;&st7;   " d=" M   756.37,   622.18  C   756.37    626.87    760.18    630.68    764.87    630.68  "/>
		<path style="stroke-width: 1.42 ;&st7;   " d=" M   764.87,   630.68  C   769.57    630.68    773.37    626.87    773.37    622.18  "/>
		<path style="stroke-width: 1.42 ;&st7;  " d=" M   769.12,   610.85  L   769.12,   614.82  "/>
		<path style="stroke-width: 1.42 ;&st7;  " d=" M   760.62,   614.82  L   760.62,   610.85  "/>
		<path style="stroke-width: 1.42 ;&st7;  " d=" M   760.62,   610.85  L   769.12,   610.85  "/>
		<path style="stroke-width: 1.42 ;&st7;  " d=" M   769.12,   633.51  L   769.12,   629.55  "/>
		<path style="stroke-width: 1.42 ;&st7;  " d=" M   760.62,   629.55  L   760.62,   633.51  "/>
		<path style="stroke-width: 1.42 ;&st7;  " d=" M   760.62,   633.51  L   769.12,   633.51  "/>
		<text style="&st18;" transform="matrix(&st16;  762.5  624.15 )">M</text>
		<text style="&st18;" transform="matrix(&st16;  767.71  596.38 )">U</text>
		<text style="&st18;" transform="matrix(&st16;  835.69  596.38 )">D</text>
		<text style="&st18;" transform="matrix(&st16;  757.27  584.5 )">2</text>
		<text style="&st18;" transform="matrix(&st16;  825.26  584.5 )">1</text>
		<g ewd:figtype="title">
			<text style="&st18;" transform="matrix(&st16;  745.35  663.79 )">J2</text>
			<text style="&st18;" transform="matrix(&st16;  745.35  670.89 )" ewd:textID="7">Rear Power Window <tspan x="0 " dy="6.0">Regulator Motor Assembly LH</tspan></text>
		</g>
	</g>
	<g ewd:figtype="conn" ewd:figID="13" ewd:code="H2">
		<path style="stroke-width: 0.85 ;&st7;  " d=" M   654.39,   588.19  L   654.39,   647.68  L   586.40,   647.68  "/>
		<path style="stroke-width: 1.42 ;&st7;  " d=" M   671.39,   588.19  L   569.40,   588.19  L   569.40,   656.18  L   671.39,   656.18  L   671.39,   588.19  "/>
		<path style="stroke-width: 0.85 ;&st7;  " d=" M   586.40,   588.19  L   586.40,   610.85  "/>
		<path style="stroke-width: 0.85 ;&st7;  " d=" M   586.40,   647.68  L   586.40,   633.51  "/>
		<path style="stroke-width: 1.42 ;&st7;   " d=" M   594.90,   622.18  C   594.90    617.49    591.10    613.68    586.40    613.68  "/>
		<path style="stroke-width: 1.42 ;&st7;   " d=" M   586.40,   613.68  C   581.71    613.68    577.90    617.49    577.90    622.18  "/>
		<path style="stroke-width: 1.42 ;&st7;   " d=" M   577.90,   622.18  C   577.90    626.87    581.71    630.68    586.40    630.68  "/>
		<path style="stroke-width: 1.42 ;&st7;   " d=" M   586.40,   630.68  C   591.10    630.68    594.90    626.87    594.90    622.18  "/>
		<path style="stroke-width: 1.42 ;&st7;  " d=" M   590.65,   610.85  L   590.65,   614.82  "/>
		<path style="stroke-width: 1.42 ;&st7;  " d=" M   582.15,   614.82  L   582.15,   610.85  "/>
		<path style="stroke-width: 1.42 ;&st7;  " d=" M   582.15,   610.85  L   590.65,   610.85  "/>
		<path style="stroke-width: 1.42 ;&st7;  " d=" M   590.65,   633.51  L   590.65,   629.55  "/>
		<path style="stroke-width: 1.42 ;&st7;  " d=" M   582.15,   629.55  L   582.15,   633.51  "/>
		<path style="stroke-width: 1.42 ;&st7;  " d=" M   582.15,   633.51  L   590.65,   633.51  "/>
		<text style="&st18;" transform="matrix(&st16;  584.03  624.15 )">M</text>
		<text style="&st18;" transform="matrix(&st16;  589.23  596.38 )">U</text>
		<text style="&st18;" transform="matrix(&st16;  657.22  596.38 )">D</text>
		<text style="&st18;" transform="matrix(&st16;  578.8  584.5 )">2</text>
		<text style="&st18;" transform="matrix(&st16;  646.79  584.5 )">1</text>
		<g ewd:figtype="title">
			<text style="&st18;" transform="matrix(&st16;  566.88  670.89 )" ewd:textID="3">Front Power Window <tspan x="0 " dy="6.0">Regulator Motor Assembly RH</tspan></text>
			<text style="&st18;" transform="matrix(&st16;  566.88  663.79 )">H2</text>
		</g>
	</g>
	<g ewd:figtype="w2w" ewd:figID="15" ewd:code="IK3">
		<path style="stroke-width: 1.42 ;&st7;  " d=" M   123.23,   517.37  L   118.98,   513.12  L   114.73,   517.37  "/>
		<path style="stroke-width: 1.42 ;&st7;  " d=" M   123.23,   520.77  L   118.98,   516.52  L   114.73,   520.77  "/>
		<text style="&st18;" transform="matrix(&st16;  104.17  509.42 )">4</text>
	</g>
	<g ewd:figtype="w2w" ewd:figID="16" ewd:code="HK1">
		<path style="stroke-width: 1.42 ;&st7;  " d=" M   590.65,   366.66  L   594.90,   370.91  L   599.15,   366.66  "/>
		<path style="stroke-width: 1.42 ;&st7;  " d=" M   599.15,   370.06  L   594.90,   374.31  L   590.65,   370.06  "/>
		<text style="&st18;" transform="matrix(&st16;  580.09  381.94 )">3</text>
	</g>
	<g ewd:figtype="w2w" ewd:figID="17" ewd:code="IK3">
		<path style="stroke-width: 1.42 ;&st7;  " d=" M   599.15,   206.32  L   594.90,   202.07  L   590.65,   206.32  "/>
		<path style="stroke-width: 1.42 ;&st7;  " d=" M   599.15,   202.92  L   594.90,   198.67  L   590.65,   202.92  "/>
		<text style="&st18;" transform="matrix(&st16;  576.13  194.97 )">10</text>
	</g>
	<g ewd:figtype="w2w" ewd:figID="18" ewd:code="HK1">
		<path style="stroke-width: 1.42 ;&st7;  " d=" M   650.14,   370.06  L   645.89,   374.31  L   641.64,   370.06  "/>
		<path style="stroke-width: 1.42 ;&st7;  " d=" M   641.64,   366.66  L   645.89,   370.91  L   650.14,   366.66  "/>
		<text style="&st18;" transform="matrix(&st16;  631.08  381.94 )">4</text>
	</g>
	<g ewd:figtype="w2w" ewd:figID="19" ewd:code="IK3">
		<path style="stroke-width: 1.42 ;&st7;  " d=" M   650.14,   206.32  L   645.89,   202.07  L   641.64,   206.32  "/>
		<path style="stroke-width: 1.42 ;&st7;  " d=" M   650.14,   202.92  L   645.89,   198.67  L   641.64,   202.92  "/>
		<text style="&st18;" transform="matrix(&st16;  631.08  194.97 )">3</text>
	</g>
	<g ewd:figtype="w2w" ewd:figID="20" ewd:code="JK1">
		<path style="stroke-width: 1.42 ;&st7;  " d=" M   718.13,   366.66  L   722.38,   370.91  L   726.63,   366.66  "/>
		<path style="stroke-width: 1.42 ;&st7;  " d=" M   726.63,   370.06  L   722.38,   374.31  L   718.13,   370.06  "/>
		<text style="&st18;" transform="matrix(&st16;  707.57  381.94 )">8</text>
	</g>
	<g ewd:figtype="w2w" ewd:figID="21" ewd:code="JK1">
		<text style="&st18;" transform="matrix(&st16;  758.56  381.94 )">6</text>
		<path style="stroke-width: 1.42 ;&st7;  " d=" M   769.12,   366.66  L   773.37,   370.91  L   777.62,   366.66  "/>
		<path style="stroke-width: 1.42 ;&st7;  " d=" M   777.62,   370.06  L   773.37,   374.31  L   769.12,   370.06  "/>
	</g>
	<g ewd:figtype="w2w" ewd:figID="22" ewd:code="IK3">
		<path style="stroke-width: 1.42 ;&st7;  " d=" M   777.62,   206.32  L   773.37,   202.07  L   769.12,   206.32  "/>
		<path style="stroke-width: 1.42 ;&st7;  " d=" M   777.62,   202.92  L   773.37,   198.67  L   769.12,   202.92  "/>
		<text style="&st18;" transform="matrix(&st16;  758.56  194.97 )">2</text>
	</g>
	<g ewd:figtype="w2w" ewd:figID="23" ewd:code="JK1">
		<text style="&st18;" transform="matrix(&st16;  809.55  381.94 )">7</text>
		<path style="stroke-width: 1.42 ;&st7;  " d=" M   820.11,   366.66  L   824.36,   370.91  L   828.61,   366.66  "/>
		<path style="stroke-width: 1.42 ;&st7;  " d=" M   828.61,   370.06  L   824.36,   374.31  L   820.11,   370.06  "/>
	</g>
	<g ewd:figtype="w2w" ewd:figID="24" ewd:code="IK3">
		<path style="stroke-width: 1.42 ;&st7;  " d=" M   828.61,   206.32  L   824.36,   202.07  L   820.11,   206.32  "/>
		<path style="stroke-width: 1.42 ;&st7;  " d=" M   828.61,   202.92  L   824.36,   198.67  L   820.11,   202.92  "/>
		<text style="&st18;" transform="matrix(&st16;  809.55  194.97 )">1</text>
	</g>
	<g ewd:figtype="w2w" ewd:figID="25" ewd:code="JK2">
		<path style="stroke-width: 1.42 ;&st7;  " d=" M   879.60,   366.66  L   883.85,   370.91  L   888.10,   366.66  "/>
		<path style="stroke-width: 1.42 ;&st7;  " d=" M   888.10,   370.06  L   883.85,   374.31  L   879.60,   370.06  "/>
		<text style="&st18;" transform="matrix(&st16;  869.04  381.94 )">8</text>
	</g>
	<g ewd:figtype="w2w" ewd:figID="26" ewd:code="JK2">
		<text style="&st18;" transform="matrix(&st16;  920.03  381.94 )">6</text>
		<path style="stroke-width: 1.42 ;&st7;  " d=" M   930.59,   366.66  L   934.84,   370.91  L   939.09,   366.66  "/>
		<path style="stroke-width: 1.42 ;&st7;  " d=" M   939.09,   370.06  L   934.84,   374.31  L   930.59,   370.06  "/>
	</g>
	<g ewd:figtype="w2w" ewd:figID="27" ewd:code="IK3">
		<text style="&st18;" transform="matrix(&st16;  920.03  194.97 )">6</text>
		<path style="stroke-width: 1.42 ;&st7;  " d=" M   939.09,   206.32  L   934.84,   202.07  L   930.59,   206.32  "/>
		<path style="stroke-width: 1.42 ;&st7;  " d=" M   939.09,   202.92  L   934.84,   198.67  L   930.59,   202.92  "/>
	</g>
	<g ewd:figtype="w2w" ewd:figID="28" ewd:code="JK2">
		<text style="&st18;" transform="matrix(&st16;  971.02  381.94 )">7</text>
		<path style="stroke-width: 1.42 ;&st7;  " d=" M   981.59,   366.66  L   985.83,   370.91  L   990.08,   366.66  "/>
		<path style="stroke-width: 1.42 ;&st7;  " d=" M   990.08,   370.06  L   985.83,   374.31  L   981.59,   370.06  "/>
	</g>
	<g ewd:figtype="w2w" ewd:figID="29" ewd:code="IK3">
		<text style="&st18;" transform="matrix(&st16;  971.02  194.97 )">5</text>
		<path style="stroke-width: 1.42 ;&st7;  " d=" M   990.08,   206.32  L   985.83,   202.07  L   981.59,   206.32  "/>
		<path style="stroke-width: 1.42 ;&st7;  " d=" M   990.08,   202.92  L   985.83,   198.67  L   981.59,   202.92  "/>
	</g>
	<g ewd:figtype="gp" ewd:figID="30" ewd:code="K1">
		<path style="stroke-width: 0.85 ;&st7;  " d=" M   116.15,   707.17  L   121.81,   707.17  "/>
		<path style="stroke-width: 0.85 ;&st7;  " d=" M   117.56,   710.00  L   120.40,   710.00  "/>
		<path style="stroke-width: 0.85 ;&st7;  " d=" M   110.48,   701.50  L   127.48,   701.50  "/>
		<path style="stroke-width: 0.85 ;&st7;  " d=" M   118.98,   697.25  L   118.98,   701.50  "/>
		<path style="stroke-width: 0.85 ;&st7;  " d=" M   114.73,   704.33  L   123.23,   704.33  "/>
	</g>
	<path style="stroke-width: 1.42 ;&st7;  " d=" M   586.40,   375.72  L   594.90,   375.72  "/>
	<text style="&st18;" transform="matrix(&st16;  668.86  33.47 )">I12</text>
	<path style="stroke-width: 1.42 ;&st7;  " d=" M   654.39,   197.25  L   645.89,   197.25  "/>
	<path style="stroke-width: 1.42 ;&st7;  " d=" M   603.40,   197.25  L   594.90,   197.25  "/>
	<path style="stroke-width: 1.42 ;&st7;  " d=" M   713.88,   375.72  L   722.38,   375.72  "/>
	<path style="stroke-width: 1.42 ;&st7;  " d=" M   875.35,   375.72  L   883.85,   375.72  "/>
	<path style="stroke-width: 1.42 ;&st7;  " d=" M   127.48,   511.70  L   118.98,   511.70  "/>
	<path style="stroke-width: 1.42 ;&st7;  " d=" M   637.39,   375.72  L   645.89,   375.72  "/>
	<path style="stroke-width: 1.42 ;&st7;  " d=" M   781.87,   197.25  L   773.37,   197.25  "/>
	<path style="stroke-width: 1.42 ;&st7;  " d=" M   832.86,   197.25  L   824.36,   197.25  "/>
	<path style="stroke-width: 1.42 ;&st7;  " d=" M   943.34,   197.25  L   934.84,   197.25  "/>
	<path style="stroke-width: 1.42 ;&st7;  " d=" M   994.33,   197.25  L   985.84,   197.25  "/>
	<path style="stroke-width: 1.42 ;&st7;  " d=" M   764.87,   375.72  L   773.37,   375.72  "/>
	<path style="stroke-width: 1.42 ;&st7;  " d=" M   815.86,   375.72  L   824.36,   375.72  "/>
	<path style="stroke-width: 1.42 ;&st7;  " d=" M   926.35,   375.72  L   934.84,   375.72  "/>
	<path style="stroke-width: 1.42 ;&st7;  " d=" M   977.34,   375.72  L   985.84,   375.72  "/>
	<text style="&st18;" transform="matrix(&st17;  115.28  560.38 )">W-B</text>
	<text style="&st18;" transform="matrix(&st17;  115.28  160.95 )">W-B</text>
	<text style="&st18;" transform="matrix(&st17;  200.27  156.34 )">L</text>
	<text style="&st18;" transform="matrix(&st17;  200.27  326.31 )">L</text>
	<text style="&st18;" transform="matrix(&st17;  174.77  326.31 )">L</text>
	<text style="&st18;" transform="matrix(&st17;  200.27  241.33 )">L</text>
	<text style="&st18;" transform="matrix(&st17;  982.14  253.95 )">G-B</text>
	<text style="&st18;" transform="matrix(&st17;  931.15  253.78 )">R-B</text>
	<text style="&st18;" transform="matrix(&st17;  820.67  253.95 )">G-Y</text>
	<text style="&st18;" transform="matrix(&st17;  769.68  253.78 )">R-Y</text>
	<text style="&st18;" transform="matrix(&st17;  982.14  160.47 )">G-B</text>
	<text style="&st18;" transform="matrix(&st17;  931.15  160.3 )">R-B</text>
	<text style="&st18;" transform="matrix(&st17;  820.67  160.47 )">G-Y</text>
	<text style="&st18;" transform="matrix(&st17;  769.68  160.3 )">R-Y</text>
	<text style="&st18;" transform="matrix(&st16;  737.79  414.52 )">L</text>
	<text style="&st18;" transform="matrix(&st16;  899.27  406.02 )">L</text>
	<text style="&st18;" transform="matrix(&st17;  990.64  567.92 )">L-R</text>
	<text style="&st18;" transform="matrix(&st17;  922.65  564.73 )">R</text>
	<text style="&st18;" transform="matrix(&st17;  829.17  567.92 )">L-R</text>
	<text style="&st18;" transform="matrix(&st17;  761.18  564.73 )">R</text>
	<text style="&st18;" transform="matrix(&st17;  769.68  423.75 )">R-B</text>
	<text style="&st18;" transform="matrix(&st17;  820.67  423.92 )">G-B</text>
	<text style="&st18;" transform="matrix(&st17;  931.15  423.75 )">R-B</text>
	<text style="&st18;" transform="matrix(&st17;  982.14  423.92 )">G-B</text>
	<text style="&st18;" transform="matrix(&st17;  412.73  159.99 )">L-R</text>
	<text style="&st18;" transform="matrix(&st17;  591.21  159.99 )">R-L</text>
	<text style="&st18;" transform="matrix(&st17;  642.2  161.26 )">G-W</text>
	<text style="&st18;" transform="matrix(&st17;  591.21  253.47 )">R-L</text>
	<text style="&st18;" transform="matrix(&st17;  642.2  254.74 )">G-W</text>
	<text style="&st18;" transform="matrix(&st17;  591.21  414.94 )">R-L</text>
	<text style="&st18;" transform="matrix(&st17;  642.2  416.22 )">G-W</text>
	<text style="&st18;" transform="matrix(&st17;  582.71  564.73 )">R</text>
	<text style="&st18;" transform="matrix(&st17;  650.7  567.92 )">L-R</text>
	<text style="&st18;" transform="matrix(&st16;  261.87  423.02 )">L</text>
	<text style="&st18;" transform="matrix(&st16;  261.87  338.03 )">L</text>
	<text style="&st18;" transform="matrix(&st17;  276.76  258.32 )">L</text>
	<text style="&st18;" transform="matrix(&st17;  38.8  139.34 )">L</text>
	<text style="&st18;" transform="matrix(&st16;  668.86  40.58 )" ewd:textID="6">Power Window Regulator Master Switch Assembly</text>
	<text style="&st18;" transform="matrix(&st16;  491.34  304.04 )">L</text>
	<text style="&st18;" transform="matrix(&st16;  491.34  338.03 )">L</text>
	<text style="&st18;" transform="matrix(&st16;  491.34  423.02 )">L</text>
	<text style="&st18;" transform="matrix(&st16;  542.33  423.02 )">L</text>
	<text style="&st18;" transform="matrix(&st16;  542.33  338.03 )">L</text>
	<text style="&st18;" transform="matrix(&st16;  542.33  304.04 )">L</text>
	<text style="&st18;" transform="matrix(&st17;  370.24  156.79 )">R</text>
	<a ewd:figtype="w2w" style="cursor:pointer;" ewd:pinNo="4" ewd:code="IK3" ewd:figID="15">
		<path style="&st2;" d=" M   127.48,   503.20  L   110.48,   503.20  L   110.48,   511.70  L   127.48,   511.70  L   127.48,   503.20 "/>
		<text style="&st8;" transform="matrix(&st16;  114.21  509.57 )"><tspan x="0" style="&st18;" y="0">IK3</tspan></text>
	</a>
	<a ewd:figtype="w2w" style="cursor:pointer;" ewd:pinNo="3" ewd:code="HK1" ewd:figID="16">
		<path style="&st2;" d=" M   603.40,   375.72  L   586.40,   375.72  L   586.40,   384.22  L   603.40,   384.22  L   603.40,   375.72 "/>
		<text style="&st8;" transform="matrix(&st16;  588.74  382.09 )"><tspan x="0" style="&st18;" y="0">HK1</tspan></text>
	</a>
	<a ewd:figtype="w2w" style="cursor:pointer;" ewd:pinNo="10" ewd:code="IK3" ewd:figID="17">
		<path style="&st2;" d=" M   603.40,   188.75  L   586.40,   188.75  L   586.40,   197.25  L   603.40,   197.25  L   603.40,   188.75 "/>
		<text style="&st8;" transform="matrix(&st16;  590.13  195.12 )"><tspan x="0" style="&st18;" y="0">IK3</tspan></text>
	</a>
	<a ewd:figtype="w2w" style="cursor:pointer;" ewd:pinNo="4" ewd:code="HK1" ewd:figID="18">
		<path style="&st2;" d=" M   654.39,   375.72  L   637.39,   375.72  L   637.39,   384.22  L   654.39,   384.22  L   654.39,   375.72 "/>
		<text style="&st8;" transform="matrix(&st16;  639.73  382.09 )"><tspan x="0" style="&st18;" y="0">HK1</tspan></text>
	</a>
	<a ewd:figtype="w2w" style="cursor:pointer;" ewd:pinNo="3" ewd:code="IK3" ewd:figID="19">
		<path style="&st2;" d=" M   654.39,   188.75  L   637.39,   188.75  L   637.39,   197.25  L   654.39,   197.25  L   654.39,   188.75 "/>
		<text style="&st8;" transform="matrix(&st16;  641.12  195.12 )"><tspan x="0" style="&st18;" y="0">IK3</tspan></text>
	</a>
	<a ewd:figtype="w2w" style="cursor:pointer;" ewd:pinNo="8" ewd:code="JK1" ewd:figID="20">
		<path style="&st2;" d=" M   730.88,   375.72  L   713.88,   375.72  L   713.88,   384.22  L   730.88,   384.22  L   730.88,   375.72 "/>
		<text style="&st8;" transform="matrix(&st16;  716.91  382.09 )"><tspan x="0" style="&st18;" y="0">JK1</tspan></text>
	</a>
	<a ewd:figtype="w2w" style="cursor:pointer;" ewd:pinNo="6" ewd:code="JK1" ewd:figID="21">
		<path style="&st2;" d=" M   781.87,   375.72  L   764.87,   375.72  L   764.87,   384.22  L   781.87,   384.22  L   781.87,   375.72 "/>
		<text style="&st8;" transform="matrix(&st16;  767.9  382.09 )"><tspan x="0" style="&st18;" y="0">JK1</tspan></text>
	</a>
	<a ewd:figtype="w2w" style="cursor:pointer;" ewd:pinNo="2" ewd:code="IK3" ewd:figID="22">
		<path style="&st2;" d=" M   781.87,   188.75  L   764.87,   188.75  L   764.87,   197.25  L   781.87,   197.25  L   781.87,   188.75 "/>
		<text style="&st8;" transform="matrix(&st16;  768.6  195.12 )"><tspan x="0" style="&st18;" y="0">IK3</tspan></text>
	</a>
	<a ewd:figtype="w2w" style="cursor:pointer;" ewd:pinNo="7" ewd:code="JK1" ewd:figID="23">
		<path style="&st2;" d=" M   832.86,   375.72  L   815.86,   375.72  L   815.86,   384.22  L   832.86,   384.22  L   832.86,   375.72 "/>
		<text style="&st8;" transform="matrix(&st16;  818.89  382.09 )"><tspan x="0" style="&st18;" y="0">JK1</tspan></text>
	</a>
	<a ewd:figtype="w2w" style="cursor:pointer;" ewd:pinNo="1" ewd:code="IK3" ewd:figID="24">
		<path style="&st2;" d=" M   832.86,   188.75  L   815.86,   188.75  L   815.86,   197.25  L   832.86,   197.25  L   832.86,   188.75 "/>
		<text style="&st8;" transform="matrix(&st16;  819.59  195.12 )"><tspan x="0" style="&st18;" y="0">IK3</tspan></text>
	</a>
	<a ewd:figtype="w2w" style="cursor:pointer;" ewd:pinNo="8" ewd:code="JK2" ewd:figID="25">
		<path style="&st2;" d=" M   892.35,   375.72  L   875.35,   375.72  L   875.35,   384.22  L   892.35,   384.22  L   892.35,   375.72 "/>
		<text style="&st8;" transform="matrix(&st16;  878.38  382.09 )"><tspan x="0" style="&st18;" y="0">JK2</tspan></text>
	</a>
	<a ewd:figtype="w2w" style="cursor:pointer;" ewd:pinNo="6" ewd:code="JK2" ewd:figID="26">
		<path style="&st2;" d=" M   943.34,   375.72  L   926.35,   375.72  L   926.35,   384.22  L   943.34,   384.22  L   943.34,   375.72 "/>
		<text style="&st8;" transform="matrix(&st16;  929.38  382.09 )"><tspan x="0" style="&st18;" y="0">JK2</tspan></text>
	</a>
	<a ewd:figtype="w2w" style="cursor:pointer;" ewd:pinNo="6" ewd:code="IK3" ewd:figID="27">
		<path style="&st2;" d=" M   943.34,   188.75  L   926.35,   188.75  L   926.35,   197.25  L   943.34,   197.25  L   943.34,   188.75 "/>
		<text style="&st8;" transform="matrix(&st16;  930.07  195.12 )"><tspan x="0" style="&st18;" y="0">IK3</tspan></text>
	</a>
	<a ewd:figtype="w2w" style="cursor:pointer;" ewd:pinNo="7" ewd:code="JK2" ewd:figID="28">
		<path style="&st2;" d=" M   994.33,   375.72  L   977.34,   375.72  L   977.34,   384.22  L   994.33,   384.22  L   994.33,   375.72 "/>
		<text style="&st8;" transform="matrix(&st16;  980.37  382.09 )"><tspan x="0" style="&st18;" y="0">JK2</tspan></text>
	</a>
	<a ewd:figtype="w2w" style="cursor:pointer;" ewd:pinNo="5" ewd:code="IK3" ewd:figID="29">
		<path style="&st2;" d=" M   994.33,   188.75  L   977.34,   188.75  L   977.34,   197.25  L   994.33,   197.25  L   994.33,   188.75 "/>
		<text style="&st8;" transform="matrix(&st16;  981.06  195.12 )"><tspan x="0" style="&st18;" y="0">IK3</tspan></text>
	</a>
	<a ewd:figtype="gp" style="cursor:pointer;" ewd:code="K1" ewd:figID="30">
		<path style="&st2;" d=" M   108.36,   681.67  L   129.60,   681.67  L   118.98,   697.25  L   108.36,   681.67 "/>
		<text style="&st8;" transform="matrix(&st16;  115.09  689.46 )"><tspan x="0" style="&st18;" y="0">K1</tspan></text>
	</a>
</g>
</svg>