﻿<?xml version="1.0" encoding="utf-8"?>
<!DOCTYPE svg PUBLIC "-//W3C//DTD SVG 1.0//EN" "http://www.w3.org/TR/2001/REC-SVG-20010904/DTD/svg10.dtd"[
	<!ENTITY ns_flows "http://ns.adobe.com/Flows/1.0/">
	<!ENTITY ns_svg "http://www.w3.org/2000/svg">
	<!ENTITY ns_xlink "http://www.w3.org/1999/xlink">
	<!ENTITY st0 "font-size:7px;font-family:'MS-PGothic';adobe-font-script:japanese;">
	<!ENTITY st1 "font-size:6px;font-family:'ArialMT';">
	<!-- White fill  -->
	<!ENTITY st2 "fill:#FFFFFF;stroke:#000000; stroke-width:1.41;stroke-linecap:round;stroke-linejoin:round;">
	<!-- Yellow fill  -->
	<!ENTITY st3 "fill:#FFFFCC;stroke:#FFFFCC; stroke-width:0.1;stroke-linecap:round;stroke-linejoin:round;">
	<!-- Gray fill  -->
	<!ENTITY st4 "fill:#CCCCCC;stroke:#CCCCCC; stroke-width:0.1;stroke-linecap:round;stroke-linejoin:round;">
	<!-- Light-blue fill -->
	<!ENTITY st5 "fill:#CCECF4;stroke:#000000; stroke-width:1.133;stroke-linecap:round;stroke-linejoin:round;">
	<!ENTITY st6 "fill:none;stroke-linecap:butt; stroke-linejoin:round;">
	<!ENTITY st7 "fill:none;stroke:#000000;stroke-linecap:round;stroke-linejoin:round;">
	<!ENTITY st8 "enable-background:new    ;">
	<!-- Black fill -->
	<!ENTITY st9 "fill:#000000;stroke:#000000; stroke-linecap:round;stroke-linejoin:round;">
	<!-- SRS note   -->
	<!ENTITY st10 "font-size:9px;font-family:'ArialMT';">
	<!ENTITY st11 "font-size:9px;font-family:'Svg Symbol';">
	<!ENTITY st12 "font-size:6px;font-family:'Svg Symbol';">
	<!ENTITY st13 "fill:none;stroke:#ff0000;stroke-linecap:round;stroke-linejoin:round;">
	<!-- Yellow fill  -->
	<!ENTITY st14 "fill:#FFFF00;stroke:#FFFF00; stroke-width:0.1;stroke-linecap:round;stroke-linejoin:round;">
	<!ENTITY st15 "font-size:6px;font-family:'MS-PGothic';adobe-font-script:japanese;">
	<!ENTITY st16 "1.00 0.00 0.00 1.00">
	<!ENTITY st17 "0.00 -1.00 1.00 0.00">
	<!ENTITY st18 "font-size:6px;font-family:'Arial';">
	<!ENTITY st19 "font-size:9px;font-family:'Arial';">
	<!ENTITY st20 "font-size:6px;font-family:'MS-PGothic','MS PGothic';adobe-font-script:japanese;">
	<!ENTITY st21 "font-size:7px;font-family:'MS-PGothic','MS PGothic';adobe-font-script:japanese;">
	<!ATTLIST svg
		xmlns:ewd CDATA #FIXED "http://shcl.co.jp/ewd"
		xmlns:a CDATA #FIXED "http://ns.adobe.com/AdobeSVGViewerExtensions/3.0/"
		ewd:ver CDATA #IMPLIED
	>
	<!ATTLIST a
		ewd:lineID CDATA #IMPLIED
		ewd:groupID CDATA #IMPLIED
		ewd:figtype CDATA #IMPLIED
		ewd:code CDATA #IMPLIED
		ewd:figID CDATA #IMPLIED
		ewd:pinNo CDATA #IMPLIED
		ewd:comment CDATA #IMPLIED >
	<!ATTLIST g
		ewd:lineID CDATA #IMPLIED
		ewd:groupID CDATA #IMPLIED
		ewd:figtype CDATA #IMPLIED
		ewd:code CDATA #IMPLIED
		ewd:figID CDATA #IMPLIED
		ewd:pinNo CDATA #IMPLIED
		ewd:comment CDATA #IMPLIED >
	<!ATTLIST text
		ewd:textID CDATA #IMPLIED >
	<!ATTLIST title
		ewd:textID CDATA #IMPLIED >
]>
<!-- Generator: Shintec Hozumi YS   -->
<svg onload="call_execInitLoadProc_svg('system')" style="overflow:visible;  enable-background:new 0 0 3561.613 710.000" viewBox="0 0 3569.414 710.000" height="710.000" width="3569.414" xml:space="preserve" ewd:ver="2.1.2.7" xmlns="&ns_svg;" xmlns:a="http://ns.adobe.com/AdobeSVGViewerExtensions/3.0/" xmlns:ewd="http://shcl.co.jp/ewd" xmlns:xlink="&ns_xlink;">
<text style="&st18;" transform="matrix(&st16;  1009.13  142.56 )">G</text><text style="&st18;" transform="matrix(&st16;  1060.12  142.56 )">G</text><text style="&st18;" transform="matrix(&st17;  1245.6  416.22 )">W-G</text><text style="&st18;" transform="matrix(&st17;  1256.93  414.66 )">(*4)</text><text style="&st18;" transform="matrix(&st17;  1339.08  522.09 )">B</text><text style="&st18;" transform="matrix(&st17;  1350.41  525.14 )">(*5)</text><text style="&st18;" transform="matrix(&st17;  1101.12  488.1 )">B</text><text style="&st18;" transform="matrix(&st17;  1112.45  491.15 )">(*4)</text><text style="&st18;" transform="matrix(&st17;  1135.11  573.08 )">B</text><text style="&st18;" transform="matrix(&st17;  1146.45  576.13 )">(*5)</text><text style="&st18;" transform="matrix(&st17;  1101.12  602.87 )">W-B</text><text style="&st18;" transform="matrix(&st16;  1319.28  584.49 )">W-G</text><text style="&st18;" transform="matrix(&st16;  1320.83  595.82 )">(*5)</text><text style="&st18;" transform="matrix(&st17;  1245.6  122.8 )">R</text><text style="&st18;" transform="matrix(&st17;  1316.42  414.66 )">(*5)</text><text style="&st18;" transform="matrix(&st17;  1305.09  416.22 )">W-G</text><text style="&st18;" transform="matrix(&st17;  1296.59  126.47 )">B-O</text><text style="&st18;" transform="matrix(&st17;  1220.1  88.8 )">R</text><text style="&st18;" transform="matrix(&st16;  1060.12  168.06 )">G</text><text style="&st18;" transform="matrix(&st16;  1009.13  168.06 )">G</text><text style="&st18;" transform="matrix(&st17;  1398.57  403.11 )">Y</text><g ewd:figtype="rb" ewd:figID="20" ewd:code="FUSE2"><path style="stroke-width: 0.28 ;&st9;  " d=" M  1181.30,    90.37  L  1178.47,    87.54  L  1178.47,    91.79  L  1181.30,    94.62  L  1184.13,    91.79  L  1184.13,    87.54  L  1181.30,    90.37  " /><path style="stroke-width: 1.42 ;&st7;   " d=" M  1179.18,    95.27  C  1176.83     95.27   1174.93     97.17   1174.93     99.52  " /><path style="stroke-width: 1.42 ;&st7;   " d=" M  1174.93,    99.52  C  1174.93    101.87   1176.83    103.77   1179.18    103.77  " /><path style="stroke-width: 1.42 ;&st7;   " d=" M  1183.43,   103.77  C  1185.77    103.77   1187.68    101.87   1187.68     99.52  " /><path style="stroke-width: 1.42 ;&st7;   " d=" M  1187.68,    99.52  C  1187.68     97.17   1185.77     95.27   1183.43     95.27  " /><path style="stroke-width: 1.42 ;&st7;  " d=" M  1183.43,    95.27  L  1179.18,    95.27  " /><path style="stroke-width: 1.42 ;&st7;  " d=" M  1183.43,   103.77  L  1179.18,   103.77  " /><path style="stroke-width: 0.85 ;&st7;  " d=" M  1181.30,    69.77  L  1181.30,    95.27  " /><text style="&st18;" transform="matrix(&st16;  1173.96  32.08 )">(BAT)</text><text style="&st18;" transform="matrix(&st16;  1175.7  86.47 )">2</text><text style="&st18;" transform="matrix(&st16;  1179.72  101.49 )">1</text><text style="&st18;" transform="matrix(&st16;  1198.61  56.17 )">7.5A <tspan x="0 " dy="6.0">DOME</tspan></text><path style="stroke-width: 1.42 ;&st7;  " d=" M  1168.55,    35.78  L  1168.55,    78.27  L  1194.05,    78.27  L  1194.05,    35.78  L  1168.55,    35.78  " /><path style="stroke-width: 1.42 ;&st7;   " d=" M  1181.30,    47.11  C  1178.56     48.72   1177.65     52.25   1179.27     54.99  " /><path style="stroke-width: 1.42 ;&st7;   " d=" M  1179.27,    54.99  C  1179.79     55.87   1180.42     56.51   1181.30     57.03  " /><path style="stroke-width: 1.42 ;&st7;   " d=" M  1181.30,    66.94  C  1184.04     65.33   1184.95     61.80   1183.34     59.06  " /><path style="stroke-width: 1.42 ;&st7;   " d=" M  1183.34,    59.06  C  1182.82     58.18   1182.18     57.55   1181.30     57.03  " /><path style="stroke-width: 0.85 ;&st7;   " d=" M  1182.72,    45.69  C  1182.72     44.91   1182.08     44.28   1181.30     44.28  " /><path style="stroke-width: 0.85 ;&st7;   " d=" M  1181.30,    44.28  C  1180.52     44.28   1179.89     44.91   1179.89     45.69  " /><path style="stroke-width: 0.85 ;&st7;   " d=" M  1179.89,    45.69  C  1179.89     46.48   1180.52     47.11   1181.30     47.11  " /><path style="stroke-width: 0.85 ;&st7;   " d=" M  1181.30,    47.11  C  1182.08     47.11   1182.72     46.48   1182.72     45.69  " /><path style="stroke-width: 0.85 ;&st7;   " d=" M  1182.72,    68.36  C  1182.72     67.57   1182.08     66.94   1181.30     66.94  " /><path style="stroke-width: 0.85 ;&st7;   " d=" M  1181.30,    66.94  C  1180.52     66.94   1179.89     67.57   1179.89     68.36  " /><path style="stroke-width: 0.85 ;&st7;   " d=" M  1179.89,    68.36  C  1179.89     69.14   1180.52     69.77   1181.30     69.77  " /><path style="stroke-width: 0.85 ;&st7;   " d=" M  1181.30,    69.77  C  1182.08     69.77   1182.72     69.14   1182.72     68.36  " /></g><g ewd:figtype="conn" ewd:figID="21" ewd:code="G31"><path style="stroke-width: 0.85 ;&st7;  " d=" M  1223.80,   503.20  L  1223.80,   486.20  L  1189.80,   486.20  " /><path style="stroke-width: 0.85 ;&st7;  " d=" M  1224.41,   505.90  L  1224.62,   509.72  L  1227.26,   508.45  L  1224.41,   505.90  L  1225.05,   507.23  L  1225.14,   508.84  L  1226.25,   508.31  L  1225.05,   507.23  L  1225.37,   507.90  L  1225.40,   508.41  L  1225.75,   508.24  L  1225.37,   507.90  " /><path style="stroke-width: 1.42 ;&st7;  " d=" M  1224.41,   505.90  L  1238.76,   535.92  " /><path style="stroke-width: 0.85 ;&st7;  " d=" M  1188.61,   553.19  L  1188.34,   553.66  L  1188.24,   554.19  L  1188.34,   554.73  L  1188.61,   555.20  L  1189.02,   555.54  L  1189.53,   555.73  L  1190.07,   555.73  L  1190.58,   555.54  L  1190.99,   555.20  L  1191.27,   554.73  L  1191.36,   554.19  L  1191.27,   553.66  L  1190.99,   553.19  L  1190.58,   552.84  L  1190.07,   552.66  L  1189.53,   552.66  L  1189.02,   552.84  L  1188.61,   553.19  L  1189.00,   553.90  L  1189.00,   554.48  L  1189.38,   554.93  L  1189.95,   555.03  L  1190.45,   554.74  L  1190.65,   554.19  L  1190.45,   553.65  L  1189.95,   553.36  L  1189.38,   553.46  L  1189.80,   554.19  " /><path style="stroke-width: 0.85 ;&st7;  " d=" M  1188.61,   519.20  L  1188.34,   519.67  L  1188.24,   520.20  L  1188.34,   520.73  L  1188.61,   521.20  L  1189.02,   521.55  L  1189.53,   521.73  L  1190.07,   521.73  L  1190.58,   521.55  L  1190.99,   521.20  L  1191.27,   520.73  L  1191.36,   520.20  L  1191.27,   519.67  L  1190.99,   519.20  L  1190.58,   518.85  L  1190.07,   518.66  L  1189.53,   518.66  L  1189.02,   518.85  L  1188.61,   519.20  L  1189.00,   519.91  L  1189.00,   520.49  L  1189.38,   520.94  L  1189.95,   521.03  L  1190.45,   520.75  L  1190.65,   520.20  L  1190.45,   519.65  L  1189.95,   519.36  L  1189.38,   519.46  L  1189.80,   520.20  " /><path style="stroke-width: 0.85 ;&st7;  " d=" M  1188.61,   485.20  L  1188.34,   485.67  L  1188.24,   486.20  L  1188.34,   486.74  L  1188.61,   487.21  L  1189.02,   487.55  L  1189.53,   487.74  L  1190.07,   487.74  L  1190.58,   487.55  L  1190.99,   487.21  L  1191.27,   486.74  L  1191.36,   486.20  L  1191.27,   485.67  L  1190.99,   485.20  L  1190.58,   484.86  L  1190.07,   484.67  L  1189.53,   484.67  L  1189.02,   484.86  L  1188.61,   485.20  L  1189.00,   485.91  L  1189.00,   486.50  L  1189.38,   486.94  L  1189.95,   487.04  L  1190.45,   486.75  L  1190.65,   486.20  L  1190.45,   485.66  L  1189.95,   485.37  L  1189.38,   485.47  L  1189.80,   486.20  " /><path style="stroke-width: 0.85 ;&st7;  " d=" M  1249.29,   469.21  L  1249.29,   537.20  " /><path style="stroke-width: 1.42 ;&st7;  " d=" M  1172.80,   596.69  L  1266.29,   596.69  L  1266.29,   469.21  L  1172.80,   469.21  L  1172.80,   596.69  " /><path style="stroke-width: 0.85 ;&st7;  " d=" M  1223.80,   571.19  L  1223.80,   588.19  L  1189.80,   588.19  " /><path style="stroke-width: 0.85 ;&st7;  " d=" M  1189.80,   588.19  L  1189.80,   579.69  L  1186.97,   578.27  L  1192.63,   575.44  L  1186.97,   572.61  L  1192.63,   569.77  L  1186.97,   566.94  L  1192.63,   564.11  L  1189.80,   562.69  L  1189.80,   554.19  " /><path style="stroke-width: 0.85 ;&st7;  " d=" M  1206.80,   520.20  L  1189.80,   520.20  " /><path style="stroke-width: 0.85 ;&st7;  " d=" M  1206.80,   554.19  L  1189.80,   554.19  " /><path style="stroke-width: 0.85 ;&st7;  " d=" M  1189.80,   554.19  L  1189.80,   545.69  L  1186.97,   544.28  L  1192.63,   541.44  L  1186.97,   538.61  L  1192.63,   535.78  L  1186.97,   532.95  L  1192.63,   530.11  L  1189.80,   528.70  L  1189.80,   520.20  " /><path style="stroke-width: 0.85 ;&st7;  " d=" M  1189.80,   520.20  L  1189.80,   511.70  L  1186.97,   510.28  L  1192.63,   507.45  L  1186.97,   504.62  L  1192.63,   501.78  L  1186.97,   498.95  L  1192.63,   496.12  L  1189.80,   494.70  L  1189.80,   469.21  " /><path style="stroke-width: 0.85 ;&st7;   " d=" M  1225.21,   504.62  C  1225.21    503.84   1224.58    503.20   1223.80    503.20  " /><path style="stroke-width: 0.85 ;&st7;   " d=" M  1223.80,   503.20  C  1223.01    503.20   1222.38    503.84   1222.38    504.62  " /><path style="stroke-width: 0.85 ;&st7;   " d=" M  1222.38,   504.62  C  1222.38    505.40   1223.01    506.03   1223.80    506.03  " /><path style="stroke-width: 0.85 ;&st7;   " d=" M  1223.80,   506.03  C  1224.58    506.03   1225.21    505.40   1225.21    504.62  " /><path style="stroke-width: 0.85 ;&st7;   " d=" M  1209.63,   554.19  C  1209.63    553.41   1209.00    552.78   1208.21    552.78  " /><path style="stroke-width: 0.85 ;&st7;   " d=" M  1208.21,   552.78  C  1207.43    552.78   1206.80    553.41   1206.80    554.19  " /><path style="stroke-width: 0.85 ;&st7;   " d=" M  1206.80,   554.19  C  1206.80    554.97   1207.43    555.61   1208.21    555.61  " /><path style="stroke-width: 0.85 ;&st7;   " d=" M  1208.21,   555.61  C  1209.00    555.61   1209.63    554.97   1209.63    554.19  " /><path style="stroke-width: 0.85 ;&st7;   " d=" M  1240.79,   537.20  C  1240.79    536.41   1240.16    535.78   1239.38    535.78  " /><path style="stroke-width: 0.85 ;&st7;   " d=" M  1239.38,   535.78  C  1238.59    535.78   1237.96    536.41   1237.96    537.20  " /><path style="stroke-width: 0.85 ;&st7;   " d=" M  1237.96,   537.20  C  1237.96    537.98   1238.59    538.61   1239.38    538.61  " /><path style="stroke-width: 0.85 ;&st7;   " d=" M  1239.38,   538.61  C  1240.16    538.61   1240.79    537.98   1240.79    537.20  " /><path style="stroke-width: 0.85 ;&st7;   " d=" M  1225.21,   569.77  C  1225.21    568.99   1224.58    568.36   1223.80    568.36  " /><path style="stroke-width: 0.85 ;&st7;   " d=" M  1223.80,   568.36  C  1223.01    568.36   1222.38    568.99   1222.38    569.77  " /><path style="stroke-width: 0.85 ;&st7;   " d=" M  1222.38,   569.77  C  1222.38    570.56   1223.01    571.19   1223.80    571.19  " /><path style="stroke-width: 0.85 ;&st7;   " d=" M  1223.80,   571.19  C  1224.58    571.19   1225.21    570.56   1225.21    569.77  " /><path style="stroke-width: 0.85 ;&st7;   " d=" M  1209.63,   520.20  C  1209.63    519.42   1209.00    518.78   1208.21    518.78  " /><path style="stroke-width: 0.85 ;&st7;   " d=" M  1208.21,   518.78  C  1207.43    518.78   1206.80    519.42   1206.80    520.20  " /><path style="stroke-width: 0.85 ;&st7;   " d=" M  1206.80,   520.20  C  1206.80    520.98   1207.43    521.61   1208.21    521.61  " /><path style="stroke-width: 0.85 ;&st7;   " d=" M  1208.21,   521.61  C  1209.00    521.61   1209.63    520.98   1209.63    520.20  " /><path style="stroke-width: 0.85 ;&st7;  " d=" M  1249.29,   537.20  L  1240.79,   537.20  " /><text style="&st18;" transform="matrix(&st16;  1192.63  477.4 )">E</text><text style="&st18;" transform="matrix(&st16;  1252.12  477.4 )">T</text><text style="&st18;" transform="matrix(&st16;  1178.92  466.64 )">2</text><text style="&st18;" transform="matrix(&st16;  1187.91  466.64 )">A</text><path style="stroke-width: 1.42 ;&st7;   " d=" M  1194.33,   464.67  C  1194.33    462.17   1192.30    460.14   1189.80    460.14  " /><path style="stroke-width: 1.42 ;&st7;   " d=" M  1189.80,   460.14  C  1187.30    460.14   1185.27    462.17   1185.27    464.67  " /><path style="stroke-width: 1.42 ;&st7;   " d=" M  1185.27,   464.67  C  1185.27    467.18   1187.30    469.21   1189.80    469.21  " /><path style="stroke-width: 1.42 ;&st7;   " d=" M  1189.80,   469.21  C  1192.30    469.21   1194.33    467.18   1194.33    464.67  " /><text style="&st18;" transform="matrix(&st16;  1238.41  466.64 )">1</text><text style="&st18;" transform="matrix(&st16;  1247.4  466.64 )">A</text><path style="stroke-width: 1.42 ;&st7;   " d=" M  1253.82,   464.67  C  1253.82    462.17   1251.79    460.14   1249.29    460.14  " /><path style="stroke-width: 1.42 ;&st7;   " d=" M  1249.29,   460.14  C  1246.79    460.14   1244.76    462.17   1244.76    464.67  " /><path style="stroke-width: 1.42 ;&st7;   " d=" M  1244.76,   464.67  C  1244.76    467.18   1246.79    469.21   1249.29    469.21  " /><path style="stroke-width: 1.42 ;&st7;   " d=" M  1249.29,   469.21  C  1251.79    469.21   1253.82    467.18   1253.82    464.67  " /><g ewd:figtype="title"><text style="&st18;" transform="matrix(&st16;  1170.28  611.4 )" ewd:textID="39">Light Control Rheostat</text><text style="&st18;" transform="matrix(&st16;  1170.28  604.3 )">G31(A)</text></g></g><g ewd:figtype="conn" ewd:figID="22" ewd:code="G45"><path style="stroke-width: 0.85 ;&st7;  " d=" M  1104.81,   545.69  L  1104.81,   562.69  " /><path style="stroke-width: 1.42 ;&st7;  " d=" M  1096.32,   545.69  L  1113.31,   545.69  L  1113.31,   562.69  L  1096.32,   562.69  L  1096.32,   545.69  " /><text style="&st18;" transform="matrix(&st16;  1093.94  569.19 )">6</text><path style="stroke-width: 1.42 ;&st7;   " d=" M  1109.35,   567.22  C  1109.35    564.72   1107.32    562.69   1104.82    562.69  " /><path style="stroke-width: 1.42 ;&st7;   " d=" M  1104.82,   562.69  C  1102.31    562.69   1100.28    564.72   1100.28    567.22  " /><path style="stroke-width: 1.42 ;&st7;   " d=" M  1100.28,   567.22  C  1100.28    569.73   1102.31    571.76   1104.82    571.76  " /><path style="stroke-width: 1.42 ;&st7;   " d=" M  1104.82,   571.76  C  1107.32    571.76   1109.35    569.73   1109.35    567.22  " /><text style="&st18;" transform="matrix(&st16;  1102.92  569.19 )">B</text><text style="&st18;" transform="matrix(&st16;  1093.94  543.13 )">2</text><path style="stroke-width: 1.42 ;&st7;   " d=" M  1109.35,   541.16  C  1109.35    538.66   1107.32    536.63   1104.82    536.63  " /><path style="stroke-width: 1.42 ;&st7;   " d=" M  1104.82,   536.63  C  1102.31    536.63   1100.28    538.66   1100.28    541.16  " /><path style="stroke-width: 1.42 ;&st7;   " d=" M  1100.28,   541.16  C  1100.28    543.66   1102.31    545.69   1104.82    545.69  " /><path style="stroke-width: 1.42 ;&st7;   " d=" M  1104.82,   545.69  C  1107.32    545.69   1109.35    543.66   1109.35    541.16  " /><text style="&st18;" transform="matrix(&st16;  1102.92  543.13 )">B</text><g ewd:figtype="title"><text style="&st18;" transform="matrix(&st17;  1086.67  565.22 )" ewd:textID="36">Junction <tspan x="0 " dy="6.0">Connector</tspan></text><text style="&st18;" transform="matrix(&st17;  1079.57  565.22 )">G45(B)</text></g></g><g ewd:figtype="conn" ewd:figID="23" ewd:code="G31,G33"><path style="stroke-width: 1.42 ;&st7;  " d=" M  1300.28,   554.19  L  1351.27,   554.19  " /><path style="stroke-width: 1.42 ;&st7;  " d=" M  1300.28,   545.69  L  1300.28,   562.69  L  1351.27,   562.69  L  1351.27,   545.69  L  1300.28,   545.69  " /><text style="&st18;" transform="matrix(&st16;  1297.9  569.19 )">1</text><path style="stroke-width: 1.42 ;&st7;   " d=" M  1313.31,   567.22  C  1313.31    564.72   1311.28    562.69   1308.78    562.69  " /><path style="stroke-width: 1.42 ;&st7;   " d=" M  1308.78,   562.69  C  1306.28    562.69   1304.25    564.72   1304.25    567.22  " /><path style="stroke-width: 1.42 ;&st7;   " d=" M  1304.25,   567.22  C  1304.25    569.73   1306.28    571.76   1308.78    571.76  " /><path style="stroke-width: 1.42 ;&st7;   " d=" M  1308.78,   571.76  C  1311.28    571.76   1313.31    569.73   1313.31    567.22  " /><text style="&st18;" transform="matrix(&st16;  1306.89  569.19 )">B</text><text style="&st18;" transform="matrix(&st16;  1331.9  569.19 )">2</text><text style="&st18;" transform="matrix(&st16;  1340.88  569.19 )">B</text><path style="stroke-width: 1.42 ;&st7;   " d=" M  1347.31,   567.22  C  1347.31    564.72   1345.28    562.69   1342.78    562.69  " /><path style="stroke-width: 1.42 ;&st7;   " d=" M  1342.78,   562.69  C  1340.27    562.69   1338.24    564.72   1338.24    567.22  " /><path style="stroke-width: 1.42 ;&st7;   " d=" M  1338.24,   567.22  C  1338.24    569.73   1340.27    571.76   1342.78    571.76  " /><path style="stroke-width: 1.42 ;&st7;   " d=" M  1342.78,   571.76  C  1345.28    571.76   1347.31    569.73   1347.31    567.22  " /><text style="&st18;" transform="matrix(&st16;  1297.9  543.13 )">1</text><path style="stroke-width: 1.42 ;&st7;   " d=" M  1313.31,   541.16  C  1313.31    538.66   1311.28    536.63   1308.78    536.63  " /><path style="stroke-width: 1.42 ;&st7;   " d=" M  1308.78,   536.63  C  1306.28    536.63   1304.25    538.66   1304.25    541.16  " /><path style="stroke-width: 1.42 ;&st7;   " d=" M  1304.25,   541.16  C  1304.25    543.66   1306.28    545.69   1308.78    545.69  " /><path style="stroke-width: 1.42 ;&st7;   " d=" M  1308.78,   545.69  C  1311.28    545.69   1313.31    543.66   1313.31    541.16  " /><text style="&st18;" transform="matrix(&st16;  1306.89  543.13 )">A</text><text style="&st18;" transform="matrix(&st16;  1331.9  543.13 )">2</text><path style="stroke-width: 1.42 ;&st7;   " d=" M  1347.31,   541.16  C  1347.31    538.66   1345.28    536.63   1342.78    536.63  " /><path style="stroke-width: 1.42 ;&st7;   " d=" M  1342.78,   536.63  C  1340.27    536.63   1338.24    538.66   1338.24    541.16  " /><path style="stroke-width: 1.42 ;&st7;   " d=" M  1338.24,   541.16  C  1338.24    543.66   1340.27    545.69   1342.78    545.69  " /><path style="stroke-width: 1.42 ;&st7;   " d=" M  1342.78,   545.69  C  1345.28    545.69   1347.31    543.66   1347.31    541.16  " /><text style="&st18;" transform="matrix(&st16;  1340.88  543.13 )">A</text><g ewd:figtype="title"><text style="&st18;" transform="matrix(&st17;  1358.89  565.22 )">G31(A)</text><text style="&st18;" transform="matrix(&st17;  1380.16  565.22 )" ewd:textID="49">Short Connector <tspan x="0 " dy="6.0">(Light Control Rheostat)</tspan></text><text style="&st18;" transform="matrix(&st17;  1373.05  565.22 )">G33(B)</text><text style="&st18;" transform="matrix(&st17;  1365.99  565.22 )" ewd:textID="39">Light Control Rheostat</text></g></g><g ewd:code="G19" ewd:figID="33" ewd:comment="15,14" ewd:figtype="conn"><path style="stroke-width: 0.85 ;&st7;  " d=" M  1249.29,   316.23  L  1249.29,   205.75  " /><path style="stroke-width: 0.85 ;&st7;  " d=" M  1248.10,   221.75  L  1247.83,   222.22  L  1247.73,   222.75  L  1247.83,   223.28  L  1248.10,   223.75  L  1248.51,   224.10  L  1249.02,   224.28  L  1249.56,   224.28  L  1250.07,   224.10  L  1250.48,   223.75  L  1250.76,   223.28  L  1250.85,   222.75  L  1250.76,   222.22  L  1250.48,   221.75  L  1250.07,   221.40  L  1249.56,   221.21  L  1249.02,   221.21  L  1248.51,   221.40  L  1248.10,   221.75  L  1248.49,   222.46  L  1248.49,   223.04  L  1248.87,   223.48  L  1249.44,   223.58  L  1249.94,   223.30  L  1250.14,   222.75  L  1249.94,   222.20  L  1249.44,   221.91  L  1248.87,   222.01  L  1249.29,   222.75  " /><path style="stroke-width: 0.85 ;&st7;  " d=" M  1359.77,   316.23  L  1359.77,   248.24  " /><path style="stroke-width: 0.85 ;&st7;  " d=" M  1402.27,   248.24  L  1300.28,   248.24  " /><path style="stroke-width: 0.28 ;&st9;  " d=" M  1300.28,   239.75  L  1294.62,   231.25  L  1305.95,   231.25  L  1300.28,   239.75  " /><path style="stroke-width: 0.85 ;&st7;  " d=" M  1299.09,   247.24  L  1298.82,   247.71  L  1298.72,   248.24  L  1298.82,   248.78  L  1299.09,   249.25  L  1299.50,   249.59  L  1300.01,   249.78  L  1300.55,   249.78  L  1301.06,   249.59  L  1301.47,   249.25  L  1301.75,   248.78  L  1301.84,   248.24  L  1301.75,   247.71  L  1301.47,   247.24  L  1301.06,   246.90  L  1300.55,   246.71  L  1300.01,   246.71  L  1299.50,   246.90  L  1299.09,   247.24  L  1299.48,   247.95  L  1299.48,   248.54  L  1299.86,   248.98  L  1300.43,   249.08  L  1300.93,   248.79  L  1301.13,   248.24  L  1300.93,   247.70  L  1300.43,   247.41  L  1299.86,   247.51  L  1300.28,   248.24  " /><path style="stroke-width: 0.85 ;&st7;  " d=" M  1358.58,   247.24  L  1358.31,   247.71  L  1358.21,   248.24  L  1358.31,   248.78  L  1358.58,   249.25  L  1358.99,   249.59  L  1359.50,   249.78  L  1360.04,   249.78  L  1360.55,   249.59  L  1360.96,   249.25  L  1361.24,   248.78  L  1361.33,   248.24  L  1361.24,   247.71  L  1360.96,   247.24  L  1360.55,   246.90  L  1360.04,   246.71  L  1359.50,   246.71  L  1358.99,   246.90  L  1358.58,   247.24  L  1358.97,   247.95  L  1358.97,   248.54  L  1359.35,   248.98  L  1359.92,   249.08  L  1360.42,   248.79  L  1360.62,   248.24  L  1360.42,   247.70  L  1359.92,   247.41  L  1359.35,   247.51  L  1359.77,   248.24  " /><path style="stroke-width: 1.42 ;&st7;  " d=" M  1368.27,   316.23  L  1240.79,   316.23  L  1240.79,   333.23  L  1368.27,   333.23  L  1368.27,   316.23  " /><path style="stroke-width: 0.28 ;&st9;  " d=" M  1249.29,   239.75  L  1243.63,   231.25  L  1254.96,   231.25  L  1249.29,   239.75  " /><path style="stroke-width: 0.28 ;&st9;  " d=" M  1274.79,   222.75  L  1283.29,   217.08  L  1283.29,   228.41  L  1274.79,   222.75  " /><path style="stroke-width: 0.85 ;&st7;  " d=" M  1300.28,   222.75  L  1249.29,   222.75  " /><path style="stroke-width: 0.85 ;&st7;  " d=" M  1402.27,   222.75  L  1325.78,   222.75  L  1325.78,   316.23  " /><path style="stroke-width: 0.85 ;&st7;  " d=" M  1358.58,   306.73  L  1358.31,   307.20  L  1358.21,   307.73  L  1358.31,   308.27  L  1358.58,   308.74  L  1358.99,   309.08  L  1359.50,   309.27  L  1360.04,   309.27  L  1360.55,   309.08  L  1360.96,   308.74  L  1361.24,   308.27  L  1361.33,   307.73  L  1361.24,   307.20  L  1360.96,   306.73  L  1360.55,   306.39  L  1360.04,   306.20  L  1359.50,   306.20  L  1358.99,   306.39  L  1358.58,   306.73  L  1358.97,   307.44  L  1358.97,   308.03  L  1359.35,   308.47  L  1359.92,   308.57  L  1360.42,   308.28  L  1360.62,   307.73  L  1360.42,   307.19  L  1359.92,   306.90  L  1359.35,   307.00  L  1359.77,   307.73  " /><path style="stroke-width: 0.85 ;&st7;  " d=" M  1401.07,   221.75  L  1400.80,   222.22  L  1400.71,   222.75  L  1400.80,   223.28  L  1401.07,   223.75  L  1401.49,   224.10  L  1401.99,   224.28  L  1402.54,   224.28  L  1403.04,   224.10  L  1403.46,   223.75  L  1403.73,   223.28  L  1403.82,   222.75  L  1403.73,   222.22  L  1403.46,   221.75  L  1403.04,   221.40  L  1402.54,   221.21  L  1401.99,   221.21  L  1401.49,   221.40  L  1401.07,   221.75  L  1401.47,   222.46  L  1401.47,   223.04  L  1401.84,   223.48  L  1402.41,   223.58  L  1402.92,   223.30  L  1403.11,   222.75  L  1402.92,   222.20  L  1402.41,   221.91  L  1401.84,   222.01  L  1402.27,   222.75  " /><path style="stroke-width: 0.85 ;&st7;  " d=" M  1359.77,   307.73  L  1402.27,   307.73  " /><path style="stroke-width: 0.85 ;&st7;  " d=" M  1401.07,   306.73  L  1400.80,   307.20  L  1400.71,   307.73  L  1400.80,   308.27  L  1401.07,   308.74  L  1401.49,   309.08  L  1401.99,   309.27  L  1402.54,   309.27  L  1403.04,   309.08  L  1403.46,   308.74  L  1403.73,   308.27  L  1403.82,   307.73  L  1403.73,   307.20  L  1403.46,   306.73  L  1403.04,   306.39  L  1402.54,   306.20  L  1401.99,   306.20  L  1401.49,   306.39  L  1401.07,   306.73  L  1401.47,   307.44  L  1401.47,   308.03  L  1401.84,   308.47  L  1402.41,   308.57  L  1402.92,   308.28  L  1403.11,   307.73  L  1402.92,   307.19  L  1402.41,   306.90  L  1401.84,   307.00  L  1402.27,   307.73  " /><path style="stroke-width: 0.85 ;&st7;  " d=" M  1402.27,   350.23  L  1334.28,   350.23  L  1334.28,   333.23  " /><path style="stroke-width: 0.85 ;&st7;  " d=" M  1359.77,   333.23  L  1359.77,   350.23  " /><path style="stroke-width: 0.85 ;&st7;  " d=" M  1299.09,   221.75  L  1298.82,   222.22  L  1298.72,   222.75  L  1298.82,   223.28  L  1299.09,   223.75  L  1299.50,   224.10  L  1300.01,   224.28  L  1300.55,   224.28  L  1301.06,   224.10  L  1301.47,   223.75  L  1301.75,   223.28  L  1301.84,   222.75  L  1301.75,   222.22  L  1301.47,   221.75  L  1301.06,   221.40  L  1300.55,   221.21  L  1300.01,   221.21  L  1299.50,   221.40  L  1299.09,   221.75  L  1299.48,   222.46  L  1299.48,   223.04  L  1299.86,   223.48  L  1300.43,   223.58  L  1300.93,   223.30  L  1301.13,   222.75  L  1300.93,   222.20  L  1300.43,   221.91  L  1299.86,   222.01  L  1300.28,   222.75  " /><path style="stroke-width: 0.28 ;&st9;  " d=" M  1359.77,   282.24  L  1354.11,   273.74  L  1365.44,   273.74  L  1359.77,   282.24  " /><path style="stroke-width: 0.85 ;&st7;  " d=" M  1372.51,   272.58  L  1370.17,   275.62  L  1368.70,   273.07  L  1372.51,   272.58  L  1371.22,   273.31  L  1370.24,   274.60  L  1369.62,   273.52  L  1371.22,   273.31  L  1370.58,   273.69  L  1370.27,   274.09  L  1370.08,   273.75  L  1370.58,   273.69  " /><path style="stroke-width: 0.85 ;&st7;  " d=" M  1374.51,   276.04  L  1372.17,   279.09  L  1370.71,   276.54  L  1374.51,   276.04  L  1373.23,   276.79  L  1372.24,   278.07  L  1371.62,   276.99  L  1373.23,   276.79  L  1372.59,   277.15  L  1372.27,   277.56  L  1372.08,   277.22  L  1372.59,   277.15  " /><path style="stroke-width: 0.85 ;&st7;  " d=" M  1401.07,   349.22  L  1400.80,   349.69  L  1400.71,   350.23  L  1400.80,   350.76  L  1401.07,   351.23  L  1401.49,   351.58  L  1401.99,   351.76  L  1402.54,   351.76  L  1403.04,   351.58  L  1403.46,   351.23  L  1403.73,   350.76  L  1403.82,   350.23  L  1403.73,   349.69  L  1403.46,   349.22  L  1403.04,   348.88  L  1402.54,   348.69  L  1401.99,   348.69  L  1401.49,   348.88  L  1401.07,   349.22  L  1401.47,   349.94  L  1401.47,   350.52  L  1401.84,   350.96  L  1402.41,   351.06  L  1402.92,   350.77  L  1403.11,   350.23  L  1402.92,   349.68  L  1402.41,   349.39  L  1401.84,   349.49  L  1402.27,   350.23  " /><path style="stroke-width: 0.85 ;&st7;  " d=" M  1401.07,   247.24  L  1400.80,   247.71  L  1400.71,   248.24  L  1400.80,   248.78  L  1401.07,   249.25  L  1401.49,   249.59  L  1401.99,   249.78  L  1402.54,   249.78  L  1403.04,   249.59  L  1403.46,   249.25  L  1403.73,   248.78  L  1403.82,   248.24  L  1403.73,   247.71  L  1403.46,   247.24  L  1403.04,   246.90  L  1402.54,   246.71  L  1401.99,   246.71  L  1401.49,   246.90  L  1401.07,   247.24  L  1401.47,   247.95  L  1401.47,   248.54  L  1401.84,   248.98  L  1402.41,   249.08  L  1402.92,   248.79  L  1403.11,   248.24  L  1402.92,   247.70  L  1402.41,   247.41  L  1401.84,   247.51  L  1402.27,   248.24  " /><path style="stroke-width: 0.85 ;&st7;  " d=" M  1358.58,   349.22  L  1358.31,   349.69  L  1358.21,   350.23  L  1358.31,   350.76  L  1358.58,   351.23  L  1358.99,   351.58  L  1359.50,   351.76  L  1360.04,   351.76  L  1360.55,   351.58  L  1360.96,   351.23  L  1361.24,   350.76  L  1361.33,   350.23  L  1361.24,   349.69  L  1360.96,   349.22  L  1360.55,   348.88  L  1360.04,   348.69  L  1359.50,   348.69  L  1358.99,   348.88  L  1358.58,   349.22  L  1358.97,   349.94  L  1358.97,   350.52  L  1359.35,   350.96  L  1359.92,   351.06  L  1360.42,   350.77  L  1360.62,   350.23  L  1360.42,   349.68  L  1359.92,   349.39  L  1359.35,   349.49  L  1359.77,   350.23  " /><path style="stroke-width: 0.85 ;&st7;  " d=" M  1249.29,   333.23  L  1249.29,   367.22  " /><path style="stroke-width: 0.85 ;&st7;  " d=" M  1300.28,   205.75  L  1300.28,   316.23  " /><path style="stroke-width: 1.42 ;&st7;  " d=" M  1223.80,   205.75  L  1223.80,   367.22  L  1470.25,   367.22  L  1470.25,   205.75  L  1223.80,   205.75  " /><path style="stroke-width: 0.85 ;&st7;  " d=" M  1402.27,   205.75  L  1402.27,   367.22  " /><path style="stroke-width: 0.28 ;&st9;  " d=" M  1402.27,   282.24  L  1396.60,   273.74  L  1407.93,   273.74  L  1402.27,   282.24  " /><path style="stroke-width: 0.85 ;&st7;  " d=" M  1415.00,   272.58  L  1412.66,   275.62  L  1411.20,   273.07  L  1415.00,   272.58  L  1413.72,   273.31  L  1412.73,   274.60  L  1412.11,   273.52  L  1413.72,   273.31  L  1413.08,   273.69  L  1412.76,   274.09  L  1412.57,   273.75  L  1413.08,   273.69  " /><path style="stroke-width: 0.85 ;&st7;  " d=" M  1417.00,   276.04  L  1414.67,   279.09  L  1413.20,   276.54  L  1417.00,   276.04  L  1415.72,   276.79  L  1414.74,   278.07  L  1414.11,   276.99  L  1415.72,   276.79  L  1415.08,   277.15  L  1414.77,   277.56  L  1414.57,   277.22  L  1415.08,   277.15  " /><path style="stroke-width: 0.85 ;&st7;  " d=" M  1304.53,   239.75  L  1296.03,   239.75  " /><path style="stroke-width: 0.85 ;&st7;  " d=" M  1253.54,   239.75  L  1245.04,   239.75  " /><path style="stroke-width: 0.85 ;&st7;  " d=" M  1274.79,   227.00  L  1274.79,   218.50  " /><path style="stroke-width: 0.85 ;&st7;  " d=" M  1364.02,   282.24  L  1355.52,   282.24  " /><path style="stroke-width: 0.85 ;&st7;  " d=" M  1372.50,   272.58  L  1365.14,   276.82  " /><path style="stroke-width: 0.85 ;&st7;  " d=" M  1367.15,   280.29  L  1374.51,   276.04  " /><path style="stroke-width: 0.85 ;&st7;  " d=" M  1406.51,   282.24  L  1398.02,   282.24  " /><path style="stroke-width: 0.85 ;&st7;  " d=" M  1415.00,   272.58  L  1407.64,   276.82  " /><path style="stroke-width: 0.85 ;&st7;  " d=" M  1409.64,   280.29  L  1417.00,   276.04  " /><g ewd:code="" ewd:figID="85" ewd:comment="14" ewd:figtype="commref"><text style="&st18;" transform="matrix(&st16;  1374.49  255.88 )">(*14)</text></g><g ewd:code="" ewd:figID="86" ewd:comment="14" ewd:figtype="commref"><text style="&st18;" transform="matrix(&st16;  1374.49  315.37 )">(*14)</text></g><text style="&st18;" transform="matrix(&st16;  1298.57  326.7 )">CPU</text><text style="&st18;" transform="matrix(&st17;  1394.32  288.19 )" ewd:textID="35">Illumination</text><text style="&st18;" transform="matrix(&st17;  1345.9  290.74 )" ewd:textID="37">LCD <tspan x="0 " dy="6.0">Illumination</tspan></text><text style="&st18;" transform="matrix(&st16;  1252.12  363.53 )">ILL-</text><text style="&st18;" transform="matrix(&st16;  1405.1  213.94 )">ILL+</text><text style="&st18;" transform="matrix(&st16;  1303.12  213.94 )">IG+</text><text style="&st18;" transform="matrix(&st16;  1405.1  363.53 )">EP</text><text style="&st18;" transform="matrix(&st16;  1252.12  213.94 )">B</text><g ewd:code="" ewd:figID="84" ewd:comment="15" ewd:figtype="commref"><text style="&st18;" transform="matrix(&st17;  1409.9  246.27 )">(*15)</text></g><g ewd:code="" ewd:figID="83" ewd:comment="15" ewd:figtype="commref"><text style="&st18;" transform="matrix(&st17;  1409.9  335.51 )">(*15)</text></g><path style="stroke-width: 0.85 ;&st7;  " d=" M  1449.01,   282.24  L  1440.51,   282.24  " /><path style="stroke-width: 0.85 ;&st7;  " d=" M  1457.49,   272.58  L  1450.13,   276.82  " /><path style="stroke-width: 0.85 ;&st7;  " d=" M  1452.14,   280.29  L  1459.50,   276.04  " /><path style="stroke-width: 0.28 ;&st9;  " d=" M  1444.76,   282.24  L  1439.09,   273.74  L  1450.42,   273.74  L  1444.76,   282.24  " /><path style="stroke-width: 0.85 ;&st7;  " d=" M  1457.49,   272.58  L  1455.16,   275.62  L  1453.69,   273.07  L  1457.49,   272.58  L  1456.21,   273.31  L  1455.22,   274.60  L  1454.61,   273.52  L  1456.21,   273.31  L  1455.57,   273.69  L  1455.26,   274.09  L  1455.06,   273.75  L  1455.57,   273.69  " /><path style="stroke-width: 0.85 ;&st7;  " d=" M  1459.49,   276.04  L  1457.16,   279.09  L  1455.69,   276.54  L  1459.49,   276.04  L  1458.21,   276.79  L  1457.23,   278.07  L  1456.61,   276.99  L  1458.21,   276.79  L  1457.57,   277.15  L  1457.26,   277.56  L  1457.07,   277.22  L  1457.57,   277.15  " /><text style="&st18;" transform="matrix(&st17;  1437.1  281.83 )" ewd:textID="57">Tail</text><path style="stroke-width: 0.85 ;&st7;  " d=" M  1402.27,   222.75  L  1444.76,   222.75  L  1444.76,   350.23  L  1402.27,   350.23  " /><text style="&st18;" transform="matrix(&st16;  1238.41  373.73 )">9</text><path style="stroke-width: 1.42 ;&st7;   " d=" M  1253.82,   371.76  C  1253.82    369.25   1251.79    367.22   1249.29    367.22  " /><path style="stroke-width: 1.42 ;&st7;   " d=" M  1249.29,   367.22  C  1246.79    367.22   1244.76    369.25   1244.76    371.76  " /><path style="stroke-width: 1.42 ;&st7;   " d=" M  1244.76,   371.76  C  1244.76    374.26   1246.79    376.29   1249.29    376.29  " /><path style="stroke-width: 1.42 ;&st7;   " d=" M  1249.29,   376.29  C  1251.79    376.29   1253.82    374.26   1253.82    371.76  " /><text style="&st18;" transform="matrix(&st16;  1247.4  373.73 )">A</text><text style="&st18;" transform="matrix(&st16;  1238.41  203.19 )">1</text><text style="&st18;" transform="matrix(&st16;  1247.4  203.19 )">A</text><path style="stroke-width: 1.42 ;&st7;   " d=" M  1253.82,   201.22  C  1253.82    198.72   1251.79    196.69   1249.29    196.69  " /><path style="stroke-width: 1.42 ;&st7;   " d=" M  1249.29,   196.69  C  1246.79    196.69   1244.76    198.72   1244.76    201.22  " /><path style="stroke-width: 1.42 ;&st7;   " d=" M  1244.76,   201.22  C  1244.76    203.72   1246.79    205.75   1249.29    205.75  " /><path style="stroke-width: 1.42 ;&st7;   " d=" M  1249.29,   205.75  C  1251.79    205.75   1253.82    203.72   1253.82    201.22  " /><text style="&st18;" transform="matrix(&st16;  1285.45  203.19 )">21</text><text style="&st18;" transform="matrix(&st16;  1298.39  203.19 )">A</text><path style="stroke-width: 1.42 ;&st7;   " d=" M  1304.82,   201.22  C  1304.82    198.72   1302.79    196.69   1300.28    196.69  " /><path style="stroke-width: 1.42 ;&st7;   " d=" M  1300.28,   196.69  C  1297.78    196.69   1295.75    198.72   1295.75    201.22  " /><path style="stroke-width: 1.42 ;&st7;   " d=" M  1295.75,   201.22  C  1295.75    203.72   1297.78    205.75   1300.28    205.75  " /><path style="stroke-width: 1.42 ;&st7;   " d=" M  1300.28,   205.75  C  1302.79    205.75   1304.82    203.72   1304.82    201.22  " /><text style="&st18;" transform="matrix(&st16;  1387.43  373.73 )">22</text><path style="stroke-width: 1.42 ;&st7;   " d=" M  1406.80,   371.76  C  1406.80    369.25   1404.77    367.22   1402.27    367.22  " /><path style="stroke-width: 1.42 ;&st7;   " d=" M  1402.27,   367.22  C  1399.76    367.22   1397.73    369.25   1397.73    371.76  " /><path style="stroke-width: 1.42 ;&st7;   " d=" M  1397.73,   371.76  C  1397.73    374.26   1399.76    376.29   1402.27    376.29  " /><path style="stroke-width: 1.42 ;&st7;   " d=" M  1402.27,   376.29  C  1404.77    376.29   1406.80    374.26   1406.80    371.76  " /><text style="&st18;" transform="matrix(&st16;  1400.37  373.73 )">A</text><text style="&st18;" transform="matrix(&st16;  1391.39  203.19 )">8</text><text style="&st18;" transform="matrix(&st16;  1400.37  203.19 )">A</text><path style="stroke-width: 1.42 ;&st7;   " d=" M  1406.80,   201.22  C  1406.80    198.72   1404.77    196.69   1402.27    196.69  " /><path style="stroke-width: 1.42 ;&st7;   " d=" M  1402.27,   196.69  C  1399.76    196.69   1397.73    198.72   1397.73    201.22  " /><path style="stroke-width: 1.42 ;&st7;   " d=" M  1397.73,   201.22  C  1397.73    203.72   1399.76    205.75   1402.27    205.75  " /><path style="stroke-width: 1.42 ;&st7;   " d=" M  1402.27,   205.75  C  1404.77    205.75   1406.80    203.72   1406.80    201.22  " /><g ewd:figtype="title"><text style="&st18;" transform="matrix(&st17;  1220.1  369.75 )" ewd:textID="27">Combination Meter Assembly</text><text style="&st18;" transform="matrix(&st17;  1212.99  369.75 )">G19(A)</text></g></g><g ewd:figtype="jb" ewd:figID="37" ewd:code="2"><path style="stroke-width: 0.28 ;&st9;  " d=" M  1249.29,    74.67  L  1252.12,    77.50  L  1252.12,    73.25  L  1249.29,    70.42  L  1246.46,    73.25  L  1246.46,    77.50  L  1249.29,    74.67  " /><path style="stroke-width: 0.28 ;&st9;  " d=" M  1249.29,    90.37  L  1246.46,    87.54  L  1246.46,    91.79  L  1249.29,    94.62  L  1252.12,    91.79  L  1252.12,    87.54  L  1249.29,    90.37  " /><path style="stroke-width: 0.85 ;&st7;  " d=" M  1249.29,    95.27  L  1249.29,    69.77  " /><path style="stroke-width: 1.42 ;&st7;   " d=" M  1247.17,    61.28  C  1244.82     61.28   1242.92     63.18   1242.92     65.52  " /><path style="stroke-width: 1.42 ;&st7;   " d=" M  1242.92,    65.52  C  1242.92     67.87   1244.82     69.77   1247.17     69.77  " /><path style="stroke-width: 1.42 ;&st7;   " d=" M  1251.42,    69.77  C  1253.76     69.77   1255.67     67.87   1255.67     65.52  " /><path style="stroke-width: 1.42 ;&st7;   " d=" M  1255.67,    65.52  C  1255.67     63.18   1253.76     61.28   1251.42     61.28  " /><path style="stroke-width: 1.42 ;&st7;   " d=" M  1247.17,    95.27  C  1244.82     95.27   1242.92     97.17   1242.92     99.52  " /><path style="stroke-width: 1.42 ;&st7;   " d=" M  1242.92,    99.52  C  1242.92    101.87   1244.82    103.77   1247.17    103.77  " /><path style="stroke-width: 1.42 ;&st7;   " d=" M  1251.42,   103.77  C  1253.76    103.77   1255.67    101.87   1255.67     99.52  " /><path style="stroke-width: 1.42 ;&st7;   " d=" M  1255.67,    99.52  C  1255.67     97.17   1253.76     95.27   1251.42     95.27  " /><path style="stroke-width: 1.42 ;&st7;  " d=" M  1251.42,    61.28  L  1247.17,    61.28  " /><path style="stroke-width: 1.42 ;&st7;  " d=" M  1251.42,    69.77  L  1247.17,    69.77  " /><path style="stroke-width: 1.42 ;&st7;  " d=" M  1251.42,    95.27  L  1247.17,    95.27  " /><path style="stroke-width: 1.42 ;&st7;  " d=" M  1251.42,   103.77  L  1247.17,   103.77  " /><text style="&st18;" transform="matrix(&st16;  1232.65  101.49 )">25</text><text style="&st18;" transform="matrix(&st16;  1245.5  101.49 )">2Q</text><text style="&st18;" transform="matrix(&st16;  1236.6  67.49 )">8</text><text style="&st18;" transform="matrix(&st16;  1246.3  67.49 )">2J</text></g><g ewd:figtype="jb" ewd:figID="38" ewd:code="2"><path style="stroke-width: 0.28 ;&st9;  " d=" M  1300.28,    90.37  L  1297.45,    87.54  L  1297.45,    91.79  L  1300.28,    94.62  L  1303.12,    91.79  L  1303.12,    87.54  L  1300.28,    90.37  " /><path style="stroke-width: 1.42 ;&st7;  " d=" M  1287.53,    35.78  L  1287.53,    78.27  L  1313.03,    78.27  L  1313.03,    35.78  L  1287.53,    35.78  " /><path style="stroke-width: 1.42 ;&st7;   " d=" M  1300.28,    47.11  C  1297.54     48.72   1296.63     52.25   1298.25     54.99  " /><path style="stroke-width: 1.42 ;&st7;   " d=" M  1298.25,    54.99  C  1298.77     55.87   1299.40     56.51   1300.28     57.03  " /><path style="stroke-width: 1.42 ;&st7;   " d=" M  1300.28,    66.94  C  1303.02     65.33   1303.93     61.80   1302.32     59.06  " /><path style="stroke-width: 1.42 ;&st7;   " d=" M  1302.32,    59.06  C  1301.80     58.18   1301.16     57.55   1300.28     57.03  " /><path style="stroke-width: 0.85 ;&st7;   " d=" M  1301.70,    45.69  C  1301.70     44.91   1301.07     44.28   1300.28     44.28  " /><path style="stroke-width: 0.85 ;&st7;   " d=" M  1300.28,    44.28  C  1299.50     44.28   1298.87     44.91   1298.87     45.69  " /><path style="stroke-width: 0.85 ;&st7;   " d=" M  1298.87,    45.69  C  1298.87     46.48   1299.50     47.11   1300.28     47.11  " /><path style="stroke-width: 0.85 ;&st7;   " d=" M  1300.28,    47.11  C  1301.07     47.11   1301.70     46.48   1301.70     45.69  " /><path style="stroke-width: 0.85 ;&st7;   " d=" M  1301.70,    68.36  C  1301.70     67.57   1301.07     66.94   1300.28     66.94  " /><path style="stroke-width: 0.85 ;&st7;   " d=" M  1300.28,    66.94  C  1299.50     66.94   1298.87     67.57   1298.87     68.36  " /><path style="stroke-width: 0.85 ;&st7;   " d=" M  1298.87,    68.36  C  1298.87     69.14   1299.50     69.77   1300.28     69.77  " /><path style="stroke-width: 0.85 ;&st7;   " d=" M  1300.28,    69.77  C  1301.07     69.77   1301.70     69.14   1301.70     68.36  " /><path style="stroke-width: 1.42 ;&st7;   " d=" M  1298.16,    95.27  C  1295.81     95.27   1293.91     97.17   1293.91     99.52  " /><path style="stroke-width: 1.42 ;&st7;   " d=" M  1293.91,    99.52  C  1293.91    101.87   1295.81    103.77   1298.16    103.77  " /><path style="stroke-width: 1.42 ;&st7;   " d=" M  1302.41,   103.77  C  1304.75    103.77   1306.66    101.87   1306.66     99.52  " /><path style="stroke-width: 1.42 ;&st7;   " d=" M  1306.66,    99.52  C  1306.66     97.17   1304.75     95.27   1302.41     95.27  " /><path style="stroke-width: 0.85 ;&st7;  " d=" M  1300.28,    69.77  L  1300.28,    95.27  " /><path style="stroke-width: 1.42 ;&st7;  " d=" M  1302.41,    95.27  L  1298.16,    95.27  " /><path style="stroke-width: 1.42 ;&st7;  " d=" M  1302.41,   103.77  L  1298.16,   103.77  " /><text style="&st18;" transform="matrix(&st16;  1295.42  32.08 )">(IG)</text><text style="&st18;" transform="matrix(&st16;  1287.59  101.49 )">1</text><text style="&st18;" transform="matrix(&st16;  1296.67  101.49 )">2D</text><text style="&st18;" transform="matrix(&st16;  1317.59  56.17 )">7.5A <tspan x="0 " dy="6.0">MET</tspan></text></g><g ewd:figtype="gp" ewd:figID="47" ewd:code="G1"><path style="stroke-width: 0.85 ;&st7;  " d=" M  1103.40,   710.00  L  1106.23,   710.00  " /><path style="stroke-width: 0.85 ;&st7;  " d=" M  1101.98,   707.17  L  1107.65,   707.17  " /><path style="stroke-width: 0.85 ;&st7;  " d=" M  1100.57,   704.33  L  1109.06,   704.33  " /><path style="stroke-width: 0.85 ;&st7;  " d=" M  1096.32,   701.50  L  1113.31,   701.50  " /><path style="stroke-width: 0.85 ;&st7;  " d=" M  1104.81,   697.25  L  1104.81,   701.50  " /></g></svg>